20:35,Friday,51.4965411723459,-0.08861340644265309
13:10,Friday,51.49479433691773,-0.10811371455382496
10:36,Friday,51.5037241727457,-0.10742126045536826
2:59,Friday,51.50701904552845,-0.11109224092524209
10:3,Friday,51.49307452086451,-0.10398607267969362
15:11,Friday,51.48995955661705,-0.11745771295740344
9:31,Friday,51.50535839906246,-0.09906583809022507
9:54,Friday,51.50581886635847,-0.11414549010195567
7:38,Friday,51.493133634387675,-0.10020189244954886
8:37,Friday,51.496502616506056,-0.09119910497845546
14:34,Friday,51.49063642671395,-0.0823438278744773
1:16,Friday,51.49170225211933,-0.09532705522748504
22:9,Friday,51.49274378907635,-0.080929687919292
20:38,Friday,51.49487216912806,-0.1162881689463293
14:0,Friday,51.48941669111498,-0.11941684915395179
20:37,Friday,51.50422738271045,-0.10876267378986491
18:19,Friday,51.50362461429615,-0.09706475129738164
0:41,Friday,51.495463240783344,-0.09082996747101017
0:4,Friday,51.50316199226637,-0.11588904461720581
10:34,Friday,51.500775438823936,-0.08104433930703162
5:14,Friday,51.49949507635309,-0.08335343519961669
7:11,Friday,51.50195697143397,-0.08752961801268659
18:11,Friday,51.49140253909023,-0.11816172911187128
12:13,Friday,51.48978780864949,-0.08952556038496871
19:37,Friday,51.49077893988199,-0.1142781284935385
6:19,Friday,51.4935780160709,-0.09296748313364393
18:24,Friday,51.507016729566516,-0.11883910711692237
20:6,Friday,51.498811398471,-0.09063588224306188
10:10,Friday,51.496445274259266,-0.08787134958588477
6:8,Friday,51.50484345167645,-0.11883565756764256
11:42,Friday,51.49710257039735,-0.10921417950684385
1:58,Friday,51.49084146503907,-0.09527373709368465
8:9,Friday,51.49355090496007,-0.10529289164870205
18:54,Friday,51.496722330438146,-0.0959149870926654
20:47,Friday,51.50659487215697,-0.11339059474950014
21:17,Friday,51.505652634357055,-0.09002784931094687
14:39,Friday,51.48933367192565,-0.0964159433133374
13:47,Friday,51.50500919654753,-0.08212691544611464
7:12,Friday,51.492324369982704,-0.1185625600848722
3:57,Friday,51.498159203471005,-0.08294210582985499
21:3,Friday,51.491411554968394,-0.0886603552803013
19:10,Friday,51.49680930264754,-0.1190967254084509
9:45,Friday,51.49374870310628,-0.11959188408737853
11:17,Friday,51.49903027271459,-0.08138498455675328
1:40,Friday,51.499484494646445,-0.11536612602849351
3:4,Friday,51.50226555800216,-0.09353341248899648
6:20,Friday,51.50252673907478,-0.09244529781024535
1:33,Friday,51.4939056259804,-0.11923012167765296
0:38,Friday,51.50698307408025,-0.10477798712286233
20:47,Friday,51.49750096892541,-0.10696912723231874
2:36,Friday,51.49434043007968,-0.10091280991604971
19:16,Friday,51.49643527826994,-0.08746558085127468
20:10,Friday,51.506043915229974,-0.09891241355140293
1:44,Friday,51.49243647885767,-0.11189596703339139
12:4,Friday,51.506343977162885,-0.11008526950084271
19:43,Friday,51.50632617272954,-0.09851144072082042
20:11,Friday,51.49004107410813,-0.11804910597267992
0:56,Friday,51.50040407152018,-0.0873844586682847
23:0,Friday,51.49591897899951,-0.10787411479930434
23:5,Friday,51.4990816632283,-0.0830708072356196
9:59,Friday,51.4926367990774,-0.08783803527414098
16:52,Friday,51.490576332779824,-0.0879949037246835
11:43,Friday,51.50543069642068,-0.08264569690858792
10:39,Friday,51.49389976770588,-0.11906241342225354
18:45,Friday,51.49047190662998,-0.10919791509545465
10:29,Friday,51.48973119765746,-0.088265291088298
18:45,Friday,51.504665627914825,-0.09210749820913787
13:18,Friday,51.50412866063873,-0.10218338470657595
0:48,Friday,51.49991085798754,-0.08110965284556715
17:9,Friday,51.50204345773388,-0.08380861663127862
0:51,Friday,51.48859082779351,-0.08443305408830282
23:31,Friday,51.50625139910626,-0.08104587778884273
8:41,Friday,51.4919584963994,-0.11397222002110691
7:48,Friday,51.490643938036534,-0.0813041141530674
3:56,Friday,51.49710305947481,-0.09666779506819431
10:28,Friday,51.500201380700716,-0.096228196062781
11:20,Friday,51.50032849947176,-0.10670108718552763
13:53,Friday,51.496080792316306,-0.09965034484507926
0:9,Friday,51.491641688713344,-0.1088137562342328
23:58,Friday,51.5026304771476,-0.10002734289434212
21:51,Friday,51.50453875039636,-0.11952345519814707
11:33,Friday,51.493075691860795,-0.08843923748774013
20:59,Friday,51.488927382850484,-0.09301448437764756
10:20,Friday,51.49580488620673,-0.11123625756308508
14:58,Friday,51.4888610550626,-0.10500417251527853
14:13,Friday,51.5018818108182,-0.11253056498852405
16:56,Friday,51.50222877882486,-0.11287589635078397
11:13,Friday,51.49681859226549,-0.10960653894598255
16:59,Friday,51.49108403860979,-0.09218974186445107
11:8,Friday,51.50308560970201,-0.08921182242105932
22:27,Friday,51.49567017738293,-0.11728112008434174
19:18,Friday,51.49191904732291,-0.08587795116471056
11:13,Friday,51.49051233465746,-0.11935585245162929
12:54,Friday,51.49607389547717,-0.0874786567126687
14:15,Friday,51.50023889024039,-0.10848030015680327
4:25,Friday,51.503504870493266,-0.11310908471793718
11:13,Friday,51.49194026669644,-0.10659609870184446
4:36,Friday,51.50306647525051,-0.08612865844065744
4:10,Friday,51.505125471692644,-0.10305810616030911
13:48,Friday,51.50220711750598,-0.11006810013853854
19:46,Friday,51.489996016428265,-0.08172499404038173
6:11,Friday,51.50463752372924,-0.0974333975141499
9:7,Friday,51.49370304440643,-0.08303158065402994
23:44,Friday,51.49835977253183,-0.10952435940010319
22:47,Friday,51.48886132768695,-0.09083341590824565
18:29,Friday,51.496303160885404,-0.08434285750571292
10:57,Friday,51.48998348179701,-0.11110389556127426
5:35,Friday,51.49351024361668,-0.10857555636056031
5:44,Friday,51.50259146528315,-0.10889060271486298
2:44,Friday,51.50486879444272,-0.11031917962990839
0:44,Friday,51.4969775970869,-0.09614325501196605
0:56,Friday,51.48838031831923,-0.09912545737665608
4:27,Friday,51.50653740982848,-0.08523016124128824
11:45,Friday,51.491501406774965,-0.09521081858387753
21:44,Friday,51.50662375261162,-0.11801293249375616
17:26,Friday,51.50685796557988,-0.10625676004722934
5:31,Friday,51.5037701224951,-0.0841712739926227
19:21,Friday,51.49502326866357,-0.11089699028030375
2:13,Friday,51.496903000709366,-0.10529096799626089
11:58,Friday,51.49835431449639,-0.1166797490407226
17:9,Friday,51.48840971832877,-0.1157871332963502
21:1,Friday,51.49621522990484,-0.08286518140138988
18:4,Friday,51.49301041290579,-0.09244897622841944
15:4,Friday,51.49961939325208,-0.09246460945142976
18:12,Friday,51.50467558067152,-0.11721518170443967
7:10,Friday,51.48953464121054,-0.08335678146786664
5:6,Friday,51.49289529269376,-0.08539268498651681
10:31,Friday,51.505822487281115,-0.10238722209967785
13:49,Friday,51.48954342099258,-0.09402152849474708
23:56,Friday,51.49362994548792,-0.10936008713023064
9:23,Friday,51.49820940717123,-0.09014842861956895
18:2,Friday,51.498489361368634,-0.09827541646799282
18:7,Friday,51.49058027033177,-0.10461830309965893
13:47,Friday,51.50053808325875,-0.10951371697859763
12:57,Friday,51.50682529453895,-0.10117543232878579
15:14,Friday,51.49798072395214,-0.10675528059458383
3:29,Friday,51.49417128420313,-0.08745767926321368
20:16,Friday,51.49751189110294,-0.1061939795349425
11:15,Friday,51.493658245555565,-0.10621499847657326
15:27,Friday,51.49015760677831,-0.11988950313732769
1:42,Friday,51.493957247032725,-0.09259969945559066
1:11,Friday,51.50525199996057,-0.11653357740714551
5:7,Friday,51.494837095134564,-0.08244393697074746
8:11,Friday,51.50291062959111,-0.1198784470593759
4:50,Friday,51.495572280942106,-0.10477467883093
12:56,Friday,51.50328213827319,-0.08329955669717667
2:59,Friday,51.50687715839132,-0.09646784306466702
12:36,Friday,51.49722692107873,-0.09277936170772753
1:28,Friday,51.50416594909241,-0.11683297414158296
23:12,Friday,51.49254120001857,-0.088427527117513
0:2,Friday,51.49184140548559,-0.10641702620100839
22:36,Friday,51.490319351736446,-0.08692480600099822
7:40,Friday,51.504260847080225,-0.09223401944282367
10:50,Friday,51.5024006357231,-0.10246023501518473
20:20,Friday,51.503237775565054,-0.11366104966228734
22:57,Friday,51.50112496685746,-0.0916644212221457
9:4,Friday,51.50623373948589,-0.11028945903823024
23:57,Friday,51.50697358597652,-0.1117002222443854
9:57,Friday,51.496406973218754,-0.08982382630577963
16:0,Friday,51.48989603199553,-0.09950557493910367
15:24,Friday,51.504381768789685,-0.09172722399664573
18:18,Friday,51.506884574639386,-0.11588945324040723
4:37,Friday,51.499588352792976,-0.10426715795967507
19:50,Friday,51.49870083540132,-0.09682027581098648
4:10,Friday,51.506637822399426,-0.08385907979991783
5:55,Friday,51.49177010268954,-0.1040424168570912
14:48,Friday,51.499989754808205,-0.1151018067482516
2:54,Friday,51.49453485968309,-0.11403923729502358
0:3,Friday,51.501699984653705,-0.08305892896791855
6:52,Friday,51.49167429206303,-0.0905895392484288
4:5,Friday,51.500570168370594,-0.08898589077332748
20:48,Friday,51.50353570911347,-0.08334257861589595
8:23,Friday,51.50606544956422,-0.08354790300949456
18:7,Friday,51.49675966595086,-0.08322126804804003
19:38,Friday,51.499813107491406,-0.08402649728627573
16:11,Friday,51.495970076946165,-0.10324100003821668
23:49,Friday,51.501803723722105,-0.11931152768547
23:54,Friday,51.50473456288188,-0.08403607287354306
14:51,Friday,51.50155403641111,-0.08849398221891891
20:20,Friday,51.49462061306725,-0.08813165413728224
4:5,Friday,51.49322739783054,-0.09304577882630088
3:21,Friday,51.49193648303181,-0.1133983881929436
16:21,Friday,51.50261025944968,-0.1064334439949749
14:19,Friday,51.49694066539784,-0.11294802851526846
19:29,Friday,51.49827800577741,-0.10910233503652766
13:15,Friday,51.49538814623495,-0.09097578486784152
2:4,Friday,51.489493701380304,-0.11211764434798736
20:58,Friday,51.50002416514278,-0.08577960391209125
22:58,Friday,51.49368601443286,-0.09141887053794892
5:4,Friday,51.50060061572431,-0.11236157688548293
19:3,Friday,51.504769734726565,-0.11747479461817167
5:54,Friday,51.505517830179194,-0.0863590731972648
8:28,Friday,51.49944507651943,-0.1019327041518181
13:3,Friday,51.489296921813384,-0.10609055028625529
13:4,Friday,51.50594987547925,-0.09582897114097025
1:31,Friday,51.49741867823628,-0.11335040641097355
8:19,Friday,51.503245166920074,-0.10676833190661461
8:53,Friday,51.48965019130009,-0.08554578499894747
8:6,Friday,51.48931188144602,-0.11055640786169268
6:51,Friday,51.495486401510156,-0.08299587735464029
3:50,Friday,51.49622613185736,-0.0851241260480062
2:51,Friday,51.49378600740623,-0.1187222977270019
16:43,Friday,51.48915929970922,-0.10951206385955677
7:46,Friday,51.50036144454442,-0.11418133343439044
14:43,Friday,51.49839099905064,-0.08242508398509651
17:58,Friday,51.49490226981257,-0.11647506134223903
20:3,Friday,51.491867059292204,-0.08632880359593172
8:33,Friday,51.48879807695326,-0.09386100498722934
21:25,Friday,51.50425969795023,-0.09341033986764308
18:27,Friday,51.50583298280342,-0.1164295841417218
2:41,Friday,51.5016609232989,-0.11297956019836018
7:3,Friday,51.490180081922276,-0.10384140521001618
1:18,Friday,51.50625265999808,-0.0924206004781166
9:55,Friday,51.48948181126631,-0.08368525640755758
21:56,Friday,51.48844783421132,-0.08633263891826588
0:58,Friday,51.50206360467072,-0.08793730027176803
1:52,Friday,51.49344557852222,-0.1092732519483378
2:29,Friday,51.49588093632845,-0.11737807989324692
11:32,Friday,51.502143113521,-0.08753680769145897
22:6,Friday,51.48854984829032,-0.11660590156435775
20:54,Friday,51.505461447403896,-0.08777577053468216
17:47,Friday,51.48950292473167,-0.10092131419010807
1:57,Friday,51.50616982398962,-0.08607661185525983
21:43,Friday,51.497856111234576,-0.08848047728740052
21:20,Friday,51.501473882701056,-0.09011282588767887
4:15,Friday,51.492509494199886,-0.08889665063029753
21:7,Friday,51.504545040809475,-0.11009492687336234
2:55,Friday,51.50394184460919,-0.08513192348139376
10:37,Friday,51.49288235568429,-0.09150285357392554
20:56,Friday,51.49953538415352,-0.10626313593314998
0:45,Friday,51.50007156491233,-0.0845052829277349
1:48,Friday,51.500838381311745,-0.10042249774991
8:56,Friday,51.49929624974617,-0.1114210744503002
7:30,Friday,51.489942281958115,-0.11052917089231644
19:41,Friday,51.498054967863965,-0.08522590172962691
22:36,Friday,51.49553941213034,-0.09714139589062339
10:39,Friday,51.50093998613923,-0.11848424813878726
12:34,Friday,51.49631675973035,-0.09894097478332214
11:46,Friday,51.49865762204084,-0.0859086486752341
4:34,Friday,51.490918138503,-0.0928084528574615
9:6,Friday,51.50413663339604,-0.1020632133382417
9:40,Friday,51.4933847274219,-0.11039027004183316
19:4,Friday,51.49229941449267,-0.10403987550704827
7:7,Friday,51.50182288263255,-0.11085436464903688
19:56,Friday,51.49275985320825,-0.11892035607012809
23:13,Friday,51.493892350656644,-0.10872742003075025
15:47,Friday,51.5036060802251,-0.10615938548876681
18:53,Friday,51.49590691935531,-0.1073928172303726
0:20,Friday,51.49426927491868,-0.08572018110775284
23:42,Friday,51.500105932128726,-0.10021620064495654
3:51,Friday,51.49111949128101,-0.08231793307913093
4:28,Friday,51.504823950843296,-0.09151352041575507
19:57,Friday,51.493881548239216,-0.09356021253516644
22:30,Friday,51.49052073075675,-0.11114986374254947
18:44,Friday,51.5046585843268,-0.11936063815377242
13:5,Friday,51.48894379605047,-0.09210980918845471
22:43,Friday,51.50040802167552,-0.10155495104020365
0:56,Friday,51.49126796650701,-0.09936360194513537
1:16,Friday,51.499947812224214,-0.0839997444121558
16:50,Friday,51.5028061449192,-0.10131190692186796
3:2,Friday,51.497438242121866,-0.10300381434466332
4:7,Friday,51.49460729384418,-0.09652630115794054
14:23,Friday,51.49561620336765,-0.11091816528662114
19:36,Friday,51.50652850387119,-0.10776358294108465
6:7,Friday,51.49445685276321,-0.09847749065474591
5:1,Friday,51.49379028631126,-0.11041962328883001
3:38,Friday,51.49325301961473,-0.10001568648817143
2:44,Friday,51.50649280666999,-0.08204016041411222
13:55,Friday,51.49045065067275,-0.10177652478109209
14:51,Friday,51.48971956596289,-0.09006180378747862
9:59,Friday,51.489737841887425,-0.08621663745137817
21:6,Friday,51.48876396780901,-0.09987532023982841
22:37,Friday,51.50112230284258,-0.11766039882008493
16:15,Friday,51.49682676111455,-0.08888784724218622
16:4,Friday,51.49382533786874,-0.10432517584992639
4:55,Friday,51.489588662081005,-0.09327238760643915
23:56,Friday,51.4883227757267,-0.08200591242674413
2:42,Friday,51.48879428541865,-0.11765777481606246
7:8,Friday,51.497633434518924,-0.10288763318458458
13:35,Friday,51.50219708386818,-0.11077818076866608
5:11,Friday,51.49944432313013,-0.0867129861420747
18:55,Friday,51.49699594390741,-0.08856463033382811
8:3,Friday,51.50436665329609,-0.10484567671169336
17:14,Friday,51.50441558197709,-0.10276918773875672
14:43,Friday,51.49394922053776,-0.11948084249038028
22:43,Friday,51.494369781455156,-0.11690673709584096
10:20,Friday,51.49061996636702,-0.09479991683029083
22:4,Friday,51.48897963553046,-0.11931819190263512
23:46,Friday,51.490188018155074,-0.0863252863110291
20:19,Friday,51.49983572877774,-0.09689238382095519
9:35,Friday,51.493607282798564,-0.10091720353599233
12:41,Friday,51.49429100505473,-0.09900639213093104
7:46,Friday,51.493137222186775,-0.10303162732356752
21:57,Friday,51.49589150805271,-0.1184380798011159
17:47,Friday,51.496024209302156,-0.10056872757215837
11:4,Friday,51.49813002416624,-0.08599530872747387
20:40,Friday,51.49316199971431,-0.09841130737949191
3:23,Friday,51.488996190322396,-0.10579066864901812
21:27,Friday,51.49644517551705,-0.11892220021983221
10:24,Friday,51.495304640480754,-0.11331601002019824
10:38,Friday,51.49737240366451,-0.10070932673360249
20:3,Friday,51.49165232703173,-0.10963524997682422
8:15,Friday,51.492932439106795,-0.10164669906901276
11:31,Friday,51.4985336284074,-0.08370698274043073
17:50,Friday,51.498030788908174,-0.10982071801805918
2:55,Friday,51.50261494144826,-0.0874453297375824
5:31,Friday,51.506978631125236,-0.09611522516801341
3:43,Friday,51.489002164452444,-0.09598226111544214
20:51,Friday,51.503185445656754,-0.1057043030842772
5:19,Friday,51.50416507222028,-0.08268187441224384
7:34,Friday,51.48831057304019,-0.11760578887466477
23:47,Friday,51.50057472842137,-0.11400407603581156
3:51,Friday,51.5007264347258,-0.09390442349289246
21:40,Friday,51.49419365003659,-0.09576480367334918
19:41,Friday,51.492900179856676,-0.10769387416156323
9:45,Friday,51.490848177035964,-0.10873885369145309
4:12,Friday,51.49296710324903,-0.08656523154851632
5:13,Friday,51.501878312815016,-0.11182457456236197
22:23,Friday,51.50377658965797,-0.09888850250048953
12:7,Friday,51.49284004302305,-0.0853496629054504
18:57,Friday,51.49544459475579,-0.09340571417781411
11:21,Friday,51.498068800505166,-0.0882856737386114
1:31,Friday,51.50314459988612,-0.09154876884475108
2:39,Friday,51.50683325396636,-0.08240378395311124
9:38,Friday,51.50022948273945,-0.09725315637618395
1:15,Friday,51.496049061358896,-0.08133050322713833
2:37,Friday,51.4893107747962,-0.10665497487506734
18:59,Friday,51.503075243409185,-0.11051948292357029
14:0,Friday,51.50210300995311,-0.1150122011379317
13:19,Friday,51.489730340521646,-0.09146862379016257
3:56,Friday,51.497905645094406,-0.08668902984085355
15:5,Friday,51.5027003318723,-0.11299818838618345
14:19,Friday,51.49019654302838,-0.08443288620964425
8:34,Friday,51.492645189226714,-0.09698248246272315
7:36,Friday,51.488609154311774,-0.09960212192933236
0:50,Friday,51.493683205163414,-0.10891321434003613
1:28,Friday,51.49011401303358,-0.11730709017157004
18:28,Friday,51.48859648040325,-0.10400368511414165
0:12,Friday,51.50668885898542,-0.09751739152330673
20:22,Friday,51.49187764490716,-0.11137152694332031
5:21,Friday,51.48884232223854,-0.08143095444425129
22:19,Friday,51.497075198304984,-0.10788980655319567
23:38,Friday,51.49657340363263,-0.09939799204325234
15:11,Friday,51.50281427690429,-0.10944552397450158
1:15,Friday,51.502178551158444,-0.09281820233081306
7:8,Friday,51.49326618398477,-0.0922561922958145
15:55,Friday,51.494275480782115,-0.09911809334976845
12:2,Friday,51.50309678396687,-0.09692417558092518
7:38,Friday,51.503993334526534,-0.11679469483613115
21:59,Friday,51.49792947865213,-0.08829802700836355
4:5,Friday,51.50189514325477,-0.11713373283347964
13:27,Friday,51.502062922492506,-0.10437396604912257
21:46,Friday,51.50164897398677,-0.0922573861732439
17:50,Friday,51.4965920867377,-0.1005083018225857
6:35,Friday,51.49896002617092,-0.08821774703027122
18:52,Friday,51.49997879628157,-0.09726331641054643
7:27,Friday,51.50590148194644,-0.11125258307661905
16:17,Friday,51.49566299763729,-0.0986934327759223
5:58,Friday,51.497030245394576,-0.09470676056330228
13:17,Friday,51.49351027629413,-0.10220132264346485
2:13,Friday,51.49340916958515,-0.09211527159781516
0:46,Friday,51.506174828998745,-0.11211489284148045
20:41,Friday,51.500911342792826,-0.08335054135893016
17:24,Friday,51.50094395205269,-0.08934458271029157
20:44,Friday,51.493384327680765,-0.09731304311903259
13:55,Friday,51.50107542478656,-0.10797311235850038
13:59,Friday,51.50522031419045,-0.09839927613288597
21:1,Friday,51.50066971015307,-0.08494224723935909
23:48,Friday,51.50084487036444,-0.09799907067710074
13:46,Friday,51.499946314857645,-0.0937097648313729
11:25,Friday,51.5016169545015,-0.10019859288843458
5:10,Friday,51.49937232665426,-0.09504703803893909
8:2,Friday,51.50271575849159,-0.086943390705669
17:21,Friday,51.49799963248203,-0.08618561666853586
11:40,Friday,51.499598723730536,-0.08871914336685618
1:56,Friday,51.50034378341238,-0.09798226616163822
7:25,Friday,51.490046148077774,-0.10364164481456076
23:1,Friday,51.505337497819596,-0.11973378226714787
5:53,Friday,51.50134206172275,-0.08896580732795689
17:0,Friday,51.49236991639946,-0.10239717259475638
5:20,Friday,51.501501509631815,-0.09340696205673535
15:4,Friday,51.503698644977185,-0.08997831617051258
14:51,Friday,51.492954863354555,-0.10428758219616391
12:30,Friday,51.49029594631182,-0.09326755918403276
11:6,Friday,51.50664290141605,-0.08876478597843278
1:52,Friday,51.49212254938903,-0.10089668243836486
16:19,Friday,51.49814218905011,-0.10645586030398753
22:13,Friday,51.49094857780438,-0.11485922971913928
5:24,Friday,51.49530171189162,-0.10118354383628947
16:53,Friday,51.489673875750206,-0.08135048916022826
9:22,Friday,51.4996710472883,-0.09891441315384834
19:55,Friday,51.498344491727075,-0.10345823837062909
2:17,Friday,51.5002402894818,-0.09823932029660246
23:2,Friday,51.488753696655,-0.08897769083463505
3:29,Friday,51.50196871578716,-0.11610708324160728
20:7,Friday,51.489504564054855,-0.11051769649135235
9:32,Friday,51.50691448155722,-0.11354063942946997
11:15,Friday,51.50207359913048,-0.10050459304214267
16:13,Friday,51.493786937612434,-0.10692336584533507
14:33,Friday,51.506370127115396,-0.10738350093982388
19:51,Friday,51.49773038427541,-0.10344011972164302
8:7,Friday,51.50209722064828,-0.08331776523593706
19:3,Friday,51.48884668794588,-0.10558295549928562
5:46,Friday,51.49568565508871,-0.0832942495410702
23:33,Friday,51.48904589348403,-0.08715166204205677
1:6,Friday,51.49070815348529,-0.09184397760712494
5:47,Friday,51.497615807204035,-0.09509933604581888
5:15,Friday,51.50208814446135,-0.09338422819816206
17:53,Friday,51.50022635604484,-0.113948655460124
22:54,Friday,51.49753907519105,-0.08914399310328777
11:52,Friday,51.4982250575971,-0.11567208786921407
1:58,Friday,51.49176394289167,-0.0972544330136991
23:11,Friday,51.50180167646995,-0.09312442983439476
12:26,Friday,51.49334333919879,-0.11072911948453988
13:24,Friday,51.49505118128265,-0.08866024428713412
8:58,Friday,51.497524894321664,-0.09230448095325788
11:10,Friday,51.506576001363236,-0.11652292245551045
11:30,Friday,51.49406573021587,-0.1128292166446106
11:29,Friday,51.494208622920574,-0.10807785786864554
9:44,Friday,51.49690945723351,-0.0890103046526403
4:40,Friday,51.49882235112438,-0.09366672783946954
20:51,Friday,51.49152759768884,-0.10482422145733421
13:22,Friday,51.49971090442069,-0.08270252444492943
17:0,Friday,51.5021370569569,-0.11452347471112685
8:57,Friday,51.49042636803167,-0.11333656398967948
6:29,Friday,51.49652461468441,-0.09253412058334036
0:23,Friday,51.50311247753512,-0.08861486984769114
7:39,Friday,51.493913606534726,-0.08491958952811329
16:37,Friday,51.494665167815235,-0.10787049003055611
19:54,Friday,51.49398412022517,-0.10194290506179285
18:2,Friday,51.50610402482961,-0.11917982003909007
2:35,Friday,51.50602824459492,-0.09139300406123516
16:2,Friday,51.49658691371016,-0.08508566208493124
10:31,Friday,51.49447503344354,-0.1014479829730761
3:24,Friday,51.49443486922075,-0.10735462981095731
16:58,Friday,51.50003121798899,-0.11303288783140505
6:56,Friday,51.506246778168936,-0.09721323303838046
12:42,Friday,51.49689575999056,-0.11203830597874632
16:40,Friday,51.49122466738872,-0.09017200726242734
4:10,Friday,51.503830772221534,-0.10018127966465677
23:5,Friday,51.49716831436274,-0.1041659538990906
15:17,Friday,51.49754534393025,-0.10034287284527266
1:10,Friday,51.49157022047696,-0.08980276463690733
6:21,Friday,51.49783278573844,-0.11734340766390672
1:33,Friday,51.499202242687566,-0.10836341009038793
4:51,Friday,51.502793917469496,-0.08849704769779798
2:55,Friday,51.494907386937285,-0.09016862323024594
20:6,Friday,51.4891552984026,-0.08382877863534405
21:35,Friday,51.501156478138306,-0.08608297877271856
18:1,Friday,51.48828247637374,-0.11699368417244702
12:29,Friday,51.50529271627723,-0.0941850093978938
8:29,Friday,51.49632959649386,-0.11011020221011937
19:10,Friday,51.501736195503334,-0.10166190840767508
10:9,Friday,51.49502321179408,-0.10174725252479694
8:52,Friday,51.49702211560345,-0.09351814088271672
18:56,Friday,51.49909627304864,-0.09579198126488717
12:1,Friday,51.49355569916084,-0.08370670418753534
17:17,Friday,51.503038424445855,-0.09473510260592191
5:23,Friday,51.50330316336873,-0.10904597975550699
6:37,Friday,51.503098023160874,-0.1120418366565545
15:31,Friday,51.49367766099641,-0.11055403483476066
22:35,Friday,51.494698113868694,-0.09362762475536067
2:9,Friday,51.49049400073349,-0.09487136754877504
19:7,Friday,51.502342550619204,-0.08339495440886113
22:10,Friday,51.50018550892621,-0.11772222167499592
23:56,Friday,51.492694418187206,-0.1135316365313685
8:26,Friday,51.492591655472886,-0.0824947143095657
22:40,Friday,51.50674495796235,-0.0875487771990805
19:18,Friday,51.49560883709699,-0.08837577543781673
17:42,Friday,51.50635652396942,-0.10353769259500972
10:35,Friday,51.49306719535087,-0.08539300779689288
13:20,Friday,51.50200999485454,-0.11399760549612381
13:25,Friday,51.50350949050534,-0.08787876603250137
10:56,Friday,51.50419676187411,-0.09027344898982717
20:27,Friday,51.489568053497635,-0.0809351745258432
10:17,Friday,51.49437027114422,-0.08619774029762409
15:56,Friday,51.49336801924711,-0.10046071354439873
14:34,Friday,51.49710260403272,-0.11667726232256644
8:30,Friday,51.494475670789264,-0.09535118472494361
5:49,Friday,51.490010910619006,-0.10656506125235031
12:2,Friday,51.50155571629037,-0.10189967693800586
22:53,Friday,51.494269210912336,-0.11274724785629914
20:13,Friday,51.494343231262654,-0.1023358318774435
17:27,Friday,51.49555872811313,-0.08555461505616525
4:10,Friday,51.503056152183454,-0.09001706068711651
20:22,Friday,51.499983662038396,-0.1001023771899787
11:50,Friday,51.49520193900775,-0.0867220868089246
23:34,Friday,51.49589510583057,-0.09799796506608181
1:39,Friday,51.50345998648859,-0.10329524078921513
2:40,Friday,51.49011536349349,-0.0858528329770116
20:17,Friday,51.50682405865463,-0.08458893189894462
12:20,Friday,51.503842165510356,-0.09977387813463058
22:2,Friday,51.49669415952896,-0.09627762042485084
2:1,Friday,51.497244140639296,-0.10392830702388808
23:34,Friday,51.49087814837346,-0.10140547793781099
20:25,Friday,51.4901344026268,-0.10045511520090887
21:14,Friday,51.49882128266748,-0.11368663687914064
15:17,Friday,51.496155692459915,-0.09236901625926104
14:0,Friday,51.4949165471595,-0.10164159013049273
16:38,Friday,51.48968579286991,-0.09321569681856985
21:4,Friday,51.489889305514936,-0.08406663839667548
19:49,Friday,51.505599611894446,-0.11399043806912401
11:41,Friday,51.496055822297606,-0.1056205880599325
22:59,Friday,51.504792243043156,-0.10006322611585203
0:46,Friday,51.50351539675998,-0.11640169415798957
5:36,Friday,51.49592155918993,-0.09979168371955438
15:43,Friday,51.49506264506189,-0.08901807971565345
3:36,Friday,51.49802425128241,-0.10343042353708648
10:17,Friday,51.502705442747434,-0.08287367976364772
13:19,Friday,51.4995399055411,-0.11069759411221942
17:5,Friday,51.49720928034368,-0.09286274659385832
16:58,Friday,51.49512743302833,-0.09282351423055095
22:56,Friday,51.494728240372154,-0.08459054854709333
8:35,Friday,51.48919059566302,-0.09135643268855878
0:20,Friday,51.49408458233529,-0.10015955511949472
22:50,Friday,51.50314541493805,-0.08632116140751056
13:53,Friday,51.49439286151595,-0.11493289557227149
19:10,Friday,51.49787985332221,-0.0946678536796985
23:53,Friday,51.5000955016687,-0.1048830088563792
11:56,Friday,51.50395589128106,-0.09521281516221523
2:15,Friday,51.50088744374968,-0.1037830402211936
11:37,Friday,51.504362891125794,-0.09183171577565152
22:45,Friday,51.50274387578476,-0.08285614003804233
17:31,Friday,51.50431800002154,-0.11655443616665907
7:2,Friday,51.49655398579301,-0.11348685342270502
17:43,Friday,51.49386794752278,-0.0992149410567771
12:38,Friday,51.49099770243029,-0.09724739699395105
0:52,Friday,51.49201960584907,-0.09203150120298866
15:41,Friday,51.491131034181194,-0.11530954822863275
20:23,Friday,51.48945329792102,-0.09552473174148321
10:47,Friday,51.4991399397824,-0.1110038864535309
11:10,Friday,51.500455307944335,-0.11503139563759639
17:54,Friday,51.49421182390005,-0.1092320051516449
13:14,Friday,51.50589569829507,-0.0997117841976075
8:32,Friday,51.50092302122674,-0.10329217858942538
8:21,Friday,51.491265180387735,-0.11984105858735081
9:21,Friday,51.50489541089786,-0.09946921140627595
10:21,Friday,51.49344971896459,-0.08396180877048422
2:29,Friday,51.4951905253884,-0.09018039121874086
15:21,Friday,51.48947577101213,-0.08639230703221387
7:46,Friday,51.500441013367414,-0.08637986140231281
21:25,Friday,51.489334503313295,-0.09270342019641953
2:10,Friday,51.504244498119135,-0.10463578131969813
8:30,Friday,51.49449409024102,-0.09917190576406133
7:56,Friday,51.48834884717446,-0.107935958114441
13:38,Friday,51.49954799117548,-0.08608147413652345
3:43,Friday,51.50173138154752,-0.09220427308763868
2:9,Friday,51.498228073844075,-0.1031297487991394
2:20,Friday,51.50699287383871,-0.11245763853393016
9:22,Friday,51.50191733766418,-0.10290297381145996
10:29,Friday,51.49180565541795,-0.11934925723058089
11:10,Friday,51.49443098396644,-0.08933267257200551
9:26,Friday,51.50206876369389,-0.11568485483306576
9:48,Friday,51.50306439803238,-0.11814789310499668
16:58,Friday,51.4923198275097,-0.11643853636465983
18:39,Friday,51.498204635182184,-0.11795028666561976
22:1,Friday,51.49553691576903,-0.08124508837984482
14:6,Friday,51.504753325313764,-0.09183797421138988
18:20,Friday,51.49804503949119,-0.09259108477508998
20:41,Friday,51.49587569421068,-0.09252940203934633
17:28,Friday,51.49668510477749,-0.11601665241872872
16:56,Friday,51.50192860532386,-0.10826045984602665
18:14,Friday,51.49690412552458,-0.11255493582876491
14:52,Friday,51.49639251980748,-0.1167751139933354
11:22,Friday,51.49422534397113,-0.08678278061117736
9:32,Friday,51.50321167897844,-0.10307891480220788
18:23,Friday,51.49275199733442,-0.09009697727963772
4:42,Friday,51.49595923084865,-0.10949614493316559
15:18,Friday,51.49743768728871,-0.08212968857996734
11:44,Friday,51.49796236090141,-0.08396809286113405
3:22,Friday,51.50108893872662,-0.08248430536876064
19:32,Friday,51.50159007005315,-0.11795382585477059
9:13,Friday,51.49883831903963,-0.09704576405132692
12:55,Friday,51.501721794929736,-0.10842557251678298
1:4,Friday,51.50404358819021,-0.10036564385221342
9:34,Friday,51.491294978230066,-0.11245964542672883
2:35,Friday,51.49696241484001,-0.09881359334562832
18:8,Friday,51.495053631978415,-0.11770032373910473
21:29,Friday,51.49192995038223,-0.0822044515680532
22:21,Friday,51.49377518080678,-0.09922284073059674
9:3,Friday,51.50568375477556,-0.11548517466518071
8:28,Friday,51.49042842460815,-0.0910558503922108
7:3,Friday,51.49064237646407,-0.10282910036031626
23:19,Friday,51.50126363294863,-0.08859627965375944
4:35,Friday,51.48955208244183,-0.10442917837757822
23:29,Friday,51.50588982074932,-0.09191214728846576
7:36,Friday,51.49422832220517,-0.0827315199281096
2:58,Friday,51.49226159487297,-0.10130733571942721
21:33,Friday,51.50383185353163,-0.09152335217146551
17:36,Friday,51.499250465576075,-0.08488385575579416
4:20,Friday,51.50012517581956,-0.09110916533238476
6:33,Friday,51.49630894553993,-0.0966556406194611
3:47,Friday,51.503203744504496,-0.11682903144247277
22:44,Friday,51.494660990481,-0.10332559268571227
13:55,Friday,51.50445819513881,-0.11180248177912644
16:41,Friday,51.491618678520204,-0.11037931041275541
18:22,Friday,51.49284156975526,-0.0943041460989161
20:53,Friday,51.49971715923016,-0.10880397874325487
23:14,Friday,51.499954406245585,-0.10370489016743523
19:27,Friday,51.49048014801501,-0.10499437740694958
1:16,Friday,51.50095646715523,-0.11420468369607957
13:28,Friday,51.50564494976368,-0.1051097642017053
8:25,Friday,51.50582507355927,-0.1031852576777934
16:29,Friday,51.49111270216736,-0.08173876844108788
22:11,Friday,51.50220607592076,-0.10549188765721579
21:7,Friday,51.50498484403109,-0.10749697874847444
6:47,Friday,51.494550160129876,-0.1137327138032783
20:18,Friday,51.493519727941596,-0.08514791820338549
20:16,Friday,51.493745786777964,-0.0933049113374374
6:38,Friday,51.497896920925356,-0.11063211386383157
22:4,Friday,51.49187530559615,-0.0893677642779932
5:51,Friday,51.50278019258436,-0.11764934294465511
9:58,Friday,51.498333564446504,-0.10204418627389214
7:42,Friday,51.49445332343324,-0.09269745386762619
5:39,Friday,51.49619582847529,-0.10824209192283073
9:40,Friday,51.49339689855956,-0.11647788335489273
4:41,Friday,51.4905627550079,-0.11138233371185995
7:37,Friday,51.48879964634603,-0.10190361237628917
15:16,Friday,51.496159540731895,-0.0881821101308391
12:56,Friday,51.492134851749555,-0.11969430655212104
1:44,Friday,51.499364129951616,-0.10143079262490472
1:58,Friday,51.502690824112456,-0.10834570364713587
4:23,Friday,51.49306178613442,-0.10722026472192085
9:58,Friday,51.491135651190824,-0.09777891211886183
3:58,Friday,51.50464775211474,-0.10595870110583558
11:51,Friday,51.49834420935094,-0.1146243052831829
8:12,Friday,51.50576803554267,-0.08645792200131877
19:31,Friday,51.506565455293504,-0.10019273890905692
9:35,Friday,51.50501326782055,-0.11714144520743056
8:43,Friday,51.506135323164074,-0.08593207193832104
17:8,Friday,51.50213893638199,-0.09712714564621597
9:41,Friday,51.497769550938635,-0.10178198281564454
12:30,Friday,51.49876074322039,-0.10175845168895808
7:14,Friday,51.50194667255987,-0.11843633702212325
19:15,Friday,51.501204657832645,-0.10923156373889506
4:46,Friday,51.49781257009844,-0.08399325561015081
18:23,Friday,51.49715958006356,-0.11293634153424287
10:54,Friday,51.49045881446066,-0.08842542008618087
14:49,Friday,51.49348941774864,-0.10198342321981155
23:27,Friday,51.49026204206116,-0.08422729213754604
0:1,Friday,51.50158244731274,-0.11802375574697675
20:31,Friday,51.49937560961905,-0.09665116273061332
6:41,Friday,51.49978448284483,-0.09607822345390586
19:45,Friday,51.50447668237848,-0.08716403327748315
4:5,Friday,51.4903563502604,-0.10168410924096499
13:23,Friday,51.499602819105405,-0.08989080894592633
12:2,Friday,51.497932111035645,-0.08909259077757564
22:58,Friday,51.48945164126397,-0.11335827875976515
0:4,Friday,51.505369628930715,-0.09082620584481918
6:19,Friday,51.490915066238166,-0.08979831771702224
3:38,Friday,51.489127569174414,-0.0848839883904822
10:57,Friday,51.50583030857091,-0.1057706735210779
6:4,Friday,51.50127257196587,-0.11206124986711442
9:0,Friday,51.48933030174914,-0.08772782196068035
7:24,Friday,51.49358409151766,-0.10227111852942622
6:41,Friday,51.50640137005636,-0.11728350173127225
16:45,Friday,51.498133955386564,-0.10210980296551049
22:50,Friday,51.49047322081282,-0.09985207071839701
13:35,Friday,51.49190326124363,-0.11133726550255943
12:40,Friday,51.50602284259152,-0.08847495111371978
6:46,Friday,51.49968100680332,-0.11025701279888386
11:43,Friday,51.49776053396992,-0.08962853434420096
1:36,Friday,51.494819565825566,-0.09084915872049407
19:42,Friday,51.489632649408016,-0.11579640496587791
17:43,Friday,51.49100713260091,-0.10128392084377137
4:39,Friday,51.50492627700058,-0.11549755768979786
9:54,Friday,51.499567552126,-0.08849798749936605
2:34,Friday,51.50277223203911,-0.10524395158941065
5:55,Friday,51.49552383570188,-0.09820153738177284
9:45,Friday,51.4938498440891,-0.08148814490766998
0:13,Friday,51.49445607512683,-0.1195209546993175
22:23,Friday,51.489914594160226,-0.0985431230467855
8:0,Friday,51.48914211882124,-0.10116097087046132
15:57,Friday,51.49188505954941,-0.10487567721489052
4:55,Friday,51.501663523146945,-0.11410293250254513
6:14,Friday,51.49896104054371,-0.09787367063621161
22:49,Friday,51.505554653108035,-0.09788506136663666
5:18,Friday,51.4943272265401,-0.08280013251450699
13:51,Friday,51.49517885262166,-0.11725460046895056
9:20,Friday,51.502939306329196,-0.0898157263648974
1:39,Friday,51.506002130820576,-0.10494694556914143
4:39,Friday,51.48959302265153,-0.11614846654910913
4:41,Friday,51.490551649959265,-0.10796863189561982
4:47,Friday,51.49341884265761,-0.09647726760722058
11:33,Friday,51.49062187770965,-0.08792907300116304
0:2,Friday,51.49513314174127,-0.08821751457053575
7:31,Friday,51.504252975659334,-0.11020703607774857
11:51,Friday,51.49866395369394,-0.11894429948236646
6:41,Friday,51.488808964898595,-0.10369161614699529
19:44,Friday,51.50683466487882,-0.10549786448477783
18:33,Friday,51.50495513444235,-0.11343987482440523
6:39,Friday,51.49516555295485,-0.09528613333085124
21:5,Friday,51.503932359210665,-0.09740067940965655
8:33,Friday,51.50654686248964,-0.11822033866724785
13:25,Friday,51.50601546587827,-0.10393077311025797
10:47,Friday,51.48950556352956,-0.10549237877718272
22:9,Friday,51.49745040513219,-0.11885342933765361
5:18,Friday,51.50305134619525,-0.10325180589295588
17:50,Friday,51.49023638084938,-0.09328162137950988
5:19,Friday,51.506913413477506,-0.08877626343447523
23:32,Friday,51.49516972548138,-0.10722244884786336
13:54,Friday,51.50373110454834,-0.11886974052199574
22:53,Friday,51.48878439715086,-0.10214574315353527
14:52,Friday,51.50100924526213,-0.08661207160813678
0:25,Friday,51.488393015440415,-0.1042893424886785
18:13,Friday,51.50029981750212,-0.11347136325165992
13:36,Friday,51.49577378915726,-0.09634984338780606
18:51,Friday,51.48956969001379,-0.09595846785461451
18:34,Friday,51.493660483190524,-0.10025149545346808
18:44,Friday,51.49065109711588,-0.08593362658673225
12:3,Friday,51.488410451085066,-0.10487034386862173
10:43,Friday,51.49947788234891,-0.09357645676960775
10:18,Friday,51.501151116225294,-0.11241913471322498
0:19,Friday,51.491271067109565,-0.09504299507951999
20:54,Friday,51.50094941478036,-0.11709644651541883
16:11,Friday,51.48894733966278,-0.08892771710309397
10:21,Friday,51.49345345317103,-0.10226716574557568
19:58,Friday,51.49740881545829,-0.08337508317627068
2:26,Friday,51.499020882191076,-0.0895774936890284
6:41,Friday,51.50110576826383,-0.1134793432262778
0:22,Friday,51.49465359973077,-0.1053716463249168
6:12,Friday,51.505170782326736,-0.10077550169113049
3:16,Friday,51.502362550522186,-0.10352174345031867
22:48,Friday,51.500562639629194,-0.11822889233348377
15:21,Friday,51.495209659977085,-0.10857651216849543
3:9,Friday,51.4983088525139,-0.10290213111213155
21:33,Friday,51.491983552487795,-0.09203600760288086
17:55,Friday,51.49148894690043,-0.11624331671442915
15:11,Friday,51.50336222897744,-0.0880074585253125
20:27,Friday,51.4973346098325,-0.11124194102997967
20:2,Friday,51.500149893327496,-0.09858714922692517
23:13,Friday,51.49265209224177,-0.1144897965645328
18:8,Friday,51.49373225912787,-0.11385369347117177
2:6,Friday,51.49173074046192,-0.10262927276230063
8:57,Friday,51.496219015726794,-0.10236244020805853
17:6,Friday,51.49659036412397,-0.11378670090682737
6:58,Friday,51.49347120750542,-0.11871617413196392
16:25,Friday,51.48825637632654,-0.09558181600659425
19:37,Friday,51.4991504170149,-0.08929545615750664
8:27,Friday,51.50666298923072,-0.10966487722901266
4:3,Friday,51.50535283785039,-0.0965135069462852
5:55,Friday,51.49530654019561,-0.11150151124613471
6:32,Friday,51.50464403100388,-0.09587496153656255
4:9,Friday,51.5044317646365,-0.10392639711218393
21:48,Friday,51.500756458200456,-0.1109823319269169
22:53,Friday,51.5062944288471,-0.08109966596894347
11:25,Friday,51.49236290759206,-0.10775694179070526
11:47,Friday,51.500103730837736,-0.10823406640737339
15:17,Friday,51.501822162754195,-0.1125338337230245
10:50,Friday,51.49432813500848,-0.08934449969503289
9:30,Friday,51.49118995393617,-0.09664252504905502
6:41,Friday,51.4888301346775,-0.09803441442077127
23:5,Friday,51.50682333397532,-0.09930630686183867
5:27,Friday,51.4883897454216,-0.11554595865871498
0:4,Friday,51.490312931634556,-0.10624027331162739
0:34,Friday,51.49675211911559,-0.10097916050650133
7:12,Friday,51.50663901878068,-0.09098757117351434
10:31,Friday,51.50103526641297,-0.09903431907619004
5:5,Friday,51.50042159135522,-0.0992867245098791
8:55,Friday,51.49696995615918,-0.11352102774643341
7:1,Friday,51.49848515994723,-0.10782144557190276
9:15,Friday,51.50200007655132,-0.10557284347750445
15:28,Friday,51.50550916917842,-0.0935735179429969
4:53,Friday,51.49138609154925,-0.10862652320408833
2:55,Friday,51.50692986293328,-0.1100467815213075
19:29,Friday,51.49989771663189,-0.0941999533302226
8:1,Friday,51.49651990758521,-0.10210609698137518
5:26,Friday,51.49724958087478,-0.08859986664951755
16:38,Friday,51.49050934005475,-0.1164260545568495
11:52,Friday,51.50211615147569,-0.10260170118431029
6:27,Friday,51.49294511722802,-0.10724616575758715
5:13,Friday,51.488977140123794,-0.10985963234672058
22:42,Friday,51.49549814630287,-0.10133622601633457
0:7,Friday,51.50211767076154,-0.11395774098990516
23:26,Friday,51.50522756985778,-0.08339420212338369
14:38,Friday,51.5044107774296,-0.09330421903936065
16:17,Friday,51.50038190189779,-0.08403515622648082
12:25,Friday,51.50123363629666,-0.08809965713509996
17:54,Friday,51.49504336465067,-0.10658557428120177
10:38,Friday,51.50426172183551,-0.08355223549208829
0:19,Friday,51.489076741544565,-0.10587304869020021
14:44,Friday,51.49029082121697,-0.10454076741335529
14:18,Friday,51.489224982588325,-0.09894006704829514
6:58,Friday,51.50121386472848,-0.08601362306792652
0:46,Friday,51.48898092988332,-0.10089281342162143
22:2,Friday,51.49741340230378,-0.0928485634470795
7:31,Friday,51.50039791564995,-0.08944347829659781
5:56,Friday,51.50110692293574,-0.09397497626462648
19:36,Friday,51.50067389331864,-0.09207670138551426
15:40,Friday,51.501066624834955,-0.08241239695542918
23:17,Friday,51.48877782262151,-0.0853012737321154
6:31,Friday,51.504344003241634,-0.11741323259458421
11:2,Friday,51.498926987733704,-0.10538239387609401
14:2,Friday,51.50198770114687,-0.08901887611306813
19:27,Friday,51.503676076314434,-0.11192549293786758
9:58,Friday,51.49672314105701,-0.08855731047380416
14:5,Friday,51.49242565377797,-0.09389926888606231
11:37,Friday,51.49136584597356,-0.11452167582578592
20:48,Friday,51.50354172563003,-0.0860968255949264
10:7,Friday,51.494622529084744,-0.10070547651284757
4:1,Friday,51.49250786686743,-0.10172608111934944
8:6,Friday,51.5008407134251,-0.11463901485685934
6:17,Friday,51.48991718706018,-0.09685984706252901
21:29,Friday,51.49682030953416,-0.08359239056697548
2:20,Friday,51.50408574031397,-0.08633826895066071
8:29,Friday,51.498290683374684,-0.10190640794246379
6:57,Friday,51.491237609656835,-0.08594557756752635
16:4,Friday,51.49720947253428,-0.09469186219850653
21:58,Friday,51.495184899117554,-0.1023326575068881
13:52,Friday,51.50424276910822,-0.10894854408912255
19:40,Friday,51.498836616697176,-0.10802215870553027
10:24,Friday,51.49168091279918,-0.11937977058510221
14:49,Friday,51.50181028209523,-0.09185451611551058
13:57,Friday,51.49038788612993,-0.0967186573247083
8:25,Friday,51.504181324517724,-0.10664818174848316
11:45,Friday,51.50412788370019,-0.09441133471798599
16:19,Friday,51.49509083840751,-0.11963244785388254
2:5,Friday,51.505262551067865,-0.09023711909292487
8:10,Friday,51.502899600522085,-0.1173738760215694
23:9,Friday,51.49245708052289,-0.11651343598803968
0:35,Friday,51.50208975547342,-0.0901900739259935
4:43,Friday,51.49572691935819,-0.09105719644961102
16:45,Friday,51.50497787035761,-0.08305299480493761
1:41,Friday,51.49796446966595,-0.09335828535625786
17:13,Friday,51.49332389751273,-0.10110631237882835
19:11,Friday,51.50272975160835,-0.1125181629659483
9:7,Friday,51.50430306577787,-0.08188450765572464
14:30,Friday,51.500650593075385,-0.09066507897916225
4:20,Friday,51.5018606782935,-0.09181249626607077
9:15,Friday,51.49191832264572,-0.11644689490963255
19:10,Friday,51.48935871876403,-0.09762863387781145
22:34,Friday,51.49749431999299,-0.11626461566226634
23:3,Friday,51.48861403855679,-0.09041764344527575
11:48,Friday,51.49044705040121,-0.10751929350043152
10:58,Friday,51.49347246774389,-0.09017343110816202
10:24,Friday,51.48863632993136,-0.11156298227409492
19:25,Friday,51.49788826384741,-0.10317588521770835
17:23,Friday,51.48971405959459,-0.0837434878750613
7:48,Friday,51.48983304369035,-0.10998831587352512
17:3,Friday,51.49713228312249,-0.0935916498597947
19:17,Friday,51.48992504315176,-0.1166350806952622
15:7,Friday,51.50405506759355,-0.10737551382754647
7:4,Friday,51.489798223417694,-0.10326162052558852
6:17,Friday,51.49419602591827,-0.10248265242764618
17:14,Friday,51.49175816522923,-0.09060894720590551
14:7,Friday,51.50232591911007,-0.09338296346270346
22:58,Friday,51.500200849855446,-0.09750405983147653
19:16,Friday,51.49278121390142,-0.11149534958586177
4:48,Friday,51.505226872958865,-0.0976458042321574
4:15,Friday,51.49344662747446,-0.11166176664630739
2:42,Friday,51.49511761145615,-0.10697970330271779
3:54,Friday,51.49246310878197,-0.09170933963516864
19:49,Friday,51.50412852425508,-0.11988748776757022
16:21,Friday,51.49859394002434,-0.11130159200091255
6:44,Friday,51.494361072527056,-0.11057703563545906
11:59,Friday,51.503130918027196,-0.10712769782078296
3:43,Friday,51.49625399256399,-0.11253780823343865
9:2,Friday,51.50127315430201,-0.09955881582396679
14:48,Friday,51.50236391341292,-0.0980520641452034
4:8,Friday,51.503248010901075,-0.10508888608662073
3:28,Friday,51.503526153484344,-0.10220612138090868
23:19,Friday,51.49891557141199,-0.09573102880375631
9:44,Friday,51.498798762619614,-0.09055762038171764
1:36,Friday,51.48962844219807,-0.084912690060997
7:20,Friday,51.489223608818754,-0.08410571846346464
10:25,Friday,51.50453324400197,-0.09932333190367258
16:27,Friday,51.49690514848003,-0.11194320272041683
10:55,Friday,51.500745300029166,-0.10334110270758726
14:7,Friday,51.50508553246985,-0.11675737047929809
21:19,Friday,51.492558178654456,-0.10154668583090307
21:0,Friday,51.50363893642392,-0.08510586296368164
16:49,Friday,51.49874747245138,-0.08341979079988142
2:11,Friday,51.49429623326956,-0.11033736128185391
5:23,Friday,51.491053420228184,-0.10641947917240412
23:48,Friday,51.495613086819915,-0.09339593347087896
9:29,Friday,51.50297571142442,-0.10907873403022132
0:44,Friday,51.4934453920081,-0.08949813379004651
2:57,Friday,51.49379863228799,-0.08585474459546646
7:2,Friday,51.496198482944386,-0.0951549001810042
9:25,Friday,51.50571645063195,-0.09649974557113947
15:32,Friday,51.504631840310374,-0.08859062956573571
17:15,Friday,51.49743869660392,-0.08269444959674807
3:16,Friday,51.49676573305557,-0.081286215612286
20:50,Friday,51.49808119318328,-0.09340527592109539
23:32,Friday,51.49306044217873,-0.1095079402486607
3:10,Friday,51.49713931478121,-0.11616806405100988
7:17,Friday,51.495504923586054,-0.08595264806153066
4:5,Friday,51.497517821269,-0.10571053446335751
1:32,Friday,51.488856662405716,-0.09345165575298532
21:8,Friday,51.50428904199527,-0.10245324337016665
9:12,Friday,51.49627571312771,-0.11507547130370845
23:48,Friday,51.49626814271945,-0.11228403901444393
8:19,Friday,51.49421351186767,-0.09808684901565637
8:35,Friday,51.4888195352759,-0.09418307350645438
14:29,Friday,51.4923374833204,-0.09192710554724887
9:14,Friday,51.49560678412143,-0.10981999900564371
10:8,Friday,51.501493209094335,-0.08200722852192581
16:25,Friday,51.50487439140417,-0.0968298454229299
14:8,Friday,51.50084405207767,-0.09533296588718942
22:51,Friday,51.48900697569973,-0.08662375471438384
19:25,Friday,51.49437674766019,-0.08589399651102304
12:3,Friday,51.494099215418856,-0.0910755252010557
16:5,Friday,51.501266383021566,-0.08674789374646719
17:11,Friday,51.49487225136807,-0.09267655504345779
4:49,Friday,51.492468772328714,-0.08915773834038077
14:7,Friday,51.50597310947436,-0.0891435828908672
2:22,Friday,51.49651769780063,-0.0930965912698139
3:33,Friday,51.50498526891928,-0.11092220565274631
22:21,Friday,51.49170581104491,-0.11552394844878619
18:33,Friday,51.50418343650792,-0.08206189415224749
20:25,Friday,51.491537552576474,-0.08252018767818911
2:40,Friday,51.50602278172441,-0.08551198428023246
19:53,Friday,51.49127764677628,-0.08829455375236422
8:45,Friday,51.50634247194013,-0.10981579082249443
8:11,Friday,51.5068643848514,-0.09766639183361588
14:22,Friday,51.49029003768969,-0.10818714603991234
5:27,Friday,51.50440201164249,-0.10383012474945214
6:39,Friday,51.4934049657785,-0.09335897801672069
18:20,Friday,51.48892315898891,-0.11854542310870249
5:3,Friday,51.502112701539936,-0.10708103370197201
11:34,Friday,51.49761250226391,-0.087063944726915
4:4,Friday,51.50301009882888,-0.09575743238211015
18:25,Friday,51.496561884699965,-0.10690621289613453
10:37,Friday,51.49521719724002,-0.08572930392631872
9:39,Friday,51.50401275190195,-0.10215023302999018
7:5,Friday,51.48896172133245,-0.11271568939899365
3:27,Friday,51.493054010873585,-0.1089585576639124
4:57,Friday,51.49929781465968,-0.10026228354535036
2:6,Friday,51.49771425354715,-0.10819547341334086
7:40,Friday,51.504127590372704,-0.09167132159457751
10:8,Friday,51.50476292649216,-0.09817538233485734
20:38,Friday,51.49035337195047,-0.10144964420010369
6:35,Friday,51.502978717038175,-0.11353425329854253
4:48,Friday,51.49026652919201,-0.0912126608952032
10:12,Friday,51.48894627386724,-0.0894748263545998
15:4,Friday,51.49587559718713,-0.08929869836620626
18:42,Friday,51.492915747163686,-0.09349028116572779
21:58,Friday,51.48925825509758,-0.09976862959852592
2:14,Friday,51.49193460751032,-0.09474592476855519
10:26,Friday,51.50244541584299,-0.11346977215538497
15:32,Friday,51.492997842791965,-0.09244087230278245
2:41,Friday,51.49194473299854,-0.09587222234666432
5:39,Friday,51.48867828963986,-0.1077646925263989
14:22,Friday,51.492521280426864,-0.10034440280629778
18:8,Friday,51.503201317341,-0.1065114919964605
20:12,Friday,51.502916672375804,-0.10860563639253294
4:16,Friday,51.50296836906149,-0.11393604646172306
22:59,Friday,51.49281834904951,-0.11972258766120124
19:27,Friday,51.491237007310794,-0.1138584180584373
11:46,Friday,51.50065932805336,-0.09565461793254483
3:15,Friday,51.505138422959945,-0.11564585035403857
7:57,Friday,51.496902258356705,-0.08173357006744333
2:48,Friday,51.50261900238325,-0.08778300252736138
4:22,Friday,51.501202085640685,-0.11481916288377239
9:30,Friday,51.50513312191863,-0.10595383391848642
10:8,Friday,51.49047779296434,-0.11856445672663793
7:46,Friday,51.495687824041745,-0.10267102182849355
16:1,Friday,51.504522143347394,-0.11213191523143602
15:35,Friday,51.499186023114426,-0.1150386544644099
3:42,Friday,51.498752047466795,-0.11808322536899317
11:24,Friday,51.50031427962601,-0.1139718725075554
13:25,Friday,51.49424932127309,-0.10385078329043641
4:56,Friday,51.501721466427234,-0.1192586037583092
2:0,Friday,51.50559448910978,-0.09917482371050598
21:43,Friday,51.49790877114427,-0.11174457787461167
4:37,Friday,51.50346212043542,-0.09194326330916719
22:38,Friday,51.49091015447523,-0.09479341925876764
15:19,Friday,51.502303506796174,-0.11793002205481157
3:21,Friday,51.488679514171466,-0.10283685992419532
2:34,Friday,51.50434674822929,-0.08908659572031905
8:23,Friday,51.50497595042527,-0.0987109987580901
14:57,Friday,51.49690532155131,-0.09269789650105133
21:48,Friday,51.50158125845981,-0.08308980086487568
20:56,Friday,51.49113392491233,-0.10977682601694796
18:15,Friday,51.48992874308375,-0.0826770411854456
3:53,Friday,51.491340487717096,-0.10796973641509575
20:47,Friday,51.496017923451625,-0.10005351315099054
13:32,Friday,51.494207197338774,-0.10380832255874932
14:29,Friday,51.506075959784944,-0.093968635950844
22:20,Friday,51.492392845852045,-0.09037184302378579
15:49,Friday,51.500518393212104,-0.08435691894105887
11:41,Friday,51.502813157656064,-0.11166416735962657
15:10,Friday,51.49490364447062,-0.09147073010635753
17:3,Friday,51.49518339544614,-0.09160714976514839
9:56,Friday,51.501261628754925,-0.09458796592434277
15:50,Friday,51.5000907862435,-0.11194679217095997
5:33,Friday,51.49111968407486,-0.0861491621971811
9:44,Friday,51.50529824240373,-0.10681784517965201
19:39,Friday,51.50651582491188,-0.08692833129991387
6:6,Friday,51.50324537507263,-0.10692269664960652
17:3,Friday,51.488655151699504,-0.10750099645529675
3:12,Friday,51.49985356982569,-0.08800283654621942
3:50,Friday,51.50474378128055,-0.08594771447770183
9:46,Friday,51.49595745122589,-0.09607161616905638
1:27,Friday,51.49067683098884,-0.10880253145257937
19:35,Friday,51.49389558620392,-0.08413189783991737
12:9,Friday,51.49964144139105,-0.09640240031414166
0:44,Friday,51.49226436362323,-0.11668977459549404
9:55,Friday,51.50402828530821,-0.09646642959237445
11:33,Friday,51.50641366000256,-0.09689803229939839
