0:23,Friday,51.50632845250366,-0.08192790450730761
3:34,Friday,51.501814760747514,-0.08211057805143038
17:28,Friday,51.49019046223044,-0.1008161544646674
5:7,Friday,51.49709585249181,-0.09724045556437073
17:39,Friday,51.49759313609634,-0.08133353639704469
10:30,Friday,51.489615948786565,-0.1130807726071091
18:21,Friday,51.49074774035929,-0.0883634361685382
22:28,Friday,51.490448757386844,-0.10326222300439562
13:22,Friday,51.499348612608216,-0.10533580362415162
8:42,Friday,51.50082741832838,-0.1042201810286543
10:37,Friday,51.49231394257307,-0.08659204197925666
21:26,Friday,51.48994677443483,-0.1115891876061806
4:24,Friday,51.502874028976905,-0.09330660828956439
21:33,Friday,51.495601761295,-0.11918432028881645
11:34,Friday,51.50516753892915,-0.0921843347095418
5:22,Friday,51.49587104399588,-0.08871639559966493
18:6,Friday,51.490178899798636,-0.08509271742056314
18:20,Friday,51.493498094215624,-0.090436336377933
0:20,Friday,51.50556207010426,-0.11256172992233995
2:39,Friday,51.493068165569156,-0.0882333968611599
3:56,Friday,51.49903299234719,-0.1036363859840939
23:9,Friday,51.494692455936544,-0.10787146785969184
0:3,Friday,51.49465386149285,-0.10658144421316254
6:51,Friday,51.50589628138587,-0.08472194465612806
21:28,Friday,51.49133352277209,-0.0874124305740524
10:21,Friday,51.49510069548895,-0.09310513659094649
23:26,Friday,51.49245181161592,-0.08640620207127958
8:19,Friday,51.49644356474301,-0.09668297577753028
5:48,Friday,51.50219362512381,-0.09834945018431418
10:32,Friday,51.49440399957029,-0.10506343747689068
19:58,Friday,51.499216707865116,-0.09893127036132739
4:44,Friday,51.49569083608686,-0.1138757966028683
20:26,Friday,51.501869653604075,-0.11552128201242061
14:55,Friday,51.501549073934754,-0.09974150459844669
4:12,Friday,51.49695488522003,-0.10357951119458034
21:31,Friday,51.495363781916296,-0.11901157380919235
4:56,Friday,51.4963908637694,-0.08936303671050075
8:26,Friday,51.495565696235005,-0.10489832400617774
12:9,Friday,51.48982885636156,-0.10538895630482611
11:33,Friday,51.493251270554005,-0.11733582132238131
14:48,Friday,51.49678443436812,-0.11112174927558072
4:19,Friday,51.50452201910397,-0.10878682917753074
15:19,Friday,51.49243536168118,-0.08433771124644496
23:13,Friday,51.49874852352271,-0.10278291897477422
7:27,Friday,51.49972358956819,-0.11534651061980512
14:47,Friday,51.49941830883007,-0.11910542390517179
13:41,Friday,51.488687572726384,-0.1173343167826802
18:29,Friday,51.490820744299256,-0.09327189388745606
9:54,Friday,51.49864241738733,-0.08201102449240248
15:25,Friday,51.4968732428823,-0.10095882108556216
17:20,Friday,51.49629395688579,-0.08871256549247852
17:0,Friday,51.50235541429475,-0.11437440456472078
3:41,Friday,51.49494445011419,-0.08697182691310032
9:6,Friday,51.50006561389032,-0.0988394109817813
6:25,Friday,51.497331491851085,-0.09170992342202097
3:45,Friday,51.49915861387063,-0.10816475274065723
5:29,Friday,51.5013101426881,-0.096144200302303
1:53,Friday,51.491840706411054,-0.09642734424347313
10:2,Friday,51.49242908197574,-0.10685037825097443
11:35,Friday,51.495607145818255,-0.1152717175189327
19:36,Friday,51.49969044702823,-0.08256848508775903
20:51,Friday,51.50623227912797,-0.09017552972426782
14:10,Friday,51.49375211732888,-0.10363648969906458
3:47,Friday,51.4958500615468,-0.10531958629068278
7:1,Friday,51.49360216573042,-0.11530206793993575
2:48,Friday,51.50245386470588,-0.09031604054506648
18:11,Friday,51.49498998266608,-0.10039385694197525
6:11,Friday,51.49523770632646,-0.08427720411644726
20:10,Friday,51.4884169213153,-0.09874785176474687
13:18,Friday,51.49680288627037,-0.09487082972074128
18:53,Friday,51.50595712293512,-0.11260801854540388
6:51,Friday,51.50014373671439,-0.0830976345930667
19:33,Friday,51.50115696149969,-0.08853031981998292
9:44,Friday,51.50200028086757,-0.110548139283231
4:38,Friday,51.496499992052264,-0.11737624131927878
18:48,Friday,51.49950058541024,-0.09656992284101265
21:13,Friday,51.501079691489714,-0.0935581643827983
17:46,Friday,51.488980747256115,-0.11792350319786461
16:32,Friday,51.50576521105783,-0.09671851807821952
17:47,Friday,51.50656737602948,-0.09722519325469194
4:10,Friday,51.49285791507412,-0.09955845836884594
20:15,Friday,51.49593101008147,-0.11792483710842386
13:43,Friday,51.499166645337525,-0.09122523058233191
21:11,Friday,51.49293449033088,-0.10747777899115514
17:34,Friday,51.49250639589079,-0.08362183543354157
10:13,Friday,51.49444662648537,-0.10209839802484177
23:56,Friday,51.501279933089755,-0.09819345058750113
17:29,Friday,51.50328399712424,-0.10301649077606725
12:45,Friday,51.49062498751173,-0.09606636867060915
14:1,Friday,51.50118900435127,-0.11735348905604379
4:20,Friday,51.507090080167636,-0.08625323980268329
13:37,Friday,51.501495724786686,-0.10603515449574501
22:19,Friday,51.491753987376015,-0.0950200237014463
6:29,Friday,51.49306481176554,-0.08457403580484568
22:54,Friday,51.498496065055036,-0.0976167633274007
5:38,Friday,51.49563478942411,-0.08951787520967555
13:33,Friday,51.49781939969833,-0.10553032044427219
16:56,Friday,51.49722574485668,-0.08369450993510766
3:14,Friday,51.492437641182796,-0.1141417271757324
17:25,Friday,51.50520738032332,-0.10709330041137055
17:33,Friday,51.50474700448217,-0.08181705381279551
12:46,Friday,51.50385278282973,-0.11210627311999925
13:30,Friday,51.49822181533702,-0.0990207952146506
2:50,Friday,51.496745664170454,-0.0951994215202463
3:18,Friday,51.4896214463443,-0.09811884943024755
14:34,Friday,51.49904570038036,-0.105446388177001
15:18,Friday,51.49876057270347,-0.11254809337863989
9:21,Friday,51.49200427813749,-0.0993687896193212
20:6,Friday,51.5026816003167,-0.08835241394683489
0:59,Friday,51.49882430691716,-0.08715637069692367
1:35,Friday,51.50182783981753,-0.08416769780634858
13:57,Friday,51.495589891916566,-0.10475195321153075
0:4,Friday,51.492273812228504,-0.11192209479042668
15:36,Friday,51.504132149677616,-0.09184551910431882
22:17,Friday,51.49073793358607,-0.11846148042464266
22:2,Friday,51.497658874646696,-0.0942810367020736
15:30,Friday,51.48939504529235,-0.08786346159422803
3:42,Friday,51.491770276118565,-0.11479674712801911
20:34,Friday,51.49241832871138,-0.11694676115087044
19:16,Friday,51.50137587853009,-0.11111852932797578
4:8,Friday,51.49611107176877,-0.11213453930998432
6:53,Friday,51.49977837526601,-0.1028567138938526
2:44,Friday,51.49968004462211,-0.1116345075902238
23:23,Friday,51.489590925253275,-0.10263061385808156
8:45,Friday,51.500906196981866,-0.10533505563804844
15:58,Friday,51.499185882223415,-0.08227107748673211
9:6,Friday,51.49643900352871,-0.0826131384660194
7:40,Friday,51.49539298079509,-0.11612942109013862
1:20,Friday,51.49698950089187,-0.09563029282441485
11:1,Friday,51.49684383383591,-0.08187743152369431
11:3,Friday,51.49450691468598,-0.11726201926074824
13:57,Friday,51.4994434029285,-0.09582929428666855
8:41,Friday,51.490382331083026,-0.08998728789230095
21:44,Friday,51.49728140349318,-0.1191688379490658
19:41,Friday,51.4989704765105,-0.08494076147838868
22:45,Friday,51.50022873688234,-0.10780747430827425
15:26,Friday,51.493673989402915,-0.1062032390317778
11:43,Friday,51.49370796680057,-0.09119574141018216
14:11,Friday,51.497347876953064,-0.10510531291254799
15:3,Friday,51.50693770079563,-0.10675449911722254
13:8,Friday,51.489075954210165,-0.11748260554706468
21:41,Friday,51.50089703318055,-0.08215963837251494
18:41,Friday,51.49420116784223,-0.11592460624603854
5:9,Friday,51.498774068355765,-0.09513995398918795
11:23,Friday,51.49085707601267,-0.1117368530119408
9:59,Friday,51.495257966964566,-0.1140486958184675
9:1,Friday,51.5049986738635,-0.11021309780874786
7:40,Friday,51.507019088977906,-0.11791959174055322
8:11,Friday,51.49605654589213,-0.10735173599530505
5:46,Friday,51.50037665202748,-0.08686408965978938
19:23,Friday,51.49688737788794,-0.08552109879572939
23:23,Friday,51.48926939117186,-0.0975832629618179
21:12,Friday,51.50592069042796,-0.11790589586835688
13:30,Friday,51.48909495087884,-0.10148318910770772
19:10,Friday,51.494238808522994,-0.11580996298269675
8:37,Friday,51.49105023448015,-0.10856877365881613
6:16,Friday,51.50181251174255,-0.10045415967385912
1:23,Friday,51.50306289493458,-0.08832834561183353
13:1,Friday,51.50703610577194,-0.11461928345482279
7:9,Friday,51.49873287712857,-0.10752331570819758
3:47,Friday,51.48855619254038,-0.10785053219824149
3:56,Friday,51.49827457665626,-0.08312472803838278
19:41,Friday,51.50222353847728,-0.10382046625560913
20:28,Friday,51.48867610991942,-0.11553843468619643
18:54,Friday,51.495326026644854,-0.09982676485000322
12:50,Friday,51.49375718282097,-0.10483835764119329
19:33,Friday,51.49158993838427,-0.10501284429312593
2:31,Friday,51.492674075296826,-0.10708065726490178
22:12,Friday,51.505882218596284,-0.11266424910200308
20:30,Friday,51.49983370164503,-0.11916223734933143
0:25,Friday,51.498920135960624,-0.10147689548147196
23:13,Friday,51.50619640544731,-0.11750423765094828
19:48,Friday,51.4986985498071,-0.1050081928058914
13:23,Friday,51.495921443963276,-0.08974267921006873
18:36,Friday,51.49229395704593,-0.11913503861386725
4:54,Friday,51.48981027983055,-0.10691168809946275
12:10,Friday,51.48896858107199,-0.09350784326958274
14:58,Friday,51.49354719741562,-0.10375113756171464
8:3,Friday,51.492707373372404,-0.1111803901419904
11:47,Friday,51.506151362491586,-0.11910557239722488
14:23,Friday,51.506970953286846,-0.11361262481577666
4:16,Friday,51.50283152524571,-0.11795392604051437
20:35,Friday,51.505253364651985,-0.08463837538664223
9:3,Friday,51.49254202851075,-0.10563477680327343
2:6,Friday,51.496445018366124,-0.1004109928495622
16:6,Friday,51.50393315604339,-0.09290586131174401
7:37,Friday,51.494189723742466,-0.09185799991985269
23:36,Friday,51.502113097565626,-0.11248379575364967
4:8,Friday,51.503869220769324,-0.10918804038177783
8:8,Friday,51.50345728290063,-0.11947221990828677
6:18,Friday,51.506016041350826,-0.08849238790317625
6:9,Friday,51.50315147826118,-0.08558108227552925
6:23,Friday,51.4964257085278,-0.11413372208583986
4:20,Friday,51.495520562033896,-0.11958160014808186
17:35,Friday,51.4893048263064,-0.09142421055546734
4:27,Friday,51.49654830180986,-0.09282357414132485
14:52,Friday,51.493806723782626,-0.08292836833517905
14:54,Friday,51.50172218604471,-0.10120796672945932
17:39,Friday,51.50061187136909,-0.11335289977683022
16:23,Friday,51.49611309614959,-0.11832159923100861
3:32,Friday,51.502696549242586,-0.0993576647940649
14:38,Friday,51.50015503656892,-0.11824155912156138
22:59,Friday,51.49991223771573,-0.10841500308505607
8:12,Friday,51.5015796203523,-0.0833999475214171
1:55,Friday,51.504066485916816,-0.1101597713130348
16:4,Friday,51.50157747525666,-0.10263059856562867
15:26,Friday,51.493565992542976,-0.08669996037395447
16:58,Friday,51.49060572606843,-0.10971098849557594
17:45,Friday,51.495337976393635,-0.09561174073429023
13:21,Friday,51.49158232373622,-0.08563729295152145
23:29,Friday,51.50701889779919,-0.09886056162743079
3:50,Friday,51.48937859696752,-0.09150796278996504
15:12,Friday,51.49714287977281,-0.11029942208002573
21:36,Friday,51.49015575912116,-0.11219144669386401
10:27,Friday,51.49693527409212,-0.09549542694915572
13:48,Friday,51.493822687536245,-0.10894754256806108
16:42,Friday,51.50163665388363,-0.08811781262954224
10:26,Friday,51.492831761475955,-0.09931966225775146
22:37,Friday,51.4903336455903,-0.09864106672322165
21:1,Friday,51.50529309246194,-0.10156382549635448
6:26,Friday,51.49191058283428,-0.10008925470674017
4:3,Friday,51.50208440679707,-0.1019506070687338
1:29,Friday,51.49425078455218,-0.0979987900893262
0:7,Friday,51.49728808662898,-0.10973490079343907
19:40,Friday,51.49338621679328,-0.09058435159680804
2:30,Friday,51.496056062072356,-0.1044083179070073
6:35,Friday,51.49658578139523,-0.11014404409835085
15:42,Friday,51.50111942367661,-0.10704862216079779
22:36,Friday,51.49901934787634,-0.08839831925313443
21:18,Friday,51.499094106055296,-0.1074088219992608
17:49,Friday,51.50087089224569,-0.08201802458748324
4:19,Friday,51.49875360764646,-0.1120182972803868
20:57,Friday,51.500261087077774,-0.11470607201859787
18:38,Friday,51.506076105150015,-0.08203473907977069
13:0,Friday,51.50414735063528,-0.10215218940228744
10:22,Friday,51.49541219637475,-0.10266253871747498
11:31,Friday,51.49630002431858,-0.09868517001139442
16:37,Friday,51.49337804210509,-0.09178386301976568
20:39,Friday,51.50389304396473,-0.09647665714492833
2:27,Friday,51.496477129395984,-0.10526450338241991
22:16,Friday,51.496380501118836,-0.1107436496762609
15:36,Friday,51.48972097201403,-0.08223963728629662
5:33,Friday,51.493152949265976,-0.11423986734173716
5:43,Friday,51.48950374973521,-0.08813890584128029
3:57,Friday,51.50015800531607,-0.09288827290690292
18:54,Friday,51.492812540699276,-0.0892347524570031
16:16,Friday,51.48922372422616,-0.11074138813652626
20:26,Friday,51.50220814466401,-0.09707241710722284
17:20,Friday,51.490828187549035,-0.08724168022517165
1:26,Friday,51.500352711606176,-0.09796081827365775
3:14,Friday,51.492013715578125,-0.1120876358375346
1:29,Friday,51.50677779239323,-0.10934135286049443
14:23,Friday,51.494749796466614,-0.09589631980758992
11:35,Friday,51.50289442873717,-0.10196378662906963
6:38,Friday,51.49998100699706,-0.10863203277669169
21:33,Friday,51.504249919488025,-0.11362874777059657
2:14,Friday,51.50677961274403,-0.09046850350015379
6:56,Friday,51.49947999976964,-0.08126360368798925
23:29,Friday,51.50025475391204,-0.08975192611717997
20:15,Friday,51.50228608239854,-0.10687134012335295
19:54,Friday,51.49013735299127,-0.11668836279695043
8:3,Friday,51.50413906166417,-0.08975150337478023
7:58,Friday,51.495866945550205,-0.10934633375805075
6:26,Friday,51.493906257976796,-0.10482693350393746
11:53,Friday,51.49601530739693,-0.10209123167995143
9:46,Friday,51.48858402939934,-0.09559700828219253
4:21,Friday,51.499217643244485,-0.08169380466802365
13:50,Friday,51.498234088599546,-0.08479145054173036
12:11,Friday,51.49671075681908,-0.0848417541158579
12:57,Friday,51.506130331274065,-0.08741722778026119
8:17,Friday,51.498233829780865,-0.11139144012485948
16:47,Friday,51.49703936699916,-0.11370452946265658
7:16,Friday,51.48902451576301,-0.09722932710396352
18:47,Friday,51.49435650297459,-0.11800409039463311
21:53,Friday,51.49458364622582,-0.08985847263020112
21:31,Friday,51.50665587663956,-0.11479848887217294
9:50,Friday,51.50490277694164,-0.10769957446538672
22:11,Friday,51.5042403747818,-0.09128709103313995
10:13,Friday,51.506771644874796,-0.09224862831267633
11:37,Friday,51.49417531554678,-0.08526937814984883
4:52,Friday,51.49656942793625,-0.11865729121585876
3:36,Friday,51.49701705098004,-0.09263459915324587
16:58,Friday,51.50355716964542,-0.08981733349538061
5:19,Friday,51.50436010534276,-0.10994616517447825
3:25,Friday,51.49940414979139,-0.09125560886647971
16:15,Friday,51.49150720494833,-0.11984664971990987
23:33,Friday,51.49501039991487,-0.08644178173202349
18:19,Friday,51.493068339837464,-0.10351221410705043
12:39,Friday,51.50382090972606,-0.10689255578122175
14:30,Friday,51.50342981760397,-0.09450391331704026
19:51,Friday,51.496605853683896,-0.11272896972118851
9:15,Friday,51.49482514777311,-0.11203039236681386
17:39,Friday,51.50092021236709,-0.09247063530559557
17:34,Friday,51.500885376738545,-0.11459216530697815
13:0,Friday,51.49088292095182,-0.09015801278032326
11:31,Friday,51.48827238368362,-0.10973124319223901
0:11,Friday,51.48886156415437,-0.09154295996702494
0:13,Friday,51.50221872391288,-0.09871383501582551
5:44,Friday,51.495450943591834,-0.11651916389910663
4:36,Friday,51.49185822360618,-0.11881499027864321
23:15,Friday,51.502898318273964,-0.10773092716738325
17:3,Friday,51.5064981548473,-0.09182258651224802
11:14,Friday,51.49146986364439,-0.11201898864498479
9:27,Friday,51.49664454062072,-0.09914730370810788
20:8,Friday,51.50481236645288,-0.1159791296372839
1:23,Friday,51.505566083982096,-0.08805327961581241
11:57,Friday,51.504953922264065,-0.11380419789260617
13:10,Friday,51.48942233043859,-0.11373514099217172
19:46,Friday,51.48908271726036,-0.09866698767813865
16:38,Friday,51.49377786438638,-0.11977213639129373
13:24,Friday,51.49396458751127,-0.10458094638054134
13:33,Friday,51.488539020466675,-0.10503126152520319
3:11,Friday,51.495160809599845,-0.11804597109842663
12:36,Friday,51.50115085898839,-0.11887300795334281
9:44,Friday,51.50531889488996,-0.11697043712811281
11:0,Friday,51.49593230760094,-0.09712996804335454
5:6,Friday,51.49521210244146,-0.0882676484582824
17:45,Friday,51.493489620609765,-0.0836196446740586
19:10,Friday,51.5065717571579,-0.0822204741727788
13:1,Friday,51.49034435099486,-0.09014955095682618
14:28,Friday,51.4958645070951,-0.11017653762483891
6:59,Friday,51.49943898134547,-0.08536075368655671
4:30,Friday,51.506791112964635,-0.09828142686405954
10:38,Friday,51.49755600745313,-0.08214628066072249
16:22,Friday,51.4995428919808,-0.10317667289522212
11:29,Friday,51.49082631488886,-0.08581847460993161
14:36,Friday,51.49751929528654,-0.09801027371955037
5:57,Friday,51.49001525105562,-0.08357199171582506
20:30,Friday,51.50525226477249,-0.11619617646435879
15:6,Friday,51.48960028200139,-0.11781794235505282
0:27,Friday,51.502595775297515,-0.11230935351061054
3:37,Friday,51.492380355597994,-0.10413148617696252
23:38,Friday,51.497316641325874,-0.08803396908210798
15:0,Friday,51.499617984223654,-0.10976150708381308
6:56,Friday,51.500910330899835,-0.10589298067920058
3:9,Friday,51.49938492040314,-0.08118825824012901
2:12,Friday,51.49544274550854,-0.10733519549756741
7:32,Friday,51.49253266665202,-0.1028608783805523
16:45,Friday,51.500852717705236,-0.08268081409050694
13:32,Friday,51.497409849539984,-0.09674630166217396
23:16,Friday,51.498134351095956,-0.11206839115281343
14:50,Friday,51.5008427994517,-0.0996003991032672
11:28,Friday,51.50035699229789,-0.11598792466344
16:24,Friday,51.49208287698286,-0.11445221658706659
16:7,Friday,51.50244040836147,-0.08388137782778143
21:9,Friday,51.49519512534287,-0.08105809358811815
20:56,Friday,51.49591693632129,-0.08310527667721634
6:31,Friday,51.497819669216554,-0.10863651581649739
11:22,Friday,51.4909869453235,-0.10442061309359002
16:22,Friday,51.494545751781814,-0.10972833338557862
0:5,Friday,51.496393134167675,-0.10684082627074153
4:34,Friday,51.50667643659079,-0.09812308124811996
6:51,Friday,51.50336059519812,-0.08599433783596941
17:29,Friday,51.48925364186833,-0.08288967132548827
18:4,Friday,51.500869456697494,-0.11680448064201515
2:21,Friday,51.494095501073254,-0.11776490162229179
9:6,Friday,51.489934294525604,-0.10510074298059209
4:3,Friday,51.50297094471981,-0.10325207082226054
20:32,Friday,51.4978172856397,-0.08144934350720114
14:14,Friday,51.49872804816541,-0.0976304107072975
1:0,Friday,51.49943044906959,-0.09146850638553304
19:36,Friday,51.4957235676804,-0.11315551953799885
1:5,Friday,51.49143125635437,-0.09912908751081886
19:52,Friday,51.506348501531804,-0.113535798896798
6:23,Friday,51.50122341751967,-0.08662576778166087
4:50,Friday,51.49268964107846,-0.11342241309437986
7:20,Friday,51.50044902734028,-0.10093972943339558
19:4,Friday,51.4946480697683,-0.09721799700722798
20:10,Friday,51.498359777480154,-0.11502879271722567
12:10,Friday,51.50527594117596,-0.11642558134986898
3:5,Friday,51.50319013567661,-0.10807908514080306
4:24,Friday,51.49821184734815,-0.09740540915652429
4:5,Friday,51.49812603581886,-0.09795706664721358
18:12,Friday,51.50110838250587,-0.09092765377326917
21:52,Friday,51.502145165460554,-0.09397416198967226
1:50,Friday,51.491391889639786,-0.10476342858777436
1:33,Friday,51.49489024829106,-0.08218346224815604
16:54,Friday,51.48918024941761,-0.10020235745231712
14:37,Friday,51.48865539623999,-0.11076787540388403
23:40,Friday,51.49099742004253,-0.1115601588862026
16:34,Friday,51.49733233667558,-0.09653167047049879
22:34,Friday,51.505982401557105,-0.10757367451350124
8:55,Friday,51.499359713838686,-0.10029465965180674
6:57,Friday,51.50514086132568,-0.11701529421700203
8:4,Friday,51.492513279237855,-0.0994614695450611
1:42,Friday,51.496921126548884,-0.11615847353888302
9:47,Friday,51.503695379631324,-0.10413141900211298
5:40,Friday,51.5008414990466,-0.11628614538191458
6:6,Friday,51.50151478403414,-0.10041462883177116
19:33,Friday,51.49676232298087,-0.09834249391886371
3:15,Friday,51.495501289990585,-0.11596600926647191
6:50,Friday,51.49768031561559,-0.11483216457916896
9:20,Friday,51.50345784323023,-0.10107810727414805
5:29,Friday,51.49981575366858,-0.1053817974539124
14:29,Friday,51.504251404313734,-0.08356199168817877
1:6,Friday,51.49858991470658,-0.10318444188418542
2:24,Friday,51.497131367769,-0.10697672503113007
10:43,Friday,51.49546029977543,-0.09266388786313492
7:30,Friday,51.49844085749836,-0.08199964518374084
2:51,Friday,51.50362641516955,-0.08523103016581593
1:19,Friday,51.489109467719175,-0.11269337335514007
8:3,Friday,51.50646499839156,-0.11449985292899975
23:55,Friday,51.50568461622186,-0.08620951695068789
1:44,Friday,51.49546183081229,-0.08662895141544105
10:12,Friday,51.494789741078456,-0.11809816067141575
16:56,Friday,51.500296687183905,-0.11757363869480558
21:55,Friday,51.504251915412475,-0.08639752405938957
20:6,Friday,51.50697813807923,-0.09037479176619512
2:43,Friday,51.49962401472497,-0.0901615931018839
6:25,Friday,51.504003074383256,-0.08350766030654626
20:19,Friday,51.5032641082925,-0.09418264897514819
1:26,Friday,51.48892458966626,-0.09668561210911089
19:28,Friday,51.4922166940025,-0.11707106761450006
5:33,Friday,51.50308278636762,-0.09713344782662375
2:44,Friday,51.490239281418674,-0.08975680495733945
12:56,Friday,51.504512365381835,-0.09823345067227808
15:10,Friday,51.494296958595946,-0.09232030397951141
17:11,Friday,51.50634880185809,-0.10402857263431561
3:53,Friday,51.498378153827865,-0.10988726947175131
22:58,Friday,51.495486372986385,-0.09072589435819481
23:48,Friday,51.49052690846037,-0.09701329913839822
7:14,Friday,51.500395778712694,-0.09352320975142267
21:57,Friday,51.50259490806657,-0.09087457696831044
15:15,Friday,51.495588879528995,-0.10014417930447408
19:53,Friday,51.49041763659536,-0.11592965208290415
20:57,Friday,51.50651090068112,-0.10713158401640917
12:34,Friday,51.49420712067348,-0.11532132830609791
18:48,Friday,51.49773532636513,-0.10720148964318754
1:29,Friday,51.49222279466256,-0.10588512746664315
11:13,Friday,51.50078448872922,-0.09115755725266443
20:22,Friday,51.50464050781618,-0.11951238316074554
5:34,Friday,51.50492546375053,-0.1043339128012718
2:37,Friday,51.50002119810845,-0.0834827852955573
16:22,Friday,51.49711995015738,-0.09298345663450139
15:49,Friday,51.50693319940611,-0.10386218158394625
5:25,Friday,51.498001031201845,-0.0816704402085186
17:59,Friday,51.49165591969219,-0.10022945696616534
9:27,Friday,51.50007022902783,-0.09954180948385227
6:32,Friday,51.50324654083078,-0.11169140596719225
5:4,Friday,51.49836294525895,-0.09795380494410116
11:37,Friday,51.49939840270133,-0.09691195335147247
10:17,Friday,51.49419866469086,-0.11375615857240415
14:4,Friday,51.493585003488455,-0.10774062340326179
5:20,Friday,51.491400374364616,-0.10156784806562541
23:52,Friday,51.500430275480205,-0.10166319941978519
2:47,Friday,51.49883232912075,-0.10057969664455364
19:0,Friday,51.49550140428809,-0.08746896319077235
23:19,Friday,51.50563577894817,-0.11298419608571558
0:43,Friday,51.48957741873901,-0.09514459948228308
21:38,Friday,51.50430035476037,-0.10108045114009755
5:53,Friday,51.50677618837069,-0.10699803318058337
22:50,Friday,51.499057657521114,-0.08811667763947098
0:57,Friday,51.50207990682307,-0.11219762337179799
8:19,Friday,51.50419545063002,-0.0939401347757074
23:54,Friday,51.50060684387793,-0.08581568704616643
19:35,Friday,51.502932104789245,-0.09109758638165573
13:7,Friday,51.493032237141996,-0.09941517046928558
11:51,Friday,51.492568868330764,-0.10985560293095695
9:57,Friday,51.49803125895316,-0.08362056386795247
6:5,Friday,51.49231201726331,-0.10992763433127285
0:7,Friday,51.499760911825284,-0.08356297469917168
5:46,Friday,51.50706015141477,-0.1046152161498201
8:17,Friday,51.50088019585401,-0.10236682390835271
15:37,Friday,51.490551551867476,-0.09577350534441595
23:39,Friday,51.49026487846438,-0.11894659530207574
5:27,Friday,51.496581898535716,-0.09255722169089739
19:13,Friday,51.48863203417038,-0.08105138594033282
3:22,Friday,51.49449153195829,-0.10887727683090134
3:16,Friday,51.50040653362648,-0.10850034943889253
3:33,Friday,51.50570121630202,-0.10575844638631976
15:50,Friday,51.49328670830811,-0.11918709510255275
15:52,Friday,51.49769135379245,-0.10034614456174412
11:5,Friday,51.5045336551988,-0.10720085089883478
13:47,Friday,51.50652919056006,-0.10245579738354157
0:39,Friday,51.50208855485022,-0.09224947601881024
21:0,Friday,51.49385991402934,-0.08888622634295669
23:2,Friday,51.48896362386454,-0.09311063782975323
4:4,Friday,51.4959832967845,-0.10473262102854569
19:24,Friday,51.49095001577057,-0.09881366519736604
5:35,Friday,51.49862557605641,-0.11367528419428762
21:6,Friday,51.49058417743051,-0.10168219063265728
0:25,Friday,51.49396643985598,-0.10135286422774091
8:6,Friday,51.50141789852441,-0.08400150005260536
23:55,Friday,51.49795023917575,-0.09648126526298284
15:33,Friday,51.501206669629155,-0.08766810171189625
15:48,Friday,51.49493140054123,-0.11540864655134299
4:34,Friday,51.49486620523578,-0.11479657480165041
10:15,Friday,51.49749214293314,-0.1168350628944517
12:19,Friday,51.49446361972453,-0.09149672880247017
12:50,Friday,51.498301864976696,-0.11548132415543795
17:20,Friday,51.49425435537144,-0.09330566488288622
20:50,Friday,51.502255372636554,-0.0843626485695107
23:53,Friday,51.50629907451108,-0.09067529112638575
11:19,Friday,51.50119478139704,-0.08746602490685246
23:27,Friday,51.50536215674929,-0.10228314913358622
11:55,Friday,51.50072011280108,-0.09285201077138514
1:43,Friday,51.4883698634013,-0.10590286501140521
13:23,Friday,51.49114656838261,-0.11708073537779284
7:30,Friday,51.489713088750314,-0.0941554895883061
9:49,Friday,51.49480566339062,-0.09037008459482454
0:24,Friday,51.50043918126065,-0.11335769803300291
17:1,Friday,51.49829684505525,-0.09486333429874794
7:26,Friday,51.49592126696644,-0.08652525297642269
3:49,Friday,51.49093956060517,-0.08897371239669925
12:35,Friday,51.495830193270656,-0.08592677423458676
1:52,Friday,51.50310827145389,-0.09956638296194883
16:36,Friday,51.49942686602943,-0.11342228624405534
18:36,Friday,51.49202942590581,-0.10424384911898897
0:54,Friday,51.50665320086797,-0.10620827842961085
15:14,Friday,51.49112859754829,-0.11155157144411708
5:22,Friday,51.48904002599781,-0.08502409638891534
13:2,Friday,51.48898954210281,-0.11261894091754654
15:14,Friday,51.490719116287984,-0.11682513074058712
7:26,Friday,51.50025738684334,-0.11033582748130606
16:7,Friday,51.49279965119319,-0.1068775181026175
6:24,Friday,51.49329929943902,-0.11404488485742344
16:20,Friday,51.49834234257369,-0.08551065652447651
20:50,Friday,51.49089347874218,-0.0912903544049263
20:32,Friday,51.50387712915333,-0.10301102057495452
0:20,Friday,51.501980605091454,-0.0853135225700855
6:10,Friday,51.504179488261116,-0.10737293072909788
22:41,Friday,51.48984764685998,-0.10471906352137746
23:56,Friday,51.49298393871209,-0.11619751455363506
11:52,Friday,51.49036994488672,-0.09135016733627191
18:13,Friday,51.491064280082135,-0.10343700259160678
11:46,Friday,51.49636973439438,-0.09702080881384574
10:54,Friday,51.49980668481543,-0.0985153492028201
13:0,Friday,51.490747564661866,-0.11935097273458799
18:49,Friday,51.49089253629435,-0.08458500733285329
9:42,Friday,51.49586198963507,-0.11531604554860865
16:50,Friday,51.49152589934521,-0.1154523309299508
20:16,Friday,51.497127456572464,-0.11065544962744175
22:22,Friday,51.49704930402372,-0.08615566771693187
23:4,Friday,51.50435873709118,-0.11782623172081078
13:49,Friday,51.50674582404736,-0.09722469894139579
23:58,Friday,51.50000479551124,-0.10936693005020606
2:26,Friday,51.50199774363155,-0.08576140727918166
10:31,Friday,51.49806173119949,-0.10279696092476254
7:38,Friday,51.49474727263709,-0.09417117303919417
2:37,Friday,51.489567084823875,-0.1124998209731055
6:55,Friday,51.49222992007977,-0.10937538874363319
1:53,Friday,51.49262303831733,-0.1140120449530469
12:34,Friday,51.49117449092783,-0.11216428790685551
21:2,Friday,51.50143635681166,-0.10950234570712047
0:26,Friday,51.502495536470086,-0.11429962142767336
9:58,Friday,51.50650524779811,-0.09235817628629443
13:38,Friday,51.4905433547129,-0.09589414445031338
17:39,Friday,51.49284146690609,-0.10038409400967055
1:30,Friday,51.49171286390332,-0.10373444026732279
9:53,Friday,51.49454745435434,-0.09413473972087505
0:29,Friday,51.491083552174345,-0.0903787189527922
22:32,Friday,51.502535087492475,-0.08541042646269761
12:50,Friday,51.493892414127544,-0.08392337465199423
21:4,Friday,51.50491297453714,-0.08405560525960463
16:19,Friday,51.49441594083571,-0.09727060278700984
5:18,Friday,51.49419201788509,-0.11753877929014156
6:3,Friday,51.502896576892894,-0.11763541260371206
4:10,Friday,51.49091242964174,-0.11241349244071618
23:47,Friday,51.49679941104501,-0.09146002082763582
1:17,Friday,51.49588366728488,-0.08882547236587016
13:8,Friday,51.500001955554055,-0.09315659965995343
3:47,Friday,51.494845126474615,-0.10070230253836956
14:49,Friday,51.48842117327938,-0.08363367131894209
1:9,Friday,51.50530656918436,-0.10885909599683029
0:23,Friday,51.490573588542155,-0.1197439509253034
0:13,Friday,51.49344484422921,-0.0824092744277426
11:53,Friday,51.49111196395224,-0.08894423999583709
10:20,Friday,51.489139190563975,-0.09982251346135979
13:21,Friday,51.50708033947178,-0.08552939633267773
5:50,Friday,51.494590046783074,-0.11415423748835096
22:57,Friday,51.490755229302216,-0.09819894242532792
0:10,Friday,51.4932196801342,-0.08416439265374259
23:36,Friday,51.502754634448,-0.10245598242668974
11:37,Friday,51.50082160151245,-0.10691497798020194
11:59,Friday,51.49248385492854,-0.09341751468756769
13:23,Friday,51.50484830671911,-0.09239591799802258
19:24,Friday,51.49568609118915,-0.11841322477682488
4:48,Friday,51.49542882463825,-0.10467461587770051
0:0,Friday,51.49423487357136,-0.10750859347594606
10:59,Friday,51.49066038036455,-0.10530822673830226
4:15,Friday,51.49786212981641,-0.09182651083597144
8:16,Friday,51.49039354312637,-0.10125151595195811
3:17,Friday,51.50177218418867,-0.08201993764319143
9:4,Friday,51.5020478128427,-0.08567792915269601
15:53,Friday,51.49111999276616,-0.0975348129012152
16:25,Friday,51.50119782712524,-0.11120904095516004
7:51,Friday,51.50214611731679,-0.09234736727405903
12:47,Friday,51.50015734300956,-0.08195245551157146
4:17,Friday,51.506581639692726,-0.10182725655696481
2:32,Friday,51.4912862614477,-0.10181544241630075
2:27,Friday,51.49660357172577,-0.09137701375651547
15:3,Friday,51.50426210585135,-0.1045071319064068
0:32,Friday,51.503629479061786,-0.1096724659117494
2:5,Friday,51.49188693165501,-0.08814597714905753
6:57,Friday,51.499912649981184,-0.1037213905212966
8:42,Friday,51.49575825565563,-0.10559493726580403
4:24,Friday,51.50190666815693,-0.10081151415933247
0:57,Friday,51.49116956677413,-0.10897557829243991
5:7,Friday,51.493136524696475,-0.11363770517522605
9:3,Friday,51.50201129073104,-0.1188820549144224
13:10,Friday,51.49891044904111,-0.11050018596009414
20:25,Friday,51.49739296336686,-0.0958680647029275
9:33,Friday,51.48865520630516,-0.09304986998379411
12:52,Friday,51.503624464338934,-0.09477732375690909
4:34,Friday,51.49360017847327,-0.10245484130417887
19:27,Friday,51.49569966384364,-0.11935998935748456
2:33,Friday,51.50474489209683,-0.08618385232798637
9:16,Friday,51.49759004943271,-0.11385184553392941
5:32,Friday,51.49213156476842,-0.11381598203559008
12:0,Friday,51.493063043622605,-0.10409947394782111
21:44,Friday,51.50236960159963,-0.10440111525499983
15:30,Friday,51.49899553546346,-0.11331294640574976
13:22,Friday,51.5007609484819,-0.08988153002518731
11:58,Friday,51.49522414075927,-0.08878486507480103
18:16,Friday,51.49354834317056,-0.08865079817152852
1:57,Friday,51.48948448750599,-0.09221366501502148
1:8,Friday,51.490746839028105,-0.09434007449147938
12:11,Friday,51.50031616945021,-0.08629709823347438
20:14,Friday,51.502621666367865,-0.11395347437412026
9:42,Friday,51.49979668321653,-0.11219709816929525
20:4,Friday,51.49764640334391,-0.10937677696512474
17:2,Friday,51.49173607201223,-0.10088077072208665
18:48,Friday,51.49521501646939,-0.1159792008931736
23:38,Friday,51.5036902743911,-0.11504625315307797
10:40,Friday,51.4984250374989,-0.10481156384786794
0:25,Friday,51.49709627544094,-0.1159218827143446
9:27,Friday,51.50285293176945,-0.08512170469728683
15:44,Friday,51.49785890935044,-0.10311882659004803
21:38,Friday,51.497509913947454,-0.0897394004225748
12:30,Friday,51.50259586380348,-0.11714211158418682
19:1,Friday,51.506087353154435,-0.10250697289518791
11:31,Friday,51.4888121463878,-0.11819776163215072
4:13,Friday,51.490685853768674,-0.1034486112084105
4:7,Friday,51.50190892173421,-0.10925693670481575
14:16,Friday,51.505434007341705,-0.10618548895191617
23:37,Friday,51.50438980827763,-0.10767151309300711
5:24,Friday,51.49716523979295,-0.11628229964193759
4:33,Friday,51.49268799078475,-0.10615392779847978
10:15,Friday,51.50569556817835,-0.09498081439170612
17:14,Friday,51.50279276624694,-0.09086971639205237
12:57,Friday,51.48993769059797,-0.09734047686929463
18:43,Friday,51.49045651434147,-0.10470866981882496
0:12,Friday,51.49750900170819,-0.11516547186363234
6:11,Friday,51.505926094562255,-0.11945669139685929
9:29,Friday,51.488993846451706,-0.08999065101320952
16:51,Friday,51.49028474836858,-0.09614710908107357
20:24,Friday,51.50561656995684,-0.10868485841193568
0:25,Friday,51.49986080948904,-0.08841664713284514
3:19,Friday,51.490237629111185,-0.08716528413833666
2:40,Friday,51.50316886534371,-0.1011408011073982
14:52,Friday,51.50498672575923,-0.09621704091828936
5:25,Friday,51.4989786814717,-0.10437970626899414
13:38,Friday,51.50313043055495,-0.10215653993473181
0:1,Friday,51.4945667487762,-0.09102474010344398
20:19,Friday,51.49045032441312,-0.08798583236259608
15:12,Friday,51.4902035316791,-0.09030141437854498
5:2,Friday,51.49561743319536,-0.11788710986239886
7:43,Friday,51.503543543548886,-0.08149987363339016
12:46,Friday,51.49728900411725,-0.11069623949675028
23:18,Friday,51.488679791900516,-0.11306631625808383
5:25,Friday,51.493707682419924,-0.10347310879922253
15:59,Friday,51.49759991506846,-0.09592474744229643
12:15,Friday,51.50254799731671,-0.08945952183273129
6:56,Friday,51.5006178752749,-0.09167036676686034
1:1,Friday,51.50144149095347,-0.11977306294693468
10:3,Friday,51.49389124020747,-0.08535166415752649
23:7,Friday,51.50084893785152,-0.10018331253002752
0:53,Friday,51.49131330993546,-0.08376131184023909
5:57,Friday,51.495770671532554,-0.11597030241652125
21:14,Friday,51.49354599288623,-0.10620071898639193
12:21,Friday,51.49829088713931,-0.10017345600969234
12:4,Friday,51.50581543636912,-0.1062646016401499
6:42,Friday,51.49728166151068,-0.09768832360097078
16:10,Friday,51.50685066585942,-0.09397022056802716
13:44,Friday,51.48891345784974,-0.09471310173987396
16:45,Friday,51.501641803128194,-0.09288876357940676
14:15,Friday,51.50154628544736,-0.09629277954439433
16:2,Friday,51.49881827244304,-0.11180755527575716
4:40,Friday,51.501542828601664,-0.10317051384271753
21:48,Friday,51.50042448968312,-0.1065264356833341
16:2,Friday,51.50266142855959,-0.09922129609357531
15:24,Friday,51.49741624306219,-0.11422026851225717
14:4,Friday,51.505006286939256,-0.08384501144946355
7:23,Friday,51.49678440655323,-0.08477157823735172
8:50,Friday,51.50023721905691,-0.09517078522407645
3:27,Friday,51.48986113372288,-0.11541434554756598
13:55,Friday,51.49414063626496,-0.10155881388746346
22:41,Friday,51.50550642456578,-0.10407631543157544
6:52,Friday,51.49813043594909,-0.0938490561923496
6:23,Friday,51.50320220561856,-0.10525409343393424
5:2,Friday,51.493215506171715,-0.08958259984984886
7:50,Friday,51.490197517701745,-0.09721450060421194
4:1,Friday,51.4952529173171,-0.09252544087312548
12:37,Friday,51.5049111291965,-0.09348453698296216
6:32,Friday,51.49824791396485,-0.09186658311486925
15:31,Friday,51.489268548545205,-0.11497484140097179
10:58,Friday,51.5051417041303,-0.09060216349368885
10:15,Friday,51.494412146139666,-0.09321880228789628
5:48,Friday,51.49005746720819,-0.11344905435297833
13:39,Friday,51.49006117773901,-0.11242375596530808
19:12,Friday,51.493401053899625,-0.08436464897645432
7:30,Friday,51.50691264979275,-0.10244430193273213
4:35,Friday,51.505004661198804,-0.09104983562016103
8:20,Friday,51.50194516867911,-0.08897727525667609
19:15,Friday,51.49577178266341,-0.10913787176306733
15:52,Friday,51.48892230888318,-0.08371279149280031
13:58,Friday,51.49193881181235,-0.10677516890321544
23:42,Friday,51.50571353484836,-0.10663473254405163
18:15,Friday,51.4933614015456,-0.08482045215284069
4:40,Friday,51.496423053897075,-0.11329036456077747
21:4,Friday,51.49495201278977,-0.11164767190233779
13:22,Friday,51.497422022240464,-0.09290398795308522
23:27,Friday,51.49242008662843,-0.10337178806787314
19:31,Friday,51.49845294964489,-0.10693766311874049
7:40,Friday,51.50273123524416,-0.093848411694828
20:1,Friday,51.49828638900454,-0.08555689858061669
0:29,Friday,51.48907689092516,-0.09470962984514207
20:35,Friday,51.4905711967176,-0.09965159132591742
5:49,Friday,51.50189922035458,-0.09228248021805256
23:46,Friday,51.49082300558334,-0.11323574080638898
15:51,Friday,51.50343488181121,-0.08242102053519479
15:56,Friday,51.50239081816927,-0.08272104780095897
19:29,Friday,51.498212086987145,-0.10584900849596629
16:9,Friday,51.49594533500763,-0.11423616069188236
10:58,Friday,51.48850394658365,-0.0867762210937961
19:39,Friday,51.50356131582191,-0.0965114965624414
1:38,Friday,51.49538570099117,-0.1143656695224406
21:17,Friday,51.49133317736475,-0.10281472401441574
21:53,Friday,51.49035182074364,-0.09021113069855614
11:5,Friday,51.48991757902296,-0.11268762519038442
18:34,Friday,51.49904609560263,-0.09470955196111429
11:10,Friday,51.49913850846516,-0.09577805647694237
15:40,Friday,51.503144314859874,-0.11186988950383274
16:16,Friday,51.49157531228259,-0.08378103279911714
23:23,Friday,51.49681753412377,-0.0941737175473191
10:40,Friday,51.502453518415514,-0.10459756061028584
17:24,Friday,51.50277805457361,-0.11778916658863894
16:27,Friday,51.48987580850207,-0.08985721778677627
0:54,Friday,51.489771671380886,-0.11544524213994456
21:59,Friday,51.50589576418726,-0.10128686683436747
0:52,Friday,51.501477929013376,-0.08895513000358725
11:22,Friday,51.494934215119294,-0.11852529433422751
23:47,Friday,51.490352036737136,-0.09830138355833765
13:54,Friday,51.49370815227707,-0.09050291646600525
4:0,Friday,51.48827762109648,-0.10289994701196988
15:36,Friday,51.49109639259705,-0.08346350623677566
9:33,Friday,51.4940664616917,-0.1174611207151618
2:10,Friday,51.49459389213075,-0.09571188300181947
14:58,Friday,51.495229322513424,-0.11259588735210527
8:50,Friday,51.49616643252254,-0.10829387111622946
18:53,Friday,51.50293779580966,-0.08778653724355517
18:5,Friday,51.49071028815644,-0.11289355430183141
20:8,Friday,51.49110224472068,-0.0977208707726185
0:31,Friday,51.48828388528616,-0.11319528809012497
6:52,Friday,51.503506756260286,-0.10695060817938089
19:13,Friday,51.49290291771543,-0.08453945318311154
18:49,Friday,51.4977504089318,-0.10522312601980853
10:43,Friday,51.50050330462322,-0.11276106671763594
13:48,Friday,51.49084765628711,-0.09691067502306056
1:36,Friday,51.489677744615946,-0.09055050083327813
18:13,Friday,51.492592768589624,-0.1108591244431215
21:1,Friday,51.49984036822476,-0.09543319431020292
13:1,Friday,51.50008137587099,-0.11943685719692557
5:46,Friday,51.49747538499015,-0.09723091461050826
16:39,Friday,51.49397499722519,-0.08341218310294535
16:19,Friday,51.49737009924666,-0.11884528868893474
5:45,Friday,51.50407608752162,-0.11577467020711206
8:12,Friday,51.50219408840818,-0.10786424739063122
12:15,Friday,51.49986374286942,-0.11692021095954033
14:23,Friday,51.50446633180576,-0.10729919385289319
14:31,Friday,51.48842552302314,-0.09655126791981966
14:9,Friday,51.49307249460293,-0.10355625155183383
22:51,Friday,51.488253751244535,-0.08886329034632143
2:58,Friday,51.48852014685266,-0.08198003975263415
7:49,Friday,51.50702047373405,-0.11850261702013716
2:50,Friday,51.50616478073488,-0.09132378597055994
5:9,Friday,51.49625146659858,-0.09192446101052199
7:15,Friday,51.5066726254531,-0.09583507017274012
7:18,Friday,51.504800660703204,-0.0818001749761772
20:12,Friday,51.49337485038146,-0.1020620563203646
19:19,Friday,51.502875494482744,-0.0824671210729806
19:6,Friday,51.491565480134405,-0.10896197320575247
4:7,Friday,51.49605954912148,-0.09261523972735958
12:51,Friday,51.505421417403106,-0.10604119374176549
5:47,Friday,51.506192947362365,-0.08547117690314292
5:42,Friday,51.49493126890405,-0.11577585502634268
15:2,Friday,51.49465892987281,-0.11543858378423474
3:49,Friday,51.50217091709803,-0.08810995288052503
22:39,Friday,51.492404669105014,-0.0813239560180053
18:30,Friday,51.49546462767396,-0.0867035312653485
3:39,Friday,51.494380440019206,-0.10093764253662238
10:36,Friday,51.501109917975036,-0.10951480048286846
10:57,Friday,51.50272897244245,-0.11046125919370317
7:0,Friday,51.497639361348405,-0.08663113255397341
9:56,Friday,51.4979356927268,-0.09472436251939875
16:21,Friday,51.50094046281938,-0.08411363047218232
8:38,Friday,51.5039411243447,-0.09428224996000026
3:46,Friday,51.49260380109574,-0.09789248721683572
5:57,Friday,51.49646056571304,-0.0868738153345597
1:18,Friday,51.501679343281694,-0.08961434218813269
6:19,Friday,51.49834129558392,-0.10753783003054604
19:55,Friday,51.499059525767635,-0.08630651529277024
3:2,Friday,51.491367116223444,-0.11906896805703093
10:45,Friday,51.49147207811921,-0.10533701179230649
22:59,Friday,51.490799322120836,-0.08811658471820502
0:29,Friday,51.503413813771715,-0.08759873383650965
9:12,Friday,51.48917185896522,-0.10016852497344426
14:51,Friday,51.49234670097685,-0.10318403335682444
1:2,Friday,51.502512303419735,-0.09366824480001638
14:59,Friday,51.501036337206926,-0.09378037961486879
0:31,Friday,51.49146921980088,-0.09560135458565097
16:29,Friday,51.501885412962636,-0.0993268706090388
0:26,Friday,51.500142804748016,-0.09670486582615474
9:22,Friday,51.50190399919343,-0.10090623545519097
2:13,Friday,51.499013698350694,-0.10090180165916594
4:31,Friday,51.50559030616875,-0.11525078726530916
8:40,Friday,51.50582667973778,-0.11481739692941925
5:31,Friday,51.50352643946829,-0.09187038713376618
16:19,Friday,51.50044463388596,-0.11732155256794881
20:29,Friday,51.49272761715205,-0.10056628029793847
23:57,Friday,51.49387462409737,-0.10667080402027647
10:36,Friday,51.500176694051845,-0.08652490825446399
3:50,Friday,51.49537080774152,-0.10321245015110614
5:38,Friday,51.49705065327965,-0.11484676622650439
18:17,Friday,51.5019932717988,-0.10295195554181802
11:27,Friday,51.49333317678036,-0.11464918644417772
7:2,Friday,51.49929316683593,-0.10596056758951827
20:32,Friday,51.50656323554457,-0.0836250955565338
19:2,Friday,51.49701220347792,-0.1036906786249834
11:8,Friday,51.491335875704486,-0.11146722080012474
11:20,Friday,51.50026740691993,-0.1097372799334851
21:47,Friday,51.50509556563882,-0.11092792547293048
18:38,Friday,51.49606565272551,-0.09519531764718399
0:6,Friday,51.49892974276439,-0.11709766626211135
5:31,Friday,51.491889882066786,-0.10297957477625441
16:49,Friday,51.492247905372736,-0.08385156109246447
16:52,Friday,51.50482720882394,-0.1190722904094335
6:3,Friday,51.493272770095324,-0.09425672514288315
0:38,Friday,51.49150976474608,-0.08217841339044238
7:32,Friday,51.49254008758102,-0.08140057513130028
22:49,Friday,51.491761296749395,-0.11168477569260175
15:20,Friday,51.49886985032738,-0.11135220623326805
16:48,Friday,51.505839144815084,-0.1158523281377632
12:16,Friday,51.49580776201947,-0.08831796013255538
10:51,Friday,51.495119793533746,-0.11393343518706615
5:22,Friday,51.48989419703692,-0.10100358039926552
6:10,Friday,51.49938250542933,-0.09770118787395948
10:33,Friday,51.50517075461962,-0.09818662447992045
19:50,Friday,51.49628169778348,-0.0872505415430836
1:54,Friday,51.490607924135645,-0.11184950956389969
14:43,Friday,51.50226414007874,-0.101579028226422
20:38,Friday,51.503141815816036,-0.09457941810237944
2:10,Friday,51.491007455036154,-0.1103592732404457
6:32,Friday,51.489814228602356,-0.08891268482154409
2:6,Friday,51.494284060157504,-0.10350660315054398
11:52,Friday,51.490310929908745,-0.08757768398457219
2:25,Friday,51.4950713879537,-0.1065466508806451
11:36,Friday,51.49483781040169,-0.1101583493627896
21:1,Friday,51.498316605610064,-0.10742718006722238
9:3,Friday,51.497203971219115,-0.11744487323951847
17:27,Friday,51.49073115067572,-0.10741493128684837
4:11,Friday,51.48966376981178,-0.11423310971093648
7:11,Friday,51.49973047443921,-0.09687172780638727
22:35,Friday,51.49029431973975,-0.0857951456636406
14:26,Friday,51.50029102685303,-0.0982633837737436
9:40,Friday,51.50419890334029,-0.1022597942980938
10:35,Friday,51.50472583301701,-0.09651687350017601
17:28,Friday,51.502994097593806,-0.09724054984796865
3:27,Friday,51.498549490606806,-0.08623697211364091
19:7,Friday,51.50028858915727,-0.113134093835889
2:57,Friday,51.49254007817624,-0.08235656668798669
19:37,Friday,51.48989850897959,-0.11266850307116483
11:16,Friday,51.49728778899828,-0.0860855956343281
1:34,Friday,51.49388810258412,-0.10793014729863382
7:33,Friday,51.49058179026037,-0.08367723402279725
15:42,Friday,51.498364118198715,-0.10284253582423919
10:6,Friday,51.50695383550174,-0.1181678348116227
17:44,Friday,51.50400238733004,-0.10410894596900117
17:8,Friday,51.48926250472956,-0.11945626462533149
11:13,Friday,51.49806208227485,-0.10696228267684867
4:41,Friday,51.49880368994587,-0.08769831214701267
9:30,Friday,51.495832275165405,-0.1127318043744063
23:46,Friday,51.50239238759375,-0.11594743344946475
7:19,Friday,51.50342146706687,-0.09706854375528598
14:32,Friday,51.49439755724347,-0.08814305390729821
7:58,Friday,51.49480948914789,-0.09041115132085298
20:48,Friday,51.495673608479414,-0.11287860687563608
13:35,Friday,51.49142380781367,-0.11104432873094147
20:27,Friday,51.48900407254983,-0.09011060609423861
16:46,Friday,51.50354212941586,-0.11125680607156517
10:6,Friday,51.49596735726698,-0.09011719039059517
3:59,Friday,51.49517663132548,-0.08122485130407053
11:46,Friday,51.494648352064594,-0.08225638655480597
4:16,Friday,51.49169842362577,-0.09319075859987072
2:38,Friday,51.50069568236693,-0.09799365956034069
15:11,Friday,51.49250292763987,-0.10869683597593377
2:2,Friday,51.49402502804345,-0.08351490843480053
11:1,Friday,51.49265818495665,-0.10215907617675828
14:43,Friday,51.49449605042112,-0.0908797538292115
0:48,Friday,51.49641034337379,-0.08611700340656522
21:30,Friday,51.49338378590148,-0.10893076888696429
2:49,Friday,51.50485833168148,-0.08369767068183867
22:11,Friday,51.49980570812695,-0.09364923166660133
11:8,Friday,51.4942850383417,-0.1108641256499908
4:31,Friday,51.49581708568489,-0.09314495287318829
23:49,Friday,51.5056837121514,-0.10186708209117212
5:53,Friday,51.495117544282905,-0.09499632453353679
16:2,Friday,51.49064722849349,-0.08851343150850452
6:45,Friday,51.49194077109186,-0.11621376956017739
21:58,Friday,51.48924864634631,-0.08242647971551494
21:32,Friday,51.49156834565554,-0.08732022114642837
23:49,Friday,51.493526587683014,-0.09591945566303353
15:53,Friday,51.506574347235734,-0.10394783960734655
18:27,Friday,51.5065578303515,-0.09729171410014992
22:33,Friday,51.499839115329216,-0.08773525442445458
15:54,Friday,51.48978588609649,-0.11844117201816795
3:31,Friday,51.49301306172353,-0.09289390905953739
20:45,Friday,51.49658497600967,-0.0870695377263768
18:48,Friday,51.504067110799895,-0.11357712138114662
5:23,Friday,51.49049686100326,-0.1162278468392364
14:50,Friday,51.499724054396005,-0.09758278797779232
11:39,Friday,51.503085389691414,-0.11242046214934422
8:1,Friday,51.506084647919685,-0.09384508668083683
19:58,Friday,51.502238030252116,-0.10748738796366009
0:44,Friday,51.500848379617416,-0.09005702254370185
10:22,Friday,51.490174256589576,-0.0971324381706393
22:36,Friday,51.50509978644918,-0.11015698266598477
1:34,Friday,51.499371169632234,-0.11296276815937675
17:49,Friday,51.50035007518439,-0.08136225785244688
14:32,Friday,51.49588872498892,-0.10254288957538436
8:46,Friday,51.48942958956964,-0.08736514969083925
23:45,Friday,51.4937809096288,-0.0948849917294733
5:16,Friday,51.49468820730104,-0.11056523432155499
2:46,Friday,51.49856699708573,-0.09147564859094091
9:57,Friday,51.49840813943791,-0.09030732147442953
11:55,Friday,51.50097083048899,-0.09459373251778119
21:23,Friday,51.49241755188408,-0.08292372239817417
21:33,Friday,51.49011893349488,-0.09574850608859473
9:19,Friday,51.492189959935516,-0.08232216174807941
21:44,Friday,51.50088392077971,-0.09710200371490277
1:5,Friday,51.49393994479112,-0.10667256652957617
23:4,Friday,51.48928768014663,-0.10789937624376057
0:51,Friday,51.49016133639411,-0.11945683252435545
17:11,Friday,51.49927210087571,-0.09436307578257956
14:54,Friday,51.49646912750528,-0.083954942192945
14:44,Friday,51.492640577647855,-0.1110100577185076
8:32,Friday,51.50059913656157,-0.09224469914598325
10:32,Friday,51.505059609870514,-0.09306748958698659
4:3,Friday,51.50514020003146,-0.1132843102341826
17:4,Friday,51.48863115186448,-0.09181284640409741
1:29,Friday,51.50026565950729,-0.10676020404814367
10:55,Friday,51.49962115379714,-0.10234864127491561
20:27,Friday,51.495184825078326,-0.09414115379746882
21:53,Friday,51.50189598967943,-0.09533503083089413
22:26,Friday,51.505772437398306,-0.11119757931712673
3:1,Friday,51.501488281130456,-0.08203066410758184
2:23,Friday,51.49311828024659,-0.11742921636645326
3:10,Friday,51.50190175405335,-0.08817227305205572
1:53,Friday,51.495848591327054,-0.09273686961164898
1:32,Friday,51.50556209537422,-0.0929963538300073
17:2,Friday,51.49621782023658,-0.10623646432646111
3:4,Friday,51.50181831674351,-0.08567600143614343
5:36,Friday,51.496116663591756,-0.08600178370402478
5:1,Friday,51.490765155176355,-0.0989160808125407
2:22,Friday,51.500440302251604,-0.1186561177416655
0:6,Friday,51.504283397430825,-0.10630971872721413
3:44,Friday,51.496223131211394,-0.11252328583642945
16:21,Friday,51.49844462439828,-0.08537713055164584
0:15,Friday,51.495779200960264,-0.0838592126304242
13:44,Friday,51.504530712557575,-0.11482939288574733
20:46,Friday,51.49213636478132,-0.09533340194445113
13:4,Friday,51.49838079146267,-0.11380620306253418
17:15,Friday,51.50419438644377,-0.08637284893811956
2:56,Friday,51.49996035502485,-0.0970167224720991
10:24,Friday,51.50504175357515,-0.1003981717200618
10:31,Friday,51.49899095751827,-0.08271021763647515
19:19,Friday,51.50058898570645,-0.08097139800019545
10:45,Friday,51.504570092526734,-0.09627474594173097
13:36,Friday,51.49685073016133,-0.10622418843616759
10:20,Friday,51.494262486670365,-0.10328580412708663
3:21,Friday,51.495749052318644,-0.11155977850605639
23:32,Friday,51.497790041561885,-0.11560461796878357
8:34,Friday,51.507071507250366,-0.11985889181623545
22:31,Friday,51.49626410410407,-0.08223311316749696
3:55,Friday,51.491166618802346,-0.10490596150421248
19:51,Friday,51.505263822399904,-0.11902763127758696
15:21,Friday,51.49809478762277,-0.08469476437899387
23:54,Friday,51.505262712390156,-0.11194192291849459
5:6,Friday,51.49754048277862,-0.08384144217378192
8:32,Friday,51.50434912263307,-0.10580351597992192
7:3,Friday,51.492022744181114,-0.08708100234140417
1:9,Friday,51.49867800932686,-0.08817723434377117
17:42,Friday,51.50626767175248,-0.11812319167915493
16:50,Friday,51.506416951077036,-0.11756809069813837
2:40,Friday,51.492093236170646,-0.08558797469724914
15:23,Friday,51.50252214205516,-0.082735756865919
6:53,Friday,51.49112401901254,-0.09270770051073898
4:31,Friday,51.505263545203356,-0.09689615845258494
23:27,Friday,51.492507093690826,-0.1044192543933391
10:21,Friday,51.49471173640706,-0.08170872096649338
