14:5,Monday,51.49228090312534,-0.10874461323549443
6:56,Monday,51.491294222727305,-0.11854459356406462
9:1,Monday,51.49182498502414,-0.11376939896356726
10:35,Monday,51.496068126366,-0.10314840756568344
5:51,Monday,51.49256910119535,-0.11561655871298182
18:30,Monday,51.50226119366926,-0.08247427743036678
17:11,Monday,51.488637931677744,-0.08890510150864192
16:17,Monday,51.494739740475374,-0.08337471800818723
18:57,Monday,51.49108151637227,-0.10727624481451281
18:41,Monday,51.49938030566383,-0.11076344168529643
8:19,Monday,51.49840174377105,-0.08957411869928633
4:43,Monday,51.50016015352429,-0.09150136735635962
15:23,Monday,51.49253866409826,-0.11599172175471241
0:16,Monday,51.50415467146559,-0.1086762798304946
18:10,Monday,51.49578045359898,-0.09801092021153872
10:15,Monday,51.50610991786418,-0.10717107691721053
5:32,Monday,51.48962048443137,-0.0810500462474299
3:54,Monday,51.48939621061859,-0.09912653478811412
12:9,Monday,51.506618711408414,-0.08380045647304349
2:45,Monday,51.50415757694219,-0.10013269631498327
15:57,Monday,51.50140416246822,-0.08219787186331434
0:40,Monday,51.49066231872269,-0.09994473219184682
11:26,Monday,51.49532274446274,-0.09984469341922414
13:19,Monday,51.49969655069421,-0.11403390164929603
0:17,Monday,51.49091812128436,-0.10511816105924655
23:47,Monday,51.48941753638922,-0.09385013100085914
16:54,Monday,51.49794488267547,-0.09672869755301142
7:19,Monday,51.50515528261567,-0.10942766376038593
15:25,Monday,51.4904033317164,-0.117531575798989
19:58,Monday,51.49099459417631,-0.11158371658056063
6:15,Monday,51.49288962970843,-0.11609592487157748
12:39,Monday,51.503991581822625,-0.10903980361153578
6:50,Monday,51.499005567874406,-0.08160673494314535
19:38,Monday,51.50521184534044,-0.09713832638895897
11:5,Monday,51.49217776681349,-0.11474087871570306
14:30,Monday,51.50202503147306,-0.11349752075997095
8:39,Monday,51.49894072532979,-0.09029008111834617
5:30,Monday,51.49429756100246,-0.08687473331356155
13:18,Monday,51.49317476811315,-0.11068532350114846
11:49,Monday,51.50262996006607,-0.1017710092711588
14:52,Monday,51.491930748585,-0.08616447782962675
8:36,Monday,51.497614162996676,-0.10573711088996943
20:58,Monday,51.49857378212602,-0.0935532165189285
14:51,Monday,51.489828082997256,-0.09594299108682476
7:42,Monday,51.50002365036846,-0.09199272876699338
19:21,Monday,51.49536090113601,-0.10847951373127894
2:56,Monday,51.50224295448872,-0.09443107321924586
19:21,Monday,51.504809670758505,-0.10210984265111799
11:13,Monday,51.50453521962892,-0.08551867245648437
23:56,Monday,51.49721987115635,-0.10203368140386415
10:10,Monday,51.49521009152511,-0.11009119818567449
10:10,Monday,51.503821643214884,-0.10452945870116964
11:40,Monday,51.49643344259755,-0.097881490627344
0:38,Monday,51.497387771709356,-0.08653957844132601
12:0,Monday,51.497582092079185,-0.10695620336500097
6:0,Monday,51.501633047268605,-0.09390971205602622
16:44,Monday,51.50029841836179,-0.09687585063187507
23:17,Monday,51.49487884436621,-0.10301752166015432
23:6,Monday,51.50361827376348,-0.09278107073832925
22:50,Monday,51.496693283526945,-0.10375195546586258
7:20,Monday,51.50412994958899,-0.09390344337902529
10:50,Monday,51.5033919293033,-0.09337324332386228
15:29,Monday,51.489712420705004,-0.11327889029821132
3:38,Monday,51.49536448908599,-0.11221934898781863
12:49,Monday,51.505416716452785,-0.10390658361587331
6:1,Monday,51.493043152563104,-0.09188675749761939
9:7,Monday,51.50421575459665,-0.0830727521167124
14:35,Monday,51.49319590835324,-0.08711569934591717
21:2,Monday,51.48913000486003,-0.10250713715128998
12:5,Monday,51.49079809834918,-0.10126868536485897
7:25,Monday,51.50421714438546,-0.11707632836775062
20:40,Monday,51.497131574106575,-0.11223652262085282
23:43,Monday,51.49586613974413,-0.08660879231224236
17:12,Monday,51.49324149900557,-0.09703319189214041
5:55,Monday,51.49464385692225,-0.08503226119099874
20:26,Monday,51.504734830369436,-0.10865543030603433
6:50,Monday,51.49565782369335,-0.10924633765085177
17:42,Monday,51.50572564672812,-0.08290027466479033
5:39,Monday,51.499575455533645,-0.09151799051681503
5:21,Monday,51.49105944221448,-0.11834461015522499
15:43,Monday,51.50357320826941,-0.09142098290256952
23:40,Monday,51.49896225244471,-0.08118444297953012
22:58,Monday,51.501987602668216,-0.11868416583419002
8:40,Monday,51.50191400680777,-0.0967413065080166
4:14,Monday,51.489087344658074,-0.08544837596457566
13:50,Monday,51.491880742422346,-0.10635872367894211
3:39,Monday,51.49161503947669,-0.08516169470966632
19:22,Monday,51.50141960476956,-0.09091908938728996
21:53,Monday,51.494831295261385,-0.11888339868792093
1:55,Monday,51.48880147359895,-0.10243990063601477
22:45,Monday,51.49571388907131,-0.08590433460405282
22:10,Monday,51.506743105777105,-0.1147684502417605
17:3,Monday,51.49761283144256,-0.10223850397546583
7:46,Monday,51.4961916214892,-0.09667601248296828
20:20,Monday,51.50296271768244,-0.08120545073305435
18:13,Monday,51.50269082923418,-0.11877958256607861
5:11,Monday,51.498419367257334,-0.08841653691416745
5:22,Monday,51.50655311901244,-0.09045497606349648
18:1,Monday,51.499248458395165,-0.08564314206377381
20:17,Monday,51.48889170310548,-0.11153686457174943
15:20,Monday,51.50092531699065,-0.1091466267888694
16:47,Monday,51.504796721742316,-0.10459778459329205
12:39,Monday,51.49132448872328,-0.08940507287207972
17:48,Monday,51.50637143317582,-0.09459703549027379
4:4,Monday,51.48975614022088,-0.08650603349980382
16:42,Monday,51.50160926564485,-0.10155609926818228
12:40,Monday,51.489490702810095,-0.10825417347487175
7:7,Monday,51.4985604328018,-0.08602093382798587
10:6,Monday,51.50106297068182,-0.09941077090285061
1:38,Monday,51.49222659873723,-0.10530011218287663
7:53,Monday,51.49156081363237,-0.08879710003225032
16:16,Monday,51.5027818759915,-0.0832662397344115
21:44,Monday,51.5065761352668,-0.11274094818912997
5:15,Monday,51.49248337114066,-0.09789974078998381
3:15,Monday,51.503887770924784,-0.09251946136376428
17:11,Monday,51.50427112143874,-0.09516833471086529
7:18,Monday,51.501379811039726,-0.1132305557543901
10:19,Monday,51.48949433337314,-0.08532656491671285
8:38,Monday,51.49846044430641,-0.08460862468885454
23:18,Monday,51.50055408549901,-0.11172554556304273
21:52,Monday,51.50520316221296,-0.098494467497658
3:15,Monday,51.495550185779805,-0.08251007500392665
16:38,Monday,51.50400825628889,-0.09370507102970399
19:1,Monday,51.49981374391132,-0.10964930019496634
14:46,Monday,51.494447059664026,-0.10892198040100765
10:22,Monday,51.496593365355565,-0.11482869079298894
7:9,Monday,51.504267413683955,-0.10447389994672429
13:40,Monday,51.495330502374905,-0.0893827863899426
2:56,Monday,51.50528317036742,-0.08371171241788526
2:28,Monday,51.49518367747073,-0.09058410869040076
2:10,Monday,51.5038310788472,-0.10805788627496447
0:42,Monday,51.50055168455294,-0.09336351004618658
22:48,Monday,51.49243965562243,-0.11252559123850202
5:37,Monday,51.49503655742227,-0.0883977195070523
17:18,Monday,51.490130860526584,-0.09589316490774266
4:1,Monday,51.5006803036645,-0.11063432534813585
9:9,Monday,51.49278767762858,-0.11855853499644904
11:54,Monday,51.49519052651077,-0.08889280506180536
11:45,Monday,51.49637057464349,-0.10868184626077217
19:36,Monday,51.496258388470736,-0.09436083520532215
19:15,Monday,51.48984043844205,-0.08648035847271396
17:39,Monday,51.491958129481404,-0.08652553503237816
5:12,Monday,51.49188325921352,-0.08457381167703307
22:31,Monday,51.503284241159,-0.09872493727342414
17:11,Monday,51.49516750917967,-0.0945805395394892
3:37,Monday,51.499748565684605,-0.08178000971117799
23:57,Monday,51.50215383130808,-0.08652434185288528
15:37,Monday,51.495722220829315,-0.1007659724236176
22:23,Monday,51.49091259122857,-0.08277578211514808
9:29,Monday,51.49605825027211,-0.11974107666457615
22:55,Monday,51.49794050737174,-0.11512372224991026
1:33,Monday,51.496867489334896,-0.0844360277300813
4:26,Monday,51.49622427159027,-0.09961411700168761
23:15,Monday,51.49688030604112,-0.10095283337870059
3:28,Monday,51.48951442312181,-0.09647550574791423
22:12,Monday,51.49442386805458,-0.09630467773797317
5:21,Monday,51.4952568579106,-0.11458908659812435
17:45,Monday,51.49513169672563,-0.11337477895226354
18:19,Monday,51.49263034921738,-0.10237478457878114
21:18,Monday,51.492325264029475,-0.11484836016942146
21:38,Monday,51.4920726610562,-0.08945448057824598
16:43,Monday,51.49820803765873,-0.11281825921114372
14:15,Monday,51.50330259509712,-0.09878267816672626
4:57,Monday,51.50570521439288,-0.09296469474701856
17:10,Monday,51.50088198835735,-0.10731236459326782
15:39,Monday,51.49064036842222,-0.11384553965033511
5:53,Monday,51.50622169212493,-0.10017719662978923
0:32,Monday,51.50645456480063,-0.09230392483334385
7:24,Monday,51.49387640785319,-0.10991607851557306
18:36,Monday,51.498169428588135,-0.1157039476543178
15:5,Monday,51.488897377291096,-0.09792457200269913
1:30,Monday,51.492970963059584,-0.11045087467386352
8:5,Monday,51.49640894217205,-0.09104497620635435
14:34,Monday,51.4993024547828,-0.0921876230068113
4:18,Monday,51.50128896741448,-0.11395495014665584
22:43,Monday,51.49272585632246,-0.09435378903791823
13:8,Monday,51.50309098183815,-0.1147143303569475
16:56,Monday,51.49768204439774,-0.1136383200863581
5:22,Monday,51.49285515790832,-0.11934376799196365
22:25,Monday,51.4932326174637,-0.08555036517927828
22:34,Monday,51.506578496048526,-0.10579647367426219
3:17,Monday,51.49319482526125,-0.08537094677049162
8:17,Monday,51.502053645677485,-0.10936213114339643
1:57,Monday,51.48909680452412,-0.0843779336610673
7:22,Monday,51.50223453834558,-0.10606516910262853
0:29,Monday,51.50100071136072,-0.09518640773530475
23:50,Monday,51.49312732056174,-0.11317233869470841
9:43,Monday,51.50637553294358,-0.10801120522486365
5:12,Monday,51.489711956898184,-0.11964804579761161
20:42,Monday,51.49985530729652,-0.09416185171737987
0:10,Monday,51.495713465762826,-0.10210424450430938
12:13,Monday,51.50461241940548,-0.10135114671406735
11:38,Monday,51.48879588346212,-0.08604232514817306
23:59,Monday,51.50378610732897,-0.09326676401205004
13:52,Monday,51.49609414072249,-0.09514277160522042
10:16,Monday,51.49325607598178,-0.11036208986211139
5:41,Monday,51.48991510617981,-0.10799663507122159
9:40,Monday,51.49373834457363,-0.08098840529782222
22:36,Monday,51.50606282603391,-0.10463790301912974
11:51,Monday,51.502821435331185,-0.09832528897154627
13:6,Monday,51.50067691463285,-0.11732673402613288
23:26,Monday,51.49340837978448,-0.11859215791987648
15:7,Monday,51.49073308891533,-0.10822411281268798
4:0,Monday,51.5059451072381,-0.10792412401099592
4:30,Monday,51.494203028739655,-0.11327139440962851
23:39,Monday,51.500931431797675,-0.09521906052940823
14:24,Monday,51.496109818610556,-0.10710035394819975
12:52,Monday,51.490533224956536,-0.11340399281757273
15:51,Monday,51.49177639213503,-0.11953033027138889
5:12,Monday,51.500077798027256,-0.09127112462416614
19:0,Monday,51.49770243109473,-0.09289018991870789
19:59,Monday,51.49595320027082,-0.0985678358469714
16:13,Monday,51.50458587133373,-0.10277936842378543
14:17,Monday,51.50308658598402,-0.11575202369635063
4:22,Monday,51.48969074065781,-0.09016778236903553
13:2,Monday,51.48993625941633,-0.09223222944505396
17:44,Monday,51.49245914776691,-0.11508183280235841
19:39,Monday,51.50546946358937,-0.10816083271611836
17:40,Monday,51.49099478880431,-0.09168395640126727
13:25,Monday,51.49002307314588,-0.11714059029656675
20:34,Monday,51.50702716402958,-0.1066724638635067
6:52,Monday,51.50518399006192,-0.08524632604075803
20:34,Monday,51.489961682527706,-0.10665540234816508
9:8,Monday,51.4953752650651,-0.08750245053474537
6:49,Monday,51.48828376906072,-0.09991191944000749
5:4,Monday,51.49244744135775,-0.08792250264558377
7:14,Monday,51.49182600801329,-0.0844712090434263
8:2,Monday,51.490110146291435,-0.10951976607831446
14:57,Monday,51.49163423379984,-0.10566389616915914
7:34,Monday,51.50534105800743,-0.1108155892825717
17:56,Monday,51.496960802338236,-0.10555689355951416
20:24,Monday,51.505829976013906,-0.11241367435760138
13:2,Monday,51.493618910814874,-0.09248344861177754
21:16,Monday,51.50287883052883,-0.09036096034167782
2:31,Monday,51.50669068959853,-0.09319854735896597
1:53,Monday,51.49338830834266,-0.11790034111443028
9:42,Monday,51.50066474978834,-0.08172219434329944
16:48,Monday,51.491814137671504,-0.10333323444990335
21:41,Monday,51.49605813125093,-0.10621613067370161
15:18,Monday,51.50352568570326,-0.09574938032761296
18:17,Monday,51.499457870486616,-0.10553128477303739
3:33,Monday,51.503130076395195,-0.09216973555589117
19:33,Monday,51.50316091609001,-0.09569798751279052
6:36,Monday,51.49631193980235,-0.08135086414567422
15:50,Monday,51.49865713122702,-0.09023524326049609
19:19,Monday,51.49775941239589,-0.08495016113112061
10:4,Monday,51.503985617588405,-0.10461048400498096
23:6,Monday,51.4918064207724,-0.11887817720882334
11:26,Monday,51.49553013601721,-0.09886696712487718
13:43,Monday,51.49312016549526,-0.11102576265911453
5:14,Monday,51.48897391351488,-0.0862037242311584
21:41,Monday,51.49926822847219,-0.1064062519342781
9:29,Monday,51.502989526034824,-0.1029357392485631
5:5,Monday,51.504985568516986,-0.082160659762832
7:55,Monday,51.49853642246167,-0.10906690412863106
16:44,Monday,51.49795278911247,-0.0981498686589014
2:33,Monday,51.50053494471878,-0.11747473524376362
10:13,Monday,51.502264960888546,-0.11736917864957837
17:31,Monday,51.49297114852833,-0.09426154137777523
6:44,Monday,51.4889823813907,-0.09010818384367143
17:31,Monday,51.504822001518626,-0.11357898668466757
19:40,Monday,51.490780556079464,-0.11069894227340603
16:41,Monday,51.499685861458616,-0.110078512029675
6:9,Monday,51.50496967995408,-0.10653046040199765
10:16,Monday,51.49500848173977,-0.10245463412419373
1:53,Monday,51.49135130704907,-0.08908576560941955
12:55,Monday,51.50338432516417,-0.0867151309841255
3:12,Monday,51.4976191449365,-0.11834210785821629
17:41,Monday,51.50173943314542,-0.09615421349589942
23:35,Monday,51.50119238534933,-0.1019636798890265
17:58,Monday,51.49101489725657,-0.08148869676562637
10:46,Monday,51.49705386004047,-0.11142667789648604
22:54,Monday,51.50177470557932,-0.11600561328797274
16:24,Monday,51.49051530073537,-0.09312238801985283
23:23,Monday,51.491697269824954,-0.09713157689837996
17:25,Monday,51.50449076091802,-0.09859412999499449
23:59,Monday,51.49779112876818,-0.08150315165093726
20:31,Monday,51.50449989596467,-0.08437518424072304
8:11,Monday,51.49188430707888,-0.08608924893504957
13:25,Monday,51.50576148102736,-0.08479357092881423
12:55,Monday,51.49552948799718,-0.09585059832428192
14:39,Monday,51.49392442649225,-0.11898334533501093
15:15,Monday,51.499020510848595,-0.10709899648124649
23:52,Monday,51.493506693384575,-0.08215410880387933
3:39,Monday,51.49140435894565,-0.10617292597150073
13:4,Monday,51.50537652444619,-0.10570903894051652
12:57,Monday,51.48875830837913,-0.10298647846975999
5:52,Monday,51.50383746146604,-0.10056276625462826
1:35,Monday,51.49940724064384,-0.11486036061179815
17:1,Monday,51.489417378178146,-0.10589467036171443
19:37,Monday,51.49855815795621,-0.11574170031656973
17:33,Monday,51.50249765685405,-0.08358890632198587
6:2,Monday,51.49917591144789,-0.08568973329713407
11:1,Monday,51.4945287083812,-0.11495499251616548
14:21,Monday,51.495473579712325,-0.1110574873895092
9:13,Monday,51.50266285966011,-0.11901622798701247
11:5,Monday,51.50343772298801,-0.11647367852304294
6:19,Monday,51.49780696173076,-0.1075270579183309
8:18,Monday,51.4982271467588,-0.09712878918835549
4:14,Monday,51.504497284260374,-0.11761295783924164
6:56,Monday,51.50018730767354,-0.10779362719039794
13:36,Monday,51.490448691499296,-0.10436169192222645
15:44,Monday,51.490867920847876,-0.11671761852732207
11:33,Monday,51.50538325211153,-0.10237527187966483
10:16,Monday,51.49577533825381,-0.08852816529937235
14:6,Monday,51.49932425174125,-0.10358183250046697
9:4,Monday,51.49905156977863,-0.08598818199485272
12:14,Monday,51.49852963723038,-0.1006045561154927
2:23,Monday,51.506934557937605,-0.10665300006454906
10:14,Monday,51.50699539902263,-0.11762831975836942
15:50,Monday,51.48960284935648,-0.0889800307706588
17:35,Monday,51.498620681657215,-0.09499273040866596
21:19,Monday,51.49460900910116,-0.11189123800592382
17:7,Monday,51.50327914303336,-0.10257666486101813
10:33,Monday,51.499827136337046,-0.08901743689814559
18:39,Monday,51.49324568767236,-0.1147054034458388
19:1,Monday,51.4926333399679,-0.10239451650842371
4:27,Monday,51.49459331193222,-0.10080062912530129
17:6,Monday,51.4927468463079,-0.11606657914714542
5:49,Monday,51.499488454476,-0.08606212740840252
17:46,Monday,51.49127301470788,-0.08803307970445462
6:23,Monday,51.490743002438435,-0.10555518837928286
4:24,Monday,51.50655197344397,-0.11915489191454534
5:24,Monday,51.505689768065096,-0.10608386765225106
0:20,Monday,51.49260787395918,-0.0811813977292487
3:35,Monday,51.503213248083085,-0.091258441243475
18:57,Monday,51.50454510612293,-0.09451914114349746
6:37,Monday,51.494820278564944,-0.11808817726635683
13:48,Monday,51.495866748694546,-0.11231682774713105
12:23,Monday,51.4946647272741,-0.09554465515822991
8:31,Monday,51.497905866184354,-0.1180005141832163
13:33,Monday,51.496281303233616,-0.08972969226251774
19:0,Monday,51.505732183067224,-0.09117947445806647
7:2,Monday,51.498458151750526,-0.10298017360354583
16:8,Monday,51.48852195257256,-0.11849933743463209
11:47,Monday,51.49244035320401,-0.08129114830068135
2:25,Monday,51.491052433311864,-0.1002489546765522
23:24,Monday,51.49506821749409,-0.08571445710403594
5:1,Monday,51.501844390535844,-0.11848219457734187
7:59,Monday,51.496032300342854,-0.11215407135047645
2:6,Monday,51.50181796236066,-0.08157428655277531
15:21,Monday,51.491153120802835,-0.09817023319201638
3:24,Monday,51.50306467895154,-0.10980068385934325
11:58,Monday,51.49271126770883,-0.09084729290879212
18:21,Monday,51.49729746428373,-0.11318765389796025
23:12,Monday,51.5065717175429,-0.09950733734695322
18:17,Monday,51.4984635391809,-0.10318623122999081
19:22,Monday,51.494475956000464,-0.11511415521408629
16:56,Monday,51.4908155708988,-0.08818064101334196
16:51,Monday,51.506942255627884,-0.0819195101689914
15:36,Monday,51.491110274969174,-0.11539796874085835
3:4,Monday,51.49563910644082,-0.10987582861018914
18:2,Monday,51.48940838199461,-0.10271780237329564
21:10,Monday,51.50696752770913,-0.1124311335912412
20:5,Monday,51.49713832179156,-0.10721890132530158
7:36,Monday,51.490161070824236,-0.10357939328366975
16:7,Monday,51.494753340051915,-0.08468006864051793
4:50,Monday,51.49838704368357,-0.09032493425925055
0:22,Monday,51.50125341716975,-0.09945977342648285
6:33,Monday,51.49895568328809,-0.09579670555964041
20:16,Monday,51.4913420166004,-0.09248230993482504
0:11,Monday,51.48863444132602,-0.10835093161475749
17:9,Monday,51.505837847095954,-0.09187160791754669
10:5,Monday,51.489120813549654,-0.11418348244716184
20:52,Monday,51.50125781825804,-0.08455516454346387
17:23,Monday,51.50596450287556,-0.09642769336164098
17:43,Monday,51.50386840159476,-0.09067475153460333
5:44,Monday,51.50554293301026,-0.11833237958621638
11:20,Monday,51.50235046449653,-0.1024688543102209
8:31,Monday,51.491724998525044,-0.0995354780744579
3:29,Monday,51.50515977304666,-0.09611921024717128
1:27,Monday,51.49940044246039,-0.09392732895202617
15:45,Monday,51.49978067671877,-0.09185888755712529
2:17,Monday,51.506782376398064,-0.09988135442619435
15:38,Monday,51.49742303323437,-0.09263495635409595
7:20,Monday,51.49016590451938,-0.09150608241720569
17:38,Monday,51.498525068131144,-0.1160239692697254
8:9,Monday,51.50523332618024,-0.08739525778199911
13:57,Monday,51.50270048786513,-0.10770878888091809
19:54,Monday,51.506609859631055,-0.08082992090742215
8:3,Monday,51.50642482745704,-0.1179028609620959
4:47,Monday,51.49258054086133,-0.09364628868618767
2:25,Monday,51.504096509294996,-0.08400530364924988
0:41,Monday,51.49807279540457,-0.0949640772341315
9:15,Monday,51.498838085470275,-0.094100998800869
0:50,Monday,51.5000963840413,-0.09808303700475479
0:14,Monday,51.48959348027781,-0.0829256961258992
21:31,Monday,51.504045761410794,-0.11213034051308932
8:27,Monday,51.50261747642363,-0.1079925864861221
18:13,Monday,51.50401379613821,-0.11126058248352354
19:12,Monday,51.50111754819006,-0.08485729587354611
20:32,Monday,51.497900411068656,-0.08681931238863322
22:28,Monday,51.48988996136338,-0.11509532733973525
16:58,Monday,51.49969419194051,-0.11167388615383642
18:19,Monday,51.495928705118715,-0.09501298965729432
9:0,Monday,51.4985745790317,-0.08397791280314847
8:18,Monday,51.49877987826378,-0.09898093535315193
2:56,Monday,51.497512358698984,-0.10997388290185134
20:15,Monday,51.489709603120794,-0.08364066083918477
23:2,Monday,51.49472839226984,-0.10416228167657525
1:44,Monday,51.49350301437474,-0.0982657702283142
17:58,Monday,51.49313322597783,-0.08265907286086671
20:26,Monday,51.50378152709715,-0.10180762970165243
14:40,Monday,51.50484471689097,-0.08441993083431296
15:38,Monday,51.50173446715573,-0.10052791839009054
5:42,Monday,51.50020526011153,-0.10626376332069348
12:36,Monday,51.50547704175592,-0.08421710217871825
7:24,Monday,51.506721092779365,-0.09145382424066989
15:32,Monday,51.50679422584939,-0.10153219542704325
4:11,Monday,51.49396942306737,-0.10912611279447297
0:18,Monday,51.50345746504585,-0.09105893329475526
13:27,Monday,51.490465603565426,-0.08950439657420933
17:56,Monday,51.49562463812683,-0.0887391938591369
15:54,Monday,51.505271547382314,-0.11884776515794068
19:6,Monday,51.50695177544542,-0.090977148035151
8:27,Monday,51.50110191673732,-0.08556315476001138
4:59,Monday,51.49733309683439,-0.09928691511894655
23:39,Monday,51.50529174981014,-0.08133909737830061
15:15,Monday,51.491312378512625,-0.10218568287558667
5:29,Monday,51.499796590446046,-0.08663632267339011
16:51,Monday,51.496616826427825,-0.08389356856395551
13:50,Monday,51.50179517428503,-0.0968969288434844
7:36,Monday,51.49827044889516,-0.09791334459288815
20:16,Monday,51.50651145394345,-0.0880296810721138
9:50,Monday,51.491374647318274,-0.08683564472155136
11:14,Monday,51.492725859148784,-0.08413969317135125
20:27,Monday,51.50388322029869,-0.09377678263310521
23:39,Monday,51.50454475458423,-0.10051958413838656
2:43,Monday,51.49388175182734,-0.10053641542394592
16:13,Monday,51.49199333881926,-0.100980142575348
10:11,Monday,51.50259235490429,-0.1193064429085839
15:41,Monday,51.49768118635327,-0.08764357156955332
18:18,Monday,51.496387682008745,-0.08825214427373096
20:56,Monday,51.48906686960836,-0.11154655629647713
6:34,Monday,51.493511439972465,-0.08677379910420893
5:24,Monday,51.496930158188846,-0.11692924158412354
13:38,Monday,51.499214792046395,-0.10010903865047785
3:21,Monday,51.49720115528144,-0.11895614016218486
7:44,Monday,51.50681153876086,-0.09050913612505829
15:8,Monday,51.49070976660562,-0.11650676838599412
5:43,Monday,51.493127082519855,-0.1134982583019891
8:40,Monday,51.49715262068619,-0.11640004650308214
3:11,Monday,51.49845506949134,-0.11920893135457755
21:10,Monday,51.504732983085255,-0.08897557091957277
20:9,Monday,51.490070633797814,-0.11911486064808198
18:4,Monday,51.490987383624876,-0.09917742216077995
5:12,Monday,51.498067521538985,-0.08798437090919703
19:47,Monday,51.503829010011216,-0.10224855786622557
13:19,Monday,51.49687560037131,-0.09025127165781477
20:32,Monday,51.498961129599316,-0.09916666685447265
1:40,Monday,51.49445661275195,-0.08617675889409519
18:22,Monday,51.491701851118215,-0.1107784231340115
1:21,Monday,51.50151235765789,-0.10575418038350136
6:7,Monday,51.495438451347944,-0.08326511015472728
7:47,Monday,51.49333032546818,-0.11388579648008333
2:31,Monday,51.50250175640935,-0.09538646536053752
6:27,Monday,51.502363201677944,-0.11246725371503954
19:55,Monday,51.503174795803865,-0.09538112830879363
21:17,Monday,51.49600092071726,-0.11078130576127249
2:14,Monday,51.488409508714604,-0.08518640278734321
17:40,Monday,51.50686410764786,-0.10378702467079853
14:18,Monday,51.488387075600016,-0.11889830251195416
15:40,Monday,51.4961035839505,-0.11482768947272587
5:28,Monday,51.48874274178267,-0.1033056635848005
6:46,Monday,51.5060704203638,-0.0831945916999903
3:40,Monday,51.490288561582055,-0.11419183033602505
12:29,Monday,51.49307551123605,-0.0912227598407866
20:15,Monday,51.50130409339485,-0.09300136068874093
11:42,Monday,51.493187120669084,-0.11484078349838527
14:49,Monday,51.50648517711156,-0.10871434526622743
6:41,Monday,51.49757293682643,-0.09186805290699494
12:33,Monday,51.49205142733168,-0.10443744525490989
3:32,Monday,51.49119798000693,-0.11187610171599958
16:52,Monday,51.496643192418624,-0.0919722091039879
16:19,Monday,51.50312202214964,-0.10586904410700604
22:11,Monday,51.50402774003665,-0.0976256736360465
6:10,Monday,51.495337508960056,-0.10969721162298715
10:24,Monday,51.49167741724585,-0.0926281616862873
14:28,Monday,51.50056358610225,-0.08814685516864788
3:33,Monday,51.49600402764318,-0.10049654032064641
3:6,Monday,51.48860411415524,-0.11739903368035669
17:26,Monday,51.50205409804704,-0.09437175025612818
1:28,Monday,51.494925859123924,-0.10474883764911723
5:59,Monday,51.497589041337996,-0.09001714866934082
14:1,Monday,51.4917037823738,-0.09146789216789059
22:55,Monday,51.498965945763096,-0.08446051678363017
2:27,Monday,51.49069554251595,-0.10861132643084481
14:18,Monday,51.502907621850035,-0.11712785700787025
23:22,Monday,51.492537259319334,-0.08628549916050507
1:26,Monday,51.501013631154734,-0.08361822247158368
1:7,Monday,51.48829005269307,-0.10877117159162439
20:26,Monday,51.50347944350506,-0.08744873530829948
23:51,Monday,51.50668935259191,-0.08477632768602358
3:32,Monday,51.49931805527151,-0.1091432434125463
23:50,Monday,51.48956359793029,-0.08410505619427104
9:59,Monday,51.498250667583896,-0.09453281442416445
12:38,Monday,51.49697990269432,-0.11038211674355673
5:49,Monday,51.50001628396591,-0.11157812356926058
15:9,Monday,51.502112061516925,-0.0934566150853983
3:30,Monday,51.489416453183125,-0.09586459957563348
21:41,Monday,51.50007654995433,-0.11247933248227467
4:47,Monday,51.50230848412995,-0.092134887932345
23:17,Monday,51.49147742801071,-0.08565812674630768
21:31,Monday,51.496580856067496,-0.1160711059486742
5:51,Monday,51.49320310328816,-0.11138503782351125
19:54,Monday,51.4982799051991,-0.09498695934819447
10:22,Monday,51.501598921545025,-0.10854456135434433
6:29,Monday,51.49233872894955,-0.09361538845237054
16:42,Monday,51.502169581017334,-0.10218449468073708
13:41,Monday,51.49986830690745,-0.08434017206329777
14:30,Monday,51.49057729138344,-0.11214469561375529
16:20,Monday,51.49127869365433,-0.10195535356862961
4:34,Monday,51.50060009804366,-0.11113185913960599
21:28,Monday,51.49653595216016,-0.0860279403641073
1:45,Monday,51.50703987509785,-0.09479770934629811
13:38,Monday,51.504031703307426,-0.11140968986370306
6:43,Monday,51.506722347607855,-0.09429997990801027
2:42,Monday,51.4929868392138,-0.09010420236844667
2:5,Monday,51.48944767145367,-0.09303364369400122
1:35,Monday,51.50430243939265,-0.11213143957529058
5:32,Monday,51.503215095565565,-0.10490989423058593
16:13,Monday,51.497665293529835,-0.115937371448402
19:2,Monday,51.495519213024856,-0.1171143347519236
5:7,Monday,51.50606112303853,-0.09329059702520083
2:27,Monday,51.50238200847722,-0.11171730237634156
10:30,Monday,51.48979944233027,-0.11425075213816957
2:0,Monday,51.48885846971645,-0.09942663995826634
11:26,Monday,51.490469808416115,-0.08400877316140488
21:11,Monday,51.489092790924744,-0.11926858185912707
20:34,Monday,51.49206627007953,-0.09112752999364587
13:48,Monday,51.505522475052835,-0.09508701550765448
9:45,Monday,51.50638427559066,-0.11433111265668501
1:13,Monday,51.50158483295528,-0.08340961448701423
17:36,Monday,51.49296273904746,-0.11451261896898843
11:42,Monday,51.500754673107984,-0.11679238857350221
2:40,Monday,51.490611639646836,-0.1164061513028366
15:25,Monday,51.49929912278233,-0.096069083479076
10:16,Monday,51.4918203342688,-0.08150008048066189
17:28,Monday,51.49355299470724,-0.09176938509161751
18:48,Monday,51.50411181200019,-0.110332282793198
23:41,Monday,51.49595017847593,-0.10715900165619638
5:42,Monday,51.49889043652338,-0.08287185973050165
11:5,Monday,51.50448352477672,-0.08689295940367647
8:57,Monday,51.50042206433618,-0.09576289401185181
1:38,Monday,51.50447718647203,-0.10363496878587668
13:4,Monday,51.502605655103004,-0.09748938622178023
20:49,Monday,51.50227805629263,-0.10502580593360965
9:8,Monday,51.49741959166889,-0.10159965060773622
1:36,Monday,51.492342723501885,-0.11527217869402225
9:49,Monday,51.49199083080571,-0.10454537495963868
10:47,Monday,51.49960148777794,-0.08708093804206543
22:55,Monday,51.49966520412913,-0.11322003863712855
16:21,Monday,51.497171845097284,-0.10013452417571772
1:9,Monday,51.492655117090145,-0.08715029595585154
17:7,Monday,51.50705825740688,-0.1115563103693989
22:20,Monday,51.49100810319522,-0.09357233851747086
14:1,Monday,51.49785197742887,-0.10398431467982852
4:46,Monday,51.488644879560766,-0.08574778602557268
0:37,Monday,51.49818733144921,-0.1049905370299938
1:49,Monday,51.495279667112314,-0.11022005614390694
14:55,Monday,51.49310463623152,-0.09107988317222775
13:54,Monday,51.50408235227807,-0.10570652396700633
12:35,Monday,51.49472342202745,-0.09927037445833772
9:19,Monday,51.50453736222569,-0.11916785163116476
14:43,Monday,51.49670103636122,-0.1042504075408996
19:16,Monday,51.5030756726943,-0.1181638166182441
15:8,Monday,51.49500257749016,-0.10042203993669228
9:50,Monday,51.504875789841634,-0.09459584829751462
0:5,Monday,51.50230011789067,-0.10127985612273536
4:11,Monday,51.50321455713676,-0.09311212673206039
12:8,Monday,51.50358604684204,-0.11950369184747855
5:13,Monday,51.49816493901446,-0.08356429349627191
1:23,Monday,51.50496364526021,-0.11813768134297788
18:14,Monday,51.498582404961276,-0.10760437304713202
12:50,Monday,51.4929902797764,-0.11209260236773831
5:0,Monday,51.488685361020785,-0.11903952530065812
12:11,Monday,51.50699553590569,-0.11320468142522606
5:6,Monday,51.497143753291446,-0.10426707058326212
17:6,Monday,51.49640171149705,-0.09585626899576638
23:14,Monday,51.49471177479881,-0.09640996593063877
15:8,Monday,51.50461170098251,-0.10799375555852443
1:31,Monday,51.4936371024639,-0.08664637346541362
5:11,Monday,51.502525427373584,-0.09881966026433313
10:9,Monday,51.49633894603935,-0.11544043785087701
18:21,Monday,51.4967254886302,-0.09645851191851636
18:9,Monday,51.490806708029055,-0.08350466163449469
2:34,Monday,51.50233469704405,-0.09135692230160825
18:47,Monday,51.48948847984505,-0.1133426122927094
7:36,Monday,51.501647227905835,-0.09353049784897874
13:46,Monday,51.50106049903942,-0.11480180894709524
7:1,Monday,51.50593028004804,-0.08209597737115865
15:27,Monday,51.50405723424126,-0.11386081274591951
13:59,Monday,51.49404676668949,-0.08533032577827371
7:56,Monday,51.489249420617064,-0.11562150136680326
21:51,Monday,51.50199340814678,-0.11120046232162677
8:54,Monday,51.50483165319324,-0.0809926973470799
2:49,Monday,51.50255880796467,-0.11795323792058297
18:19,Monday,51.502922137652,-0.11814213092984958
8:43,Monday,51.499738329970434,-0.11285837122493066
12:33,Monday,51.49586181061073,-0.09666892840352027
1:13,Monday,51.503205957258736,-0.11881095578142412
5:23,Monday,51.50269663509013,-0.10413175143878141
23:36,Monday,51.50646290619299,-0.09836294654440919
1:21,Monday,51.489682630647486,-0.11116956023237426
6:14,Monday,51.505009986173704,-0.10642832736178091
6:40,Monday,51.493907942481854,-0.10644108335426117
5:36,Monday,51.489496670496365,-0.10834173953688614
19:41,Monday,51.49027947991479,-0.08238743322251686
8:32,Monday,51.48864058443944,-0.10335088634049705
21:37,Monday,51.49745290841809,-0.0877675072605594
22:10,Monday,51.496099587026926,-0.08311632196050893
7:14,Monday,51.48977235599653,-0.09580052764915624
5:19,Monday,51.5012858753332,-0.10548550868220469
10:30,Monday,51.49814994218951,-0.11725938925365145
9:46,Monday,51.50197171741821,-0.08129751548310803
5:5,Monday,51.50297871538808,-0.09969459631375592
9:8,Monday,51.49445836718079,-0.08931271618832978
9:41,Monday,51.49474571995166,-0.09011412405337063
23:45,Monday,51.503158333851566,-0.09238024750522851
23:51,Monday,51.49854402407835,-0.10564869685454638
17:46,Monday,51.49126217137143,-0.09564299318689486
15:18,Monday,51.505771354456115,-0.0973887460161602
8:37,Monday,51.50653706539069,-0.09525528689480527
3:39,Monday,51.49155480291859,-0.11884089924189592
1:31,Monday,51.49476097775724,-0.11480567418595133
14:0,Monday,51.50161631083379,-0.08699564044790993
10:43,Monday,51.506678616261595,-0.09633263826298652
15:14,Monday,51.501075385888704,-0.10828911848891651
14:35,Monday,51.497211117348954,-0.09586059346333443
0:26,Monday,51.49303253072405,-0.11590397827830379
21:8,Monday,51.49195555838453,-0.09830052496053193
5:5,Monday,51.5019763031515,-0.08688263671178477
21:12,Monday,51.502383820952566,-0.10140758484525106
3:58,Monday,51.49747204929337,-0.09761921108167865
4:28,Monday,51.49641260707431,-0.10055447331178968
19:52,Monday,51.506236134581,-0.1173103634745532
16:59,Monday,51.48862021667867,-0.09018566871836978
9:21,Monday,51.50283940680888,-0.10725329525319724
10:17,Monday,51.49236738529074,-0.1192634615663957
6:49,Monday,51.489635106163085,-0.11905361088035966
14:10,Monday,51.49233823855033,-0.09672604874531845
4:22,Monday,51.49823410738836,-0.11691676094768123
4:26,Monday,51.50461734168835,-0.1165903143285153
8:12,Monday,51.48861734408216,-0.08990592027823856
12:23,Monday,51.505105068269884,-0.10720664799501745
2:41,Monday,51.503560178266646,-0.1093858695898837
16:45,Monday,51.49356778509681,-0.11871701068045706
11:42,Monday,51.4970170599853,-0.11233572878714605
20:5,Monday,51.499137747797334,-0.11006391123956802
19:26,Monday,51.492636994407434,-0.09597632425314162
11:5,Monday,51.49014824962578,-0.10525445132815679
9:26,Monday,51.49401162246354,-0.11931827065020717
1:10,Monday,51.492240259413,-0.10000789793879698
17:24,Monday,51.5052973683614,-0.11868176046207213
17:28,Monday,51.50667955337916,-0.10225196493279369
12:4,Monday,51.50385697036166,-0.10851969734945752
16:3,Monday,51.496627420680575,-0.10384730669583644
5:15,Monday,51.50116875539935,-0.08158259554614827
0:26,Monday,51.49584294612955,-0.11974862025146563
9:4,Monday,51.4906405595772,-0.09754861071542377
8:19,Monday,51.503797773550126,-0.09987835017876448
12:19,Monday,51.501917874846974,-0.08800602714555668
20:9,Monday,51.5057468952177,-0.08228341209885656
14:6,Monday,51.49913494449966,-0.11279246828456094
19:15,Monday,51.496457187651764,-0.10209129332741466
10:17,Monday,51.49327601179577,-0.11968082268963619
14:23,Monday,51.50679381979232,-0.09434459423605113
11:11,Monday,51.503164890593546,-0.11527800349853448
21:28,Monday,51.489413556099834,-0.11243346469774737
6:55,Monday,51.49710630291023,-0.09421569890551776
9:54,Monday,51.49297853260937,-0.1114511355641816
14:2,Monday,51.50088275349563,-0.09540067511105516
9:25,Monday,51.49150122080725,-0.11496469172035938
5:19,Monday,51.50455319861805,-0.09693658358591592
13:12,Monday,51.495889097046664,-0.11041653151188612
4:45,Monday,51.502801990373236,-0.0891604388217492
10:33,Monday,51.49759571296742,-0.11432815469419416
11:15,Monday,51.50514612205112,-0.09433858580498376
0:13,Monday,51.50116645206218,-0.1189454698795643
13:57,Monday,51.49815112216861,-0.10972888132144792
2:47,Monday,51.50413378704857,-0.09245469808351695
22:54,Monday,51.50598613508732,-0.0934387611979332
12:11,Monday,51.50159241740193,-0.08547360981611243
10:41,Monday,51.492450708271285,-0.10638500494509308
20:26,Monday,51.49345140439316,-0.09385537297897355
13:9,Monday,51.49125201327019,-0.09238537550054869
17:52,Monday,51.49912803272018,-0.1111552517785244
12:19,Monday,51.497189190529134,-0.08115670391597143
21:3,Monday,51.490413436339864,-0.11832747700649247
0:55,Monday,51.49252865931008,-0.10965651354052602
20:59,Monday,51.498408697915494,-0.11099725496067314
10:19,Monday,51.501597999859314,-0.1076288336036834
18:52,Monday,51.488436190342405,-0.11634306227156646
5:44,Monday,51.49561018995726,-0.08109074306843979
15:55,Monday,51.50419359959637,-0.10642514165660989
14:40,Monday,51.48833774953699,-0.09854969675286315
14:14,Monday,51.49713392421554,-0.11971236003837508
4:41,Monday,51.50396171676878,-0.09788909866049977
12:8,Monday,51.5036525697732,-0.1167346250765521
6:40,Monday,51.49173203701382,-0.10802291554747127
21:56,Monday,51.49131906738944,-0.11317579003548366
16:50,Monday,51.5042438085582,-0.10695023148282291
19:57,Monday,51.50365518391074,-0.10561393351767445
4:21,Monday,51.50041387462109,-0.11360278617922019
14:12,Monday,51.494138521118174,-0.0979022446125777
7:20,Monday,51.50539813770486,-0.11285326162777448
14:58,Monday,51.49804832191183,-0.08126109346429856
7:19,Monday,51.50577148323214,-0.0934239775590184
3:11,Monday,51.49376679561315,-0.0812894953266555
11:56,Monday,51.49432525761342,-0.10660015333034578
5:20,Monday,51.493288906275396,-0.08268029302582926
14:51,Monday,51.49088187301024,-0.08717043156515744
0:40,Monday,51.49557578638609,-0.101972723474847
21:39,Monday,51.49590992322186,-0.10498284715403416
0:2,Monday,51.5067601712484,-0.0973954333726001
5:57,Monday,51.49792177464712,-0.11009849424740588
12:23,Monday,51.50575395919024,-0.0879617044184767
1:4,Monday,51.50020317371676,-0.11396358061795418
10:36,Monday,51.48977850754879,-0.11961229608061406
14:52,Monday,51.493328624418396,-0.0857391815137479
13:34,Monday,51.49631693702741,-0.11719112754238273
1:16,Monday,51.49612310616507,-0.08907457257136106
13:51,Monday,51.49350175182659,-0.08339506972862173
7:33,Monday,51.49822416425454,-0.08629365391979069
21:32,Monday,51.488621565848476,-0.09892291501674169
12:13,Monday,51.49041134712158,-0.09085256102943512
11:28,Monday,51.494005324698826,-0.10292218520394142
1:9,Monday,51.49570878361805,-0.09391711911771639
23:19,Monday,51.49950220601975,-0.0818787785035152
6:27,Monday,51.49087583867191,-0.09764736663117493
1:11,Monday,51.49802912259206,-0.09371863294220376
10:25,Monday,51.50285135689942,-0.09530797789013337
12:11,Monday,51.488336053505805,-0.11562019387158276
11:56,Monday,51.49990151981762,-0.08131155266807645
9:21,Monday,51.49323046726166,-0.11309912358017984
9:29,Monday,51.502725946545304,-0.08116115704743251
3:8,Monday,51.49128078574307,-0.11627344194820047
0:36,Monday,51.49579636882666,-0.08542934150594692
10:10,Monday,51.50073771045639,-0.09382861962978783
20:59,Monday,51.50371166401473,-0.09648864872011938
18:22,Monday,51.50688647196407,-0.08667092996672474
18:39,Monday,51.496833614773955,-0.08934014861516178
1:37,Monday,51.49190859764001,-0.11333292808352981
11:11,Monday,51.4925952198187,-0.10855933676671382
18:2,Monday,51.49175014395569,-0.11361896894004672
11:56,Monday,51.50181015019929,-0.09654829555206643
4:55,Monday,51.5011175559514,-0.098926407173344
20:45,Monday,51.501874343715706,-0.10125171734306836
17:5,Monday,51.49351913614639,-0.09267360790385076
8:3,Monday,51.4949918958751,-0.08157550139972056
17:24,Monday,51.49011249327703,-0.10486276540757941
3:8,Monday,51.48980464339377,-0.11785558551002463
13:40,Monday,51.490816468419254,-0.09276330094652552
12:43,Monday,51.494161452213916,-0.08986043268335908
3:7,Monday,51.50236631392068,-0.10422427810671914
1:15,Monday,51.49962632673311,-0.11183254664190928
10:25,Monday,51.50645054552246,-0.08114417568929902
2:15,Monday,51.49171222716,-0.11549937597477108
3:34,Monday,51.499466540643745,-0.09971818858254519
7:22,Monday,51.500059155302544,-0.10390386379632718
1:9,Monday,51.50344066357626,-0.10733824654909338
4:26,Monday,51.49243736346771,-0.11956436184936257
11:7,Monday,51.489606822493805,-0.08588029848515696
18:57,Monday,51.49674551306806,-0.09321131127973145
22:45,Monday,51.49631733442412,-0.10801390826219433
14:39,Monday,51.50702543872865,-0.08674663289968532
22:32,Monday,51.50567384882981,-0.10850028037467788
21:35,Monday,51.49814680799641,-0.08475449061746587
5:11,Monday,51.492619668072635,-0.09147510314317903
20:23,Monday,51.50151551400553,-0.11971313636634746
13:14,Monday,51.500488297690595,-0.11920382433126742
23:39,Monday,51.49480599528329,-0.10786061773147934
10:31,Monday,51.50548203780312,-0.11883857615180655
19:18,Monday,51.491017498212244,-0.08686659807576186
7:14,Monday,51.49777844266211,-0.10377926709112956
3:46,Monday,51.49560548645642,-0.113940649979977
12:54,Monday,51.50652595745651,-0.08876488525793014
2:46,Monday,51.50323645141266,-0.10651493481392199
17:31,Monday,51.5054887269644,-0.11610330367374924
22:43,Monday,51.49179638256018,-0.11825073832319478
5:51,Monday,51.50602782648188,-0.1172686479726543
4:38,Monday,51.49916280116006,-0.10418345231625792
4:24,Monday,51.50147335240639,-0.09318135947352173
10:21,Monday,51.49980062823931,-0.09521205871053173
19:40,Monday,51.503930419887475,-0.11599298962990065
17:6,Monday,51.493922671298655,-0.09880389854909333
1:52,Monday,51.50480226963572,-0.10307720987890129
1:37,Monday,51.49213989471954,-0.11499632297847584
2:25,Monday,51.50642266051564,-0.11058456780817481
17:10,Monday,51.497456335948485,-0.11006957934765575
18:52,Monday,51.49599705928801,-0.11477996385377101
3:40,Monday,51.49601001663671,-0.11197983881036724
16:9,Monday,51.4908668078564,-0.10423236480363358
13:13,Monday,51.498678328910174,-0.11819493803417813
5:16,Monday,51.494261164183584,-0.09128615448414538
3:15,Monday,51.49633400295583,-0.08201569828411824
22:36,Monday,51.502241655953036,-0.08825389966804002
1:45,Monday,51.507016822606694,-0.10802477221718598
7:48,Monday,51.5051701451629,-0.11937254020772937
12:6,Monday,51.506607004291055,-0.09025901229727795
12:0,Monday,51.50573342909039,-0.10082884755750542
4:52,Monday,51.501198449381064,-0.08119987293382112
14:56,Monday,51.49155344999793,-0.09128245945923513
15:45,Monday,51.50590123216061,-0.08724858971408589
18:36,Monday,51.506006089493084,-0.11571795132629793
5:37,Monday,51.489323428944964,-0.11514438477741372
3:30,Monday,51.498193726936556,-0.11216373970477823
1:15,Monday,51.49398894194488,-0.11983501741732731
9:7,Monday,51.49735880454351,-0.0824244833871291
19:14,Monday,51.49280578239779,-0.10508047114826745
22:43,Monday,51.48969182414139,-0.11928921716265858
7:56,Monday,51.49974507703613,-0.0917843642851337
14:26,Monday,51.49704830177677,-0.10525613062570834
6:55,Monday,51.496821753917416,-0.1073524511214519
15:58,Monday,51.50597462790365,-0.09768198045931636
19:4,Monday,51.50582418775006,-0.08264827303555543
16:56,Monday,51.49647740622615,-0.10141023759472081
16:53,Monday,51.5067908251094,-0.11910497225769417
23:21,Monday,51.49615689538109,-0.10724669439027264
3:14,Monday,51.49224815468455,-0.1072337741108391
12:26,Monday,51.497601167172824,-0.08255270713882032
6:59,Monday,51.503507385795245,-0.11893653193017666
10:29,Monday,51.50401164230459,-0.08105572057193569
15:9,Monday,51.500465330370794,-0.08231405093700993
16:33,Monday,51.50411887511333,-0.09396286307488019
6:28,Monday,51.49540578464554,-0.0917963909355364
19:28,Monday,51.48986271697004,-0.09286137388859585
3:48,Monday,51.49020813298054,-0.11097082339493479
19:56,Monday,51.494229119475456,-0.1172392490366848
21:44,Monday,51.50444619694955,-0.11424079597017178
22:54,Monday,51.4905425489013,-0.10761708059149269
4:12,Monday,51.502623929109966,-0.10297299437566865
11:3,Monday,51.4929019735307,-0.10482248827717007
0:32,Monday,51.50531546608914,-0.11808672285423757
22:34,Monday,51.48926573776248,-0.09331882769140401
16:56,Monday,51.49565657809467,-0.09104338620623223
11:59,Monday,51.506773938122834,-0.11463944144319019
3:50,Monday,51.49477184307055,-0.09666144665979598
10:23,Monday,51.50660154188067,-0.1134187346625273
0:42,Monday,51.49295880589116,-0.09027121402461219
12:45,Monday,51.49120845274317,-0.10144391609644156
19:39,Monday,51.49897020676918,-0.09963834845037943
19:22,Monday,51.495031592372165,-0.08688328428531794
18:27,Monday,51.49896501003355,-0.0872048268659562
23:11,Monday,51.48983315968299,-0.1091897664281582
14:18,Monday,51.50045268303826,-0.09829411839505507
22:37,Monday,51.493387311552404,-0.11850957252835856
10:19,Monday,51.49308989531615,-0.10799101097196746
5:42,Monday,51.50420874414026,-0.08963559772706207
4:46,Monday,51.49352107221775,-0.10551240317144442
2:54,Monday,51.49479252575679,-0.09966368083873656
13:34,Monday,51.494420816806354,-0.10625574259976817
17:55,Monday,51.49002777334078,-0.10825152155720526
2:38,Monday,51.50056851308385,-0.11733888864996526
9:49,Monday,51.48883352205665,-0.09316915275428325
11:17,Monday,51.4994071122662,-0.11465960693447315
8:17,Monday,51.48885355992001,-0.10237024821129403
17:58,Monday,51.50245026671094,-0.0991683855366334
3:13,Monday,51.501971696086414,-0.08958302052617192
10:21,Monday,51.488522524738805,-0.10135965794411575
11:41,Monday,51.49438464259613,-0.0840091238988527
13:54,Monday,51.49530345833737,-0.08486902829483015
22:4,Monday,51.49143825009303,-0.09257753194082141
4:26,Monday,51.496061001399745,-0.11817761541582317
17:47,Monday,51.49460692134033,-0.08980697119557503
6:37,Monday,51.49263584298859,-0.0880709549239796
7:55,Monday,51.495717841193496,-0.10711293439347129
22:58,Monday,51.49682089584937,-0.10028272116862566
9:29,Monday,51.4902972733222,-0.0941462314733911
15:21,Monday,51.50462776666721,-0.08155293688560548
15:29,Monday,51.49059750683011,-0.09601237155854513
7:32,Monday,51.49948022935996,-0.09383778425681501
1:9,Monday,51.505712469436396,-0.11585041749860624
15:25,Monday,51.50538020477044,-0.10440399334104429
0:36,Monday,51.488602872733665,-0.11068263431139522
0:42,Monday,51.500489762270654,-0.10174052484536683
21:35,Monday,51.49495197883823,-0.11860948433285051
5:23,Monday,51.49558246021495,-0.09203791680569184
9:59,Monday,51.506283002202,-0.11550747118930542
7:17,Monday,51.49846675963424,-0.11757647515498729
7:16,Monday,51.496018067704014,-0.10041594816078281
6:46,Monday,51.489940094956744,-0.09442209993417439
18:14,Monday,51.495674741558815,-0.09053138431798831
12:38,Monday,51.4978753967716,-0.08755254456018394
6:26,Monday,51.49539216267467,-0.11636466792664518
16:48,Monday,51.48898390744223,-0.08633665503526877
15:24,Monday,51.50304578560565,-0.08125733070969285
18:48,Monday,51.49227534754028,-0.115949487690362
16:49,Monday,51.49350606963645,-0.09262565398154429
17:22,Monday,51.49113671176692,-0.08242992965345608
6:33,Monday,51.49399022459134,-0.1081956841744398
8:35,Monday,51.50701194213183,-0.11124542659769976
1:31,Monday,51.49561881775702,-0.09184085454419366
13:22,Monday,51.50492069065603,-0.08358605763884683
12:41,Monday,51.50177358185057,-0.09152873173014145
14:39,Monday,51.49610142786014,-0.09644844273693293
14:16,Monday,51.49837509700825,-0.10480888734665622
2:29,Monday,51.490812113901484,-0.08569652816756768
20:45,Monday,51.49004650003388,-0.1114230375071742
3:14,Monday,51.49684774919606,-0.11636981986549544
19:55,Monday,51.5037255445094,-0.10914133645436985
4:46,Monday,51.498601780082154,-0.09581663404010508
5:45,Monday,51.497737093450866,-0.10758735912255217
17:10,Monday,51.49352622000373,-0.09956068166897544
18:50,Monday,51.50604776044587,-0.09634279799745979
18:49,Monday,51.48881605526955,-0.09961684020199006
7:48,Monday,51.50459553256183,-0.11360738875489673
15:52,Monday,51.50399389733986,-0.10036653515178065
13:6,Monday,51.49924434363,-0.08526878683323752
5:46,Monday,51.493246933560776,-0.11880760716736283
2:18,Monday,51.49667813054021,-0.11635660863725701
2:55,Monday,51.50073834803573,-0.10460397849864497
2:16,Monday,51.49152078213785,-0.08903331580324811
6:9,Monday,51.49476346232496,-0.08795474648506461
7:7,Monday,51.49794793368062,-0.10920203758983396
22:30,Monday,51.50648377093598,-0.10534173211034027
21:40,Monday,51.48885874073519,-0.11710796863625189
3:38,Monday,51.50291516491018,-0.0872582266669554
3:41,Monday,51.50561030967574,-0.10898336449072121
11:40,Monday,51.50266952923316,-0.10263546309616199
11:7,Monday,51.49233486067712,-0.10033470252780959
23:25,Monday,51.50403028946861,-0.11386999816238771
11:7,Monday,51.49411955724007,-0.10630207839515901
15:57,Monday,51.50328585244138,-0.09536085874937528
10:26,Monday,51.49759686890541,-0.11130715881945005
13:50,Monday,51.49344505808515,-0.08347615679062262
11:57,Monday,51.49845933585102,-0.10951809694045268
1:48,Monday,51.50100327476848,-0.10602813805208003
20:40,Monday,51.498617582241074,-0.10338454121688481
1:55,Monday,51.50330152433699,-0.11384757304563335
7:42,Monday,51.50295019790985,-0.10976004656206077
5:32,Monday,51.504228124154196,-0.09012024517669262
8:36,Monday,51.49295803754006,-0.11770693989084438
10:13,Monday,51.50295405578146,-0.10039354196502265
21:40,Monday,51.49159993335639,-0.10324607803343924
16:38,Monday,51.49516787775741,-0.0821095094589614
4:15,Monday,51.49156385456003,-0.08721689801742658
6:17,Monday,51.50331542678762,-0.08971692149845306
15:56,Monday,51.50434949228039,-0.10789164255222324
17:37,Monday,51.492542639167155,-0.10902353110182493
1:45,Monday,51.488495254275435,-0.09592700816868305
15:13,Monday,51.490538870828324,-0.1023307233473655
23:1,Monday,51.496758805021116,-0.10492718510948543
11:27,Monday,51.50052320625754,-0.10293466592646332
12:37,Monday,51.49698204064116,-0.09167602270375205
10:33,Monday,51.50222255122528,-0.09103298107264321
8:45,Monday,51.50215464921504,-0.08516661264554173
2:40,Monday,51.49401804318646,-0.08756559455785871
12:40,Monday,51.500854775633734,-0.08500570692800992
23:38,Monday,51.498788245227644,-0.09783168857495254
1:40,Monday,51.502979324853115,-0.08888259464520223
22:27,Monday,51.49442696973054,-0.11795112792307048
7:17,Monday,51.498252362055375,-0.09880883115012508
17:12,Monday,51.48862248307748,-0.1187345762832464
0:58,Monday,51.50438037560075,-0.09208603082381027
8:34,Monday,51.498893678130806,-0.08720431881083135
15:47,Monday,51.49095931867674,-0.11579984108925107
17:23,Monday,51.505138996758184,-0.11278356585375307
12:30,Monday,51.491694272776684,-0.09300447415997239
18:56,Monday,51.495606108437556,-0.08619181746681948
2:50,Monday,51.50169658058822,-0.11828571055904352
23:57,Monday,51.49941446717049,-0.09619760471034478
8:28,Monday,51.502050863651355,-0.11513483880314301
17:45,Monday,51.502144073194714,-0.10007699897467379
1:36,Monday,51.49287685833734,-0.10608500673832572
3:8,Monday,51.504190987128084,-0.09473392800029443
4:36,Monday,51.49205973226657,-0.10293693909079259
14:49,Monday,51.50551324996265,-0.0987429119349646
3:36,Monday,51.50329844506909,-0.10456574087766327
15:11,Monday,51.492417623813836,-0.11085289013152369
10:45,Monday,51.49929204671068,-0.10909740969528167
13:44,Monday,51.50306888825343,-0.11097333402886758
1:26,Monday,51.4984480954243,-0.08196373179296873
16:15,Monday,51.4928737285369,-0.08978794596554761
21:27,Monday,51.50700592809333,-0.10292188025207359
8:8,Monday,51.489645096565965,-0.11183961125823962
21:31,Monday,51.503750750430825,-0.08507330504581193
7:54,Monday,51.495250206332855,-0.1144272290925905
18:36,Monday,51.50471080470932,-0.08693805059068864
17:54,Monday,51.49696175470535,-0.11404317078498988
17:40,Monday,51.493916275492005,-0.1025696779893724
2:36,Monday,51.50055162858291,-0.09412715743629729
3:30,Monday,51.501970954010226,-0.1127499348751181
22:34,Monday,51.503242497268964,-0.10658837683646998
10:4,Monday,51.48952622689822,-0.0809546898998254
19:57,Monday,51.49660479239387,-0.08943802639242278
2:44,Monday,51.504107648875525,-0.1083589784711359
11:33,Monday,51.4958064537074,-0.09598521430491956
16:35,Monday,51.493246687071355,-0.09436975398926331
3:51,Monday,51.49528120802842,-0.11740730054969177
3:17,Monday,51.503942204342664,-0.11293702545839757
19:0,Monday,51.48856795547335,-0.08973975657119153
12:39,Monday,51.49876028892634,-0.10286052139899346
23:11,Monday,51.493639503812396,-0.11131499787202126
11:7,Monday,51.489094395858494,-0.08773607648864759
4:8,Monday,51.49353776015705,-0.10690340985218336
22:21,Monday,51.49307798889147,-0.08109591116025561
19:6,Monday,51.49029609447301,-0.09510198835266548
14:31,Monday,51.50369880079274,-0.11851214594642234
9:1,Monday,51.49566585844023,-0.10389760457303047
