16:28,Monday,51.49903988578943,-0.09550430214252265
6:14,Monday,51.49277957704495,-0.11256148385019822
19:3,Monday,51.501151574018934,-0.0880435402029984
12:23,Monday,51.505443448845064,-0.08693124065686889
14:41,Monday,51.50587730567782,-0.09209231649690333
9:15,Monday,51.49673931192,-0.11812637928077643
5:51,Monday,51.49801085309532,-0.11040778944219255
23:59,Monday,51.50162758847519,-0.11053499238828723
0:44,Monday,51.49919132520729,-0.11162578317608314
19:15,Monday,51.49794230915636,-0.09498604198506175
17:27,Monday,51.49600818943455,-0.09161655221116244
23:49,Monday,51.50085521719428,-0.11457062810221394
16:1,Monday,51.499693548394895,-0.09587927973048044
2:10,Monday,51.505524098405395,-0.08368684687281987
7:1,Monday,51.4888773987876,-0.08123385643915895
18:29,Monday,51.49119841140935,-0.0984975233142674
21:18,Monday,51.49122589671899,-0.09472684772367543
19:6,Monday,51.495090867515046,-0.08505660712422072
3:39,Monday,51.4952161725466,-0.09649272874556819
16:33,Monday,51.50193466848254,-0.0846585430117936
2:19,Monday,51.488341090443484,-0.08203152840983693
22:53,Monday,51.48949302462622,-0.08108717150655635
8:29,Monday,51.50396372859007,-0.10358343800445108
12:5,Monday,51.489298800404086,-0.08204598518808753
9:1,Monday,51.496881313464826,-0.08277714754212544
11:29,Monday,51.49059201117359,-0.08865994678380537
6:1,Monday,51.48874191563415,-0.08195981319512761
22:14,Monday,51.50492930638296,-0.08415605235089703
17:40,Monday,51.50032504077897,-0.11056882462818937
10:59,Monday,51.50614855082592,-0.0881040752555419
14:50,Monday,51.505129960557824,-0.11382869639238957
14:52,Monday,51.49105737955841,-0.09128327699184594
12:23,Monday,51.49036517273582,-0.10229362849420803
23:37,Monday,51.498896140851194,-0.11292739533892343
23:50,Monday,51.49945839790925,-0.10215263130106493
22:59,Monday,51.49048033614301,-0.10831894957254479
1:54,Monday,51.49398590896268,-0.09348505282915111
23:1,Monday,51.49877656242818,-0.08883808139064286
23:50,Monday,51.491824967301326,-0.11556925520101416
19:27,Monday,51.494141832871016,-0.11407894838029817
6:58,Monday,51.49970136611732,-0.08649212319902162
4:5,Monday,51.497175595269546,-0.11139117876448762
19:35,Monday,51.49276583161684,-0.10450246794269615
19:43,Monday,51.50289627900298,-0.08691617642360927
5:48,Monday,51.50586438306765,-0.09022644175773678
13:52,Monday,51.498234396766186,-0.08122694895458712
15:46,Monday,51.49959532385418,-0.09651235795598553
3:44,Monday,51.493259176246234,-0.11671056992624315
3:13,Monday,51.50486646495762,-0.10919414211740082
11:35,Monday,51.4984281108526,-0.11534836014010676
11:10,Monday,51.493739144447,-0.09547487777554287
1:33,Monday,51.497607841830266,-0.10627649347859416
22:15,Monday,51.49784156083239,-0.08519204582366047
15:56,Monday,51.49768166463694,-0.08545963293463002
20:55,Monday,51.502729584765454,-0.09555450970833251
23:57,Monday,51.49155739626072,-0.11858180292935125
5:12,Monday,51.49124244715594,-0.09212716333405663
22:9,Monday,51.502251212149126,-0.11948230553938691
22:31,Monday,51.50612208818265,-0.11900538803120674
19:9,Monday,51.496395907570914,-0.0870329047794238
9:34,Monday,51.494495537198326,-0.11839981993875312
16:34,Monday,51.50630036049711,-0.10427636738898506
4:16,Monday,51.5044763834308,-0.10359626095324011
10:35,Monday,51.492429904886215,-0.09720981949454101
2:15,Monday,51.491364930109285,-0.10213305887993998
10:52,Monday,51.49191415233741,-0.10522992859345806
6:39,Monday,51.49121600621654,-0.09933536195973501
4:34,Monday,51.49612403974005,-0.10892443265591478
21:21,Monday,51.501846827219495,-0.11155047586131525
5:36,Monday,51.50473973912595,-0.09545914918613109
13:42,Monday,51.4892961883562,-0.10138926952479523
16:32,Monday,51.49248315659565,-0.10515398201079697
19:59,Monday,51.494554772827236,-0.09149335651968177
9:34,Monday,51.49568443707687,-0.08694119696289661
20:38,Monday,51.488655133389365,-0.11957309282789176
4:36,Monday,51.50110918632129,-0.09827789742440224
14:35,Monday,51.50122259313964,-0.1198239797263928
17:31,Monday,51.504249070894204,-0.08329282257890627
7:54,Monday,51.49567315290044,-0.10861492408833383
1:1,Monday,51.49427321975632,-0.09994921938349369
23:33,Monday,51.49065943633387,-0.08113852318558706
3:32,Monday,51.502984708198525,-0.11281697485324792
1:1,Monday,51.50489725465845,-0.11507286048994163
22:49,Monday,51.49768630166851,-0.11222039524888716
12:21,Monday,51.50376355112503,-0.09102851162776036
14:21,Monday,51.505384921090595,-0.09651345820254015
19:53,Monday,51.50702293606343,-0.09544298274187904
16:4,Monday,51.48978011300553,-0.08122196389855826
10:2,Monday,51.49088435932184,-0.08946921912446294
3:7,Monday,51.50171882382789,-0.10452285711115405
23:14,Monday,51.49566990325691,-0.10649023114221567
10:46,Monday,51.49118170815424,-0.09090153654762781
19:59,Monday,51.500170459059376,-0.11447146694990855
13:34,Monday,51.49217552559276,-0.10385808599539333
1:50,Monday,51.493829674732666,-0.1008100992904044
0:57,Monday,51.49544793566766,-0.09626818086681868
18:36,Monday,51.49408839600989,-0.11987104301295941
23:7,Monday,51.50049879012885,-0.08364606181298248
20:5,Monday,51.50289554069195,-0.1100449595338306
16:58,Monday,51.49865170003336,-0.0852744771300333
1:17,Monday,51.503120127069714,-0.09372243793821858
15:58,Monday,51.49023869052094,-0.09247864191582403
21:30,Monday,51.499558511767496,-0.09545064548505652
22:54,Monday,51.50599346333924,-0.10041854588919921
14:33,Monday,51.490085064760784,-0.08905822072498074
0:14,Monday,51.492567469854855,-0.10197298545172111
14:35,Monday,51.489645332039565,-0.11324522467898142
22:41,Monday,51.50146771189188,-0.08302271204031436
2:4,Monday,51.48873585163431,-0.10213153078865214
0:29,Monday,51.50294207074478,-0.10332749515369362
0:41,Monday,51.49291127823931,-0.11555390793267496
9:11,Monday,51.5043083447873,-0.10356984197689287
12:58,Monday,51.50016334850076,-0.09989110276713258
9:17,Monday,51.49459340302218,-0.09610301545269795
2:39,Monday,51.49586254868086,-0.08801467064267818
9:33,Monday,51.498175954553126,-0.09702291215450218
2:7,Monday,51.501319989898796,-0.10599231201317748
5:44,Monday,51.49029565240608,-0.0966710599041734
5:15,Monday,51.50696468322254,-0.114115746616171
7:34,Monday,51.49126820265467,-0.0940148481081784
9:25,Monday,51.50682688663594,-0.08442718093743819
16:38,Monday,51.50346651291503,-0.1017354509975342
11:49,Monday,51.49502535677097,-0.0861875053178574
20:58,Monday,51.49059430832135,-0.09352409447260274
21:13,Monday,51.48858988342041,-0.10958323772494379
5:15,Monday,51.49668411925791,-0.11388401232536963
11:26,Monday,51.50371459686113,-0.10232031399532743
10:54,Monday,51.50144271087694,-0.11193020114247733
5:32,Monday,51.49631937989536,-0.08384631495233744
10:48,Monday,51.49850695409064,-0.11771185633735437
14:20,Monday,51.49441507738136,-0.10195388908177426
1:12,Monday,51.50561213238039,-0.10021153214709297
13:15,Monday,51.49934835441229,-0.10089851499958394
9:15,Monday,51.49436823147906,-0.0885312512626436
8:9,Monday,51.49338105733436,-0.10925380043282823
11:54,Monday,51.49960751693717,-0.10139580399239183
20:22,Monday,51.49249411939867,-0.1105025179362228
5:45,Monday,51.50569515507393,-0.10060095181423122
23:24,Monday,51.48875257409162,-0.10093475532252819
8:37,Monday,51.504357149230124,-0.11870176692133894
11:39,Monday,51.50692732054858,-0.09211238443382593
6:52,Monday,51.49845033053832,-0.1155196624795577
7:8,Monday,51.50273693687351,-0.08195623912115155
11:12,Monday,51.50422913093314,-0.11095567796434816
5:36,Monday,51.49583668227571,-0.10504458555558402
7:2,Monday,51.502478381636394,-0.1055426939464539
23:24,Monday,51.50477415632168,-0.11744020107476472
1:33,Monday,51.50077940039418,-0.11596285176133038
12:17,Monday,51.50259195027906,-0.11228134761449945
8:11,Monday,51.494085050773116,-0.08310791274043194
4:48,Monday,51.50442063808061,-0.09871492476279994
17:32,Monday,51.49104215713926,-0.11574263594042747
0:56,Monday,51.49389931725506,-0.10460135580106879
20:0,Monday,51.48978133035801,-0.08623096386023586
20:1,Monday,51.50638644729176,-0.09263671514875331
2:24,Monday,51.506457304090475,-0.08382359378140847
7:56,Monday,51.50480496301108,-0.1079659524095169
19:54,Monday,51.49548976820715,-0.09477046485456717
19:49,Monday,51.4921948647481,-0.1069736617429525
17:4,Monday,51.48984502329388,-0.09623196623576609
15:56,Monday,51.50461365548019,-0.09616809036141581
6:31,Monday,51.49118876859755,-0.11131766060441506
1:25,Monday,51.49396991583207,-0.11833013658846328
17:58,Monday,51.49111942449215,-0.11499624466183299
3:3,Monday,51.49170444370427,-0.10840302090021663
9:18,Monday,51.494866249753194,-0.08501119453832293
0:57,Monday,51.506523375092925,-0.10021611388553973
5:53,Monday,51.49337785949633,-0.10014189414445443
4:15,Monday,51.49093361550882,-0.11642400201373519
12:45,Monday,51.49843305411818,-0.10442683191166657
7:58,Monday,51.50658787240997,-0.10568734233347073
20:1,Monday,51.49468250052689,-0.11915729588886238
18:16,Monday,51.491634815040605,-0.11222833985539303
12:32,Monday,51.48837914632305,-0.08970805018827091
5:35,Monday,51.502012438543595,-0.09792054128897086
15:56,Monday,51.49394359572675,-0.10103672521445833
8:45,Monday,51.49285491283188,-0.10698337947445763
11:42,Monday,51.49569003795203,-0.10924688907693177
9:13,Monday,51.49248299086382,-0.09476866889607381
4:32,Monday,51.491822710495775,-0.08347477586413524
16:31,Monday,51.50189370231095,-0.11084919391892455
16:13,Monday,51.49657935848374,-0.10782349706067856
11:42,Monday,51.49184618962153,-0.08790277681563752
8:16,Monday,51.48953227104871,-0.0897949579211148
9:21,Monday,51.50171552280125,-0.08226849510078019
13:22,Monday,51.49741001829004,-0.10657908786687398
9:16,Monday,51.49846212305404,-0.11071032705035895
11:36,Monday,51.49191905887338,-0.11699027534480357
10:26,Monday,51.501714941135155,-0.10843694311858094
15:3,Monday,51.503798088462176,-0.08299708637637224
14:10,Monday,51.5020591967358,-0.11145863647458154
0:53,Monday,51.49894957391752,-0.0961924873010374
10:18,Monday,51.493261180799045,-0.09557542028401242
13:25,Monday,51.49865554155732,-0.09249694705613562
0:49,Monday,51.49092953935199,-0.11123971248812868
5:19,Monday,51.49024549934696,-0.10147121265382358
11:58,Monday,51.49774603530536,-0.09441097432463541
6:27,Monday,51.49509979305339,-0.11608930904375798
17:54,Monday,51.49998791759119,-0.08503632119964796
19:9,Monday,51.50389956319006,-0.08158761604061716
3:57,Monday,51.49196116605103,-0.09369024660203726
10:12,Monday,51.498475603979614,-0.10712082542418166
0:48,Monday,51.49479952333971,-0.08641669765617871
23:55,Monday,51.506160119188664,-0.10436301846066373
21:40,Monday,51.49831016068064,-0.10395632484840803
17:5,Monday,51.501568076990765,-0.11571053785889543
8:14,Monday,51.49647239427449,-0.1141964659709617
0:33,Monday,51.49567291658619,-0.09786688010636824
6:43,Monday,51.49211387343442,-0.0886221062707939
16:49,Monday,51.500676513848944,-0.11891253156413854
8:19,Monday,51.50083709937432,-0.08586529706317025
20:33,Monday,51.506704614974964,-0.111976640808463
23:7,Monday,51.50099028651203,-0.09761588757523194
23:28,Monday,51.503457167789676,-0.10607314987640415
18:28,Monday,51.4940033225042,-0.11932783699234102
14:58,Monday,51.50240947124452,-0.08879644236125424
10:33,Monday,51.49333983720529,-0.10941098339242519
13:50,Monday,51.499631647598,-0.09806260522146765
1:11,Monday,51.49024287007516,-0.08180904096178634
18:32,Monday,51.504591682449416,-0.09112020148883053
14:1,Monday,51.490910618494915,-0.10314824731963743
23:13,Monday,51.49840678471667,-0.08435838253916988
16:42,Monday,51.489447964809536,-0.11082897709004702
4:5,Monday,51.49851787719073,-0.11582271652336724
20:46,Monday,51.50321117804996,-0.08432533982161915
17:51,Monday,51.506998527906084,-0.09190754019008027
10:23,Monday,51.49792255888189,-0.10596101693833929
11:27,Monday,51.50540992124908,-0.11113531767669127
5:57,Monday,51.496044863432196,-0.10323165072638582
17:20,Monday,51.49837452435281,-0.10916272401208328
17:48,Monday,51.4932394123046,-0.09020152433709897
9:36,Monday,51.48913021201774,-0.11191388937976479
22:17,Monday,51.49927234460333,-0.09757973980028697
15:33,Monday,51.49548374740119,-0.09572559741650574
17:19,Monday,51.501645722967176,-0.08558093490974036
0:7,Monday,51.50288878365426,-0.11724325638691374
15:59,Monday,51.50385976105687,-0.09529971226100238
7:50,Monday,51.49353763136108,-0.0978362718985494
5:58,Monday,51.4887763566924,-0.09177781005447183
21:21,Monday,51.493808795195164,-0.10943227499478142
12:47,Monday,51.49114771597355,-0.08159890921428231
5:37,Monday,51.50428749018407,-0.11300797708577809
12:38,Monday,51.49894216076277,-0.08752700176407473
20:53,Monday,51.489900863844795,-0.10521734144661647
15:11,Monday,51.496051448901625,-0.08967715739086966
12:33,Monday,51.49584826994693,-0.08513916600552966
20:56,Monday,51.49791224858366,-0.10060873918916902
5:56,Monday,51.49039661872149,-0.11771929599329159
7:30,Monday,51.496242995485375,-0.11350321386961706
20:3,Monday,51.50150052255375,-0.08270369332090322
4:12,Monday,51.505261070440255,-0.1108559479273187
1:47,Monday,51.490158105410934,-0.08297854309306565
16:43,Monday,51.49742469346146,-0.08321178111869719
19:44,Monday,51.49976204707762,-0.09088596088638606
7:9,Monday,51.504749572143766,-0.10632880337210303
3:56,Monday,51.4933532839626,-0.09734574168402221
5:26,Monday,51.48970018887997,-0.08732824594619479
2:30,Monday,51.504451711860355,-0.08481076051293746
12:27,Monday,51.49428892355716,-0.11614158509230411
2:55,Monday,51.50546014013753,-0.0808278584465836
22:39,Monday,51.501615622959314,-0.11098012206378999
17:34,Monday,51.50622564615073,-0.10460341399432002
10:17,Monday,51.49524655717042,-0.1081677401659044
17:39,Monday,51.50343700311679,-0.0886267723820877
5:8,Monday,51.49800289714375,-0.09198813145080069
20:59,Monday,51.494575603029105,-0.08371623251922661
4:24,Monday,51.496076966449436,-0.1144828830126797
5:48,Monday,51.489315423063154,-0.10604303127185916
3:57,Monday,51.49560452184124,-0.11701897444584236
13:2,Monday,51.49507166958695,-0.10611106015410458
5:14,Monday,51.489013989964185,-0.08934983132066826
9:17,Monday,51.49376444560648,-0.10926528120810537
2:29,Monday,51.48985911694269,-0.09335003999053268
20:50,Monday,51.50323442003976,-0.11142707537839013
12:33,Monday,51.5000333635422,-0.10122615851157737
2:48,Monday,51.490950578392,-0.1073920864845544
16:11,Monday,51.505988127910044,-0.0844150160735641
10:13,Monday,51.49897835565547,-0.09205173773810603
17:9,Monday,51.5056230027406,-0.10369251864274759
15:34,Monday,51.48915222713989,-0.08398081221433913
5:45,Monday,51.49343137689132,-0.0937475084543169
13:37,Monday,51.49245460836738,-0.11381299368323246
8:41,Monday,51.50530611418806,-0.11750861132837696
10:29,Monday,51.50647291837968,-0.11951896701863579
17:43,Monday,51.50547088851423,-0.11474034242768015
10:29,Monday,51.49800372328923,-0.09391672753236208
23:32,Monday,51.489919805864176,-0.08456934390252818
8:17,Monday,51.490656048563984,-0.09191576733535212
4:41,Monday,51.495000157221405,-0.11907649119652816
21:47,Monday,51.50367319838045,-0.10505932475043436
16:42,Monday,51.49896329693645,-0.10015137096467475
5:35,Monday,51.49223961651987,-0.09725863175527191
11:12,Monday,51.493015001706674,-0.09764158181568275
19:45,Monday,51.49520544011651,-0.11190862354411044
22:35,Monday,51.500753914236086,-0.09057567746181235
14:21,Monday,51.50612811653856,-0.11784337582807827
2:55,Monday,51.4943167160165,-0.10554359201338573
1:27,Monday,51.50151120969157,-0.11185549616055168
7:24,Monday,51.502689092215974,-0.08835682570188891
5:18,Monday,51.4925931344555,-0.08828945963066648
5:54,Monday,51.49183926638839,-0.10082522961426142
9:59,Monday,51.489152257444495,-0.09818040074189445
12:5,Monday,51.49230872892798,-0.08701680574345849
10:9,Monday,51.5055075576034,-0.09778979413607547
23:21,Monday,51.49638818673399,-0.11121881004506762
10:28,Monday,51.490080841386515,-0.10618212804984983
8:32,Monday,51.49045225272635,-0.0977772277153311
6:42,Monday,51.490578996550745,-0.09404591425997362
14:49,Monday,51.499777981288865,-0.08501485828251165
4:16,Monday,51.50648920487854,-0.1024247506346109
22:35,Monday,51.49008067952451,-0.09066712404719021
9:40,Monday,51.488894298973754,-0.11687599694363188
6:54,Monday,51.4979702446337,-0.11853740791561623
14:33,Monday,51.49998900906371,-0.08385299647497904
16:3,Monday,51.50306975188299,-0.11616626588919952
8:55,Monday,51.501567407298154,-0.0998566125172142
2:5,Monday,51.497719626776856,-0.10248892489758127
18:57,Monday,51.49976299038452,-0.08377467316417715
4:35,Monday,51.49283533992135,-0.08455823497523907
15:3,Monday,51.505426854448814,-0.11591825978363654
12:35,Monday,51.49943445288104,-0.1075652860498557
17:33,Monday,51.488491425342445,-0.1011227148197682
0:39,Monday,51.48995688712078,-0.09748968815228641
17:25,Monday,51.49870389838387,-0.09000281039067386
11:8,Monday,51.50609526788681,-0.09649362769043704
2:50,Monday,51.49857601777519,-0.08205672287182228
17:57,Monday,51.50186918641847,-0.08117889786418206
2:6,Monday,51.49591952638367,-0.08470932954847492
9:2,Monday,51.50410298890704,-0.11053708807299154
6:7,Monday,51.49660350841888,-0.09333249914151757
22:35,Monday,51.498694815912074,-0.1197362888243514
23:54,Monday,51.49314749028278,-0.09041411159045656
1:59,Monday,51.49309644044162,-0.09104731384763602
19:26,Monday,51.498703734687254,-0.11137246159717287
7:36,Monday,51.492367421284996,-0.08684947869258781
9:59,Monday,51.503772360344826,-0.08181984759405139
18:18,Monday,51.49358357835602,-0.10247453318165772
14:27,Monday,51.5016098626066,-0.09958331025094821
16:29,Monday,51.49428920828556,-0.09363923408959307
22:19,Monday,51.500420970758285,-0.11282575809857909
3:55,Monday,51.48963481777837,-0.09785701339591228
14:20,Monday,51.49959767900311,-0.09157188542858587
9:28,Monday,51.490390492635626,-0.09996857854339734
10:59,Monday,51.50166084473988,-0.09037886696749592
0:24,Monday,51.49769845314299,-0.10146059091241645
22:22,Monday,51.48855655255096,-0.0808913658944162
19:48,Monday,51.49301524790206,-0.1139719569861471
16:49,Monday,51.50520169372286,-0.08875613164919544
0:20,Monday,51.50308847505264,-0.08341908069842278
22:5,Monday,51.48977874091208,-0.10206024716156947
20:22,Monday,51.49400245608066,-0.10127331487410807
16:59,Monday,51.49792318215764,-0.10157843246890325
5:55,Monday,51.49928127431387,-0.09314080117553095
9:41,Monday,51.49558727635277,-0.09124139607810491
12:9,Monday,51.495547811510846,-0.11333977917829326
15:49,Monday,51.49461483258192,-0.08251987692197926
3:19,Monday,51.493836990682624,-0.08377567548378992
8:36,Monday,51.50378639252146,-0.10678480634077558
12:53,Monday,51.49094422544466,-0.08553936554985098
22:0,Monday,51.49098619151323,-0.10534780900567538
15:18,Monday,51.4913771537194,-0.08423505846055443
1:25,Monday,51.49127774454395,-0.09004701413319549
10:10,Monday,51.50256253597083,-0.094854589422665
20:16,Monday,51.492049303902775,-0.09765574259013653
8:10,Monday,51.49900908418886,-0.10144450609540076
19:6,Monday,51.49184639544689,-0.10469589260428672
9:27,Monday,51.50622806321636,-0.08332240148815168
0:2,Monday,51.49259855630483,-0.11666164820685535
12:44,Monday,51.497797232982634,-0.11325038717893164
2:24,Monday,51.50278027923963,-0.11746806100732256
23:34,Monday,51.4891862118132,-0.11721208808009158
1:2,Monday,51.502548474568236,-0.11544851937544862
12:16,Monday,51.49867359425033,-0.08819597947191994
7:21,Monday,51.501187883904784,-0.0944502515895639
22:33,Monday,51.50406013141262,-0.10623209840872294
7:4,Monday,51.5028518100594,-0.09396453664388757
21:57,Monday,51.48840354139776,-0.08252043705841233
8:48,Monday,51.49980714915545,-0.08684515877118772
23:42,Monday,51.504734326608215,-0.08297476101693602
0:52,Monday,51.49386509206803,-0.08744024780436743
2:33,Monday,51.49317003952908,-0.10198075211941407
4:40,Monday,51.495442488463816,-0.08732549251172972
1:40,Monday,51.499932776859936,-0.11379489382195203
5:42,Monday,51.505602513664975,-0.11625578911566173
14:58,Monday,51.49011329577511,-0.1063870291613624
23:7,Monday,51.496046170345124,-0.10723056071820412
10:43,Monday,51.49771485531704,-0.085538318335705
16:15,Monday,51.503446378965165,-0.10424247910916616
1:35,Monday,51.49394512546028,-0.09379040210194307
3:32,Monday,51.492659412943375,-0.10891948656017188
22:5,Monday,51.50457325299971,-0.10824593288754115
10:9,Monday,51.49667785572412,-0.09308778130614276
7:47,Monday,51.500375801125784,-0.1026756469533559
23:52,Monday,51.49032933599406,-0.0999467120454344
5:26,Monday,51.496295654492435,-0.08090324296366558
22:21,Monday,51.49366059954495,-0.09556129150225012
1:5,Monday,51.50220537192314,-0.11776692669907624
14:37,Monday,51.504398355779436,-0.08575281912979393
4:27,Monday,51.49154399123179,-0.11537621288522372
16:24,Monday,51.49490999248678,-0.10189890016119645
18:35,Monday,51.49207853606479,-0.09328589571409468
16:41,Monday,51.501363628362604,-0.10845272370296383
9:13,Monday,51.4955112642168,-0.11481119927741593
22:1,Monday,51.491761363149195,-0.09133046714773872
11:9,Monday,51.4901789621841,-0.1182353667194471
8:3,Monday,51.49733998237873,-0.09876280552848637
15:5,Monday,51.50679623463625,-0.11294997674654275
13:32,Monday,51.49657158904024,-0.09479404178181355
6:7,Monday,51.5068595904604,-0.08123931835644355
11:14,Monday,51.490004438643865,-0.11631318291697285
5:21,Monday,51.49244999745651,-0.11129302980413848
12:47,Monday,51.49329321097076,-0.08082338402214195
15:6,Monday,51.494492787955785,-0.10059085448802807
9:55,Monday,51.505560192156096,-0.09310340045209153
17:5,Monday,51.49824055174488,-0.08773782528292075
11:8,Monday,51.49353050905696,-0.10615799142726559
8:43,Monday,51.490589502043,-0.0985837934107419
13:27,Monday,51.502479317248195,-0.11166280483398776
0:15,Monday,51.49261381967131,-0.09509107971324161
20:57,Monday,51.49169007835033,-0.10437211431169607
17:21,Monday,51.490262312220864,-0.10289373307683534
23:29,Monday,51.50061317042571,-0.0938183281141721
1:48,Monday,51.49567782942802,-0.08087148390133779
0:37,Monday,51.49228468888893,-0.08225361866286815
3:44,Monday,51.48826491692698,-0.10473665721118622
3:36,Monday,51.50248062862264,-0.09830257631795475
3:12,Monday,51.505695889086006,-0.09676809571880529
10:10,Monday,51.496978785849144,-0.08828885986997653
9:52,Monday,51.505668728151065,-0.08410747377716193
5:42,Monday,51.496382274856224,-0.09238463642594857
1:55,Monday,51.502070639324096,-0.0914636325737854
20:49,Monday,51.5040612219838,-0.11314527914250158
4:1,Monday,51.49241200207793,-0.08610838102042762
19:5,Monday,51.505395883969555,-0.09833586761761906
14:39,Monday,51.49860509606663,-0.09570774608579499
11:39,Monday,51.490183055232,-0.08543594449939967
23:49,Monday,51.49629412399588,-0.08696245685672445
17:49,Monday,51.4927750922702,-0.09191030257007704
7:31,Monday,51.488300141625544,-0.11290920901643693
23:12,Monday,51.49502295789159,-0.11966849310105616
16:56,Monday,51.50267029542195,-0.10861445812145802
12:40,Monday,51.49463919816349,-0.11541279590880499
9:56,Monday,51.501230947879385,-0.09509663037619218
4:27,Monday,51.501129665696624,-0.11239221699943988
17:41,Monday,51.50288267783665,-0.11388593968491012
8:13,Monday,51.493673203393925,-0.10184289546671156
7:59,Monday,51.49017865087879,-0.09523181863124724
17:56,Monday,51.502518155685536,-0.09156748985793
20:40,Monday,51.50551680106765,-0.11600810346092089
22:57,Monday,51.49173892271062,-0.11383592753089616
2:10,Monday,51.50371452025493,-0.10127623390618871
6:40,Monday,51.5050090952717,-0.11845864094973188
6:56,Monday,51.49428357138291,-0.10913639255573945
14:25,Monday,51.50040718722225,-0.08404835685459647
12:57,Monday,51.50641305737468,-0.1063240073544844
8:20,Monday,51.50207855611205,-0.09333763651628943
9:53,Monday,51.49574640654219,-0.09785110836561686
15:53,Monday,51.48877631508673,-0.08373586703993106
15:56,Monday,51.50387478152144,-0.10188025741157775
8:46,Monday,51.49267998866249,-0.0907722102649969
7:34,Monday,51.49848415583412,-0.10843839399378619
14:45,Monday,51.498962025842765,-0.09484519622452028
5:45,Monday,51.49331096729783,-0.11446084447338285
19:48,Monday,51.505042992205766,-0.11098802374117138
13:12,Monday,51.5051729232583,-0.11967278379864026
20:59,Monday,51.50705472659723,-0.08894671977714669
17:55,Monday,51.50298600051804,-0.11522683984145984
5:22,Monday,51.50491508643168,-0.10221131994736041
23:46,Monday,51.505168784120976,-0.08201197076404838
21:39,Monday,51.50076401826611,-0.0986491143362718
9:29,Monday,51.49621107247577,-0.08640823181723994
17:56,Monday,51.49136227745397,-0.10895549017195799
2:9,Monday,51.49113092812194,-0.08992809498744889
8:19,Monday,51.502663419354604,-0.11187582197905144
21:43,Monday,51.504868264975464,-0.08657674155861744
13:51,Monday,51.49727080291977,-0.10607612670243893
2:57,Monday,51.507047435102024,-0.11897863438825335
22:16,Monday,51.49105575156809,-0.10000738462085904
22:5,Monday,51.49178498090881,-0.08840282259297427
19:31,Monday,51.48995789108335,-0.10431117481643137
8:0,Monday,51.498468165919626,-0.08881013268437286
8:52,Monday,51.49767075113034,-0.10509859332385044
22:50,Monday,51.489406705119556,-0.11940363510496482
1:33,Monday,51.49564625178309,-0.09717505402678975
14:35,Monday,51.48878982218883,-0.11965057973274575
13:45,Monday,51.49492016925477,-0.10913142147934013
18:46,Monday,51.494949168304345,-0.10833498580456032
1:58,Monday,51.50377732028465,-0.09217794894997217
21:39,Monday,51.50497923979551,-0.09795301667329362
20:30,Monday,51.500608625083096,-0.11113231000348191
4:0,Monday,51.49304528170053,-0.08345111078928542
20:57,Monday,51.49110200713758,-0.0987183022837209
4:26,Monday,51.49763625968979,-0.11774438949255371
7:43,Monday,51.49571682658223,-0.10495057865885463
19:46,Monday,51.49862346631989,-0.10075198323738911
23:39,Monday,51.50024142540921,-0.09587005548563332
20:55,Monday,51.49846247822293,-0.08082346248041472
12:16,Monday,51.49748308023296,-0.11917269116228889
4:21,Monday,51.49284312334701,-0.0843213119880254
17:51,Monday,51.48862314662551,-0.11305285577762865
21:47,Monday,51.50170388850218,-0.09073614000661492
7:23,Monday,51.50473162953507,-0.11932324253884764
18:52,Monday,51.499130769732616,-0.08492118061878881
16:13,Monday,51.504529664416324,-0.09199530115184947
10:34,Monday,51.49427081409036,-0.11680732632116363
14:30,Monday,51.49855730753731,-0.11095877954208472
13:29,Monday,51.498892854208165,-0.08256818975432031
7:7,Monday,51.50497862474954,-0.11973095627004723
2:27,Monday,51.50624162477439,-0.08274872744418707
5:44,Monday,51.506345786625026,-0.08662181226655606
5:20,Monday,51.491054025432284,-0.0957755793940041
20:9,Monday,51.507094269886174,-0.10636813274786208
20:52,Monday,51.49055401156304,-0.10939891381171743
14:38,Monday,51.50662810525005,-0.10255329563464653
2:4,Monday,51.49032609783832,-0.10609832666532766
5:45,Monday,51.49840924657372,-0.10783551636857294
22:26,Monday,51.49751523585119,-0.09591819354527846
12:22,Monday,51.50208782799651,-0.10202015454533059
18:32,Monday,51.49137537878006,-0.10915464209323206
9:36,Monday,51.491767162667806,-0.10338476535059875
5:14,Monday,51.49022208880178,-0.10803334580501918
16:50,Monday,51.49287406080026,-0.1019026247747
19:46,Monday,51.494082428965115,-0.08181553929523702
14:27,Monday,51.495351354457256,-0.1051421320206877
13:28,Monday,51.49464377416381,-0.09392879601988799
7:5,Monday,51.48920863377956,-0.08554392696684501
19:22,Monday,51.50446404618938,-0.10297862239781022
22:1,Monday,51.494006843740905,-0.08373825251395821
8:59,Monday,51.49428200455575,-0.11282764037152598
23:44,Monday,51.494036808427914,-0.09647363075243917
7:44,Monday,51.505673508604275,-0.10742599016794704
5:9,Monday,51.4969961924932,-0.09949333323176363
4:0,Monday,51.49597994309311,-0.09459275991634282
2:1,Monday,51.49986565076294,-0.08080590168505082
3:59,Monday,51.4954720129908,-0.10945079904315677
5:41,Monday,51.50386698032793,-0.10363896212977873
7:25,Monday,51.504353175559025,-0.09672353009929471
0:1,Monday,51.49361936313431,-0.09319312674640015
12:0,Monday,51.50420214170201,-0.10031464772778326
23:4,Monday,51.49111261281503,-0.1085063784976565
21:28,Monday,51.49638082878393,-0.10439395105988994
2:29,Monday,51.49029200515735,-0.08871718125825662
15:51,Monday,51.495068140266575,-0.10948108127589935
16:4,Monday,51.50700830722892,-0.10183242458162663
15:23,Monday,51.50135680246696,-0.09404509675434751
15:8,Monday,51.49107696204254,-0.08515451171147367
21:27,Monday,51.499717445729786,-0.09862581263657974
6:34,Monday,51.4969580768327,-0.09745840999227406
20:30,Monday,51.49892903309037,-0.11656993888278812
14:10,Monday,51.49246784367847,-0.1157559891484146
12:6,Monday,51.493222457346484,-0.0823678234964848
21:17,Monday,51.488685538312616,-0.11964830999049814
20:44,Monday,51.492008228055475,-0.11852599105365315
5:46,Monday,51.50398504688973,-0.10148604305268759
2:11,Monday,51.50522349494417,-0.09292868189664513
13:57,Monday,51.50329981455473,-0.09917283778020267
11:54,Monday,51.50325607118475,-0.08517086114457126
4:26,Monday,51.49831024540059,-0.09457837377337044
16:2,Monday,51.492556657151134,-0.09509420903077015
0:23,Monday,51.48921175944196,-0.11352097347948614
15:14,Monday,51.496940757229076,-0.09216995848125067
19:24,Monday,51.506889483851516,-0.09740462915893724
12:29,Monday,51.495141941669026,-0.09836445143155152
17:11,Monday,51.50687695933606,-0.09905544726994889
19:53,Monday,51.49101730407113,-0.11553607775778517
10:58,Monday,51.49828307260814,-0.09623185042202023
2:9,Monday,51.493709038484056,-0.09051408267980131
12:43,Monday,51.4986359986605,-0.09420246610268826
18:11,Monday,51.490206055216255,-0.08981223193459552
1:43,Monday,51.49630543295445,-0.09475624678142577
2:0,Monday,51.49147435902263,-0.11903894834643128
15:41,Monday,51.50389093186098,-0.10650235102722637
12:53,Monday,51.48858389694152,-0.11836651570195078
2:31,Monday,51.49929636526792,-0.10259409847632799
21:13,Monday,51.50470533033889,-0.09553611265455572
15:53,Monday,51.49374428706559,-0.08460877133430947
21:18,Monday,51.48949243224263,-0.08079278491377309
4:40,Monday,51.49232700540596,-0.1102054155450422
21:14,Monday,51.494528597844855,-0.09416037368104563
4:25,Monday,51.49956842775334,-0.10606403329060429
11:52,Monday,51.49013353199542,-0.10139667940832933
7:3,Monday,51.4963214143734,-0.11971135130894411
23:46,Monday,51.492807430673906,-0.11228749683623601
12:2,Monday,51.49652841266516,-0.08870767362938567
21:37,Monday,51.50629743466135,-0.10589091615607031
0:35,Monday,51.49293430014936,-0.09172801595125604
13:6,Monday,51.492563464859856,-0.08705176418590327
18:57,Monday,51.50335727319062,-0.08527410809045768
0:13,Monday,51.491702185475475,-0.10292989914098863
8:12,Monday,51.50046492555351,-0.10255152973801707
23:6,Monday,51.50641106670267,-0.10477270811552666
10:12,Monday,51.49594488599935,-0.09389887139570394
9:6,Monday,51.50447228330789,-0.08810292756453907
14:22,Monday,51.49841570709511,-0.10320249555418867
9:38,Monday,51.490719800541065,-0.11093543257916258
1:55,Monday,51.49811164797915,-0.11591592454272981
14:44,Monday,51.501548476417845,-0.10427014173151203
7:14,Monday,51.495624242265286,-0.09206904718505159
7:57,Monday,51.49052275490427,-0.0968698546224792
11:37,Monday,51.491356738744045,-0.11122616618411735
4:34,Monday,51.49282855856253,-0.11158776546188592
21:6,Monday,51.49647037226688,-0.08637812992912794
1:20,Monday,51.50082369705735,-0.08278380930645199
18:8,Monday,51.50009622111487,-0.11184483792333552
21:58,Monday,51.502409792443714,-0.10941683789128803
16:21,Monday,51.49930963245744,-0.10608865083381212
8:30,Monday,51.499976823738606,-0.10663940450538917
11:43,Monday,51.499008137597606,-0.08101226766732766
4:46,Monday,51.50296258063375,-0.08081010859181846
4:19,Monday,51.489326002978856,-0.11708878174042603
12:34,Monday,51.49269302675255,-0.09545125888195478
18:40,Monday,51.49856569654314,-0.09142413165495178
2:11,Monday,51.50051685683454,-0.09592552088190448
13:58,Monday,51.49827050342744,-0.10680108105970453
21:51,Monday,51.5065192496781,-0.11896993644372995
19:34,Monday,51.502955715262296,-0.08940459754612248
13:14,Monday,51.48914029200593,-0.10092443759351892
15:45,Monday,51.50456243599475,-0.0816960872058174
5:8,Monday,51.506337349097635,-0.08679101520333733
3:11,Monday,51.4981183089926,-0.11923060475675229
9:28,Monday,51.49611177817198,-0.11914044019214191
15:19,Monday,51.488521344026545,-0.10641075286754306
11:22,Monday,51.499392824489746,-0.08145690417899748
15:4,Monday,51.49572904589038,-0.1140988366386301
10:40,Monday,51.492710587651246,-0.1079543894184204
22:53,Monday,51.49089238276627,-0.088887211012315
23:55,Monday,51.4911010791773,-0.10966853086004441
9:18,Monday,51.497816468932676,-0.08244251115523696
14:41,Monday,51.50474065774206,-0.08565158029555957
6:52,Monday,51.49672053794767,-0.11983870524494772
5:47,Monday,51.49117012544222,-0.10037795682813982
11:37,Monday,51.50224543927231,-0.10855385491247967
18:50,Monday,51.49369442381755,-0.10396062244767168
16:51,Monday,51.493041093586314,-0.0846404086793767
23:48,Monday,51.50660601180875,-0.0858606228153146
22:57,Monday,51.489187710926686,-0.1016640310910423
10:22,Monday,51.49402112909491,-0.10045731729021772
12:33,Monday,51.501267058039204,-0.11974271684521054
10:38,Monday,51.50690412890287,-0.09707590587012585
17:56,Monday,51.49538022086052,-0.11219693490419842
2:9,Monday,51.49192999293328,-0.11871741048668775
10:24,Monday,51.495499462644595,-0.09744061574212524
9:56,Monday,51.48989324517855,-0.10032415905295983
10:22,Monday,51.506472547525334,-0.11315230159723501
20:44,Monday,51.50470076014489,-0.08165464973153791
7:5,Monday,51.49923840149179,-0.08107077830168566
21:48,Monday,51.49419974847724,-0.1135445711333928
23:45,Monday,51.504774441484884,-0.10129741769673173
6:28,Monday,51.50688170692804,-0.1067208678168705
16:13,Monday,51.50487904584559,-0.11563207160779754
4:37,Monday,51.506364845027306,-0.09334511958303862
12:0,Monday,51.5069846128832,-0.11852696967224062
23:27,Monday,51.49855360714335,-0.10051436444696521
17:54,Monday,51.50190137739821,-0.09007092973531663
22:33,Monday,51.497992098308124,-0.10933575280025741
6:8,Monday,51.49946808577369,-0.09004011354544707
4:26,Monday,51.4964209746816,-0.0825721145251748
3:53,Monday,51.495526402594514,-0.11425296155018108
16:21,Monday,51.504982547977356,-0.10464445827906488
21:51,Monday,51.499185846625764,-0.08904537062860383
15:44,Monday,51.49408660169442,-0.11700070482737478
17:15,Monday,51.499903042547544,-0.09072897943791391
8:20,Monday,51.50592103062432,-0.11646695733466186
20:43,Monday,51.49360800328869,-0.09586999578361272
10:54,Monday,51.50168185439916,-0.10551473086348115
0:10,Monday,51.497883428342206,-0.09547846224198933
3:36,Monday,51.49765942897708,-0.10291102671030898
0:34,Monday,51.502266938595156,-0.11866959211042452
8:1,Monday,51.497469326988934,-0.11477672570766
17:37,Monday,51.491372492118174,-0.11762440397250719
9:46,Monday,51.50088064695717,-0.10415037824515841
12:45,Monday,51.502351988221704,-0.10204321698651247
22:26,Monday,51.50103810900066,-0.08184816992502422
9:47,Monday,51.502436979666705,-0.11598118942929753
3:16,Monday,51.502100683746725,-0.08676574589473326
13:36,Monday,51.491178468334084,-0.09779677067543771
5:45,Monday,51.489237609902005,-0.0957772707426795
9:17,Monday,51.50183030599713,-0.09283796334603539
18:35,Monday,51.50680953510356,-0.09141743641980206
23:31,Monday,51.49367038708717,-0.08318781651696938
21:56,Monday,51.49552895743555,-0.11258413916369446
16:1,Monday,51.49956149259701,-0.11023630086372578
6:53,Monday,51.488836991879374,-0.08853102462649926
12:32,Monday,51.491018943133795,-0.09765994255223781
13:6,Monday,51.50100501859186,-0.1162175015902009
3:30,Monday,51.50165055384375,-0.08643679487079604
11:11,Monday,51.50100513459356,-0.08995488365043842
9:25,Monday,51.50645062382016,-0.10465464940494605
10:30,Monday,51.49516208760311,-0.11620072281777698
17:50,Monday,51.500259889197565,-0.09582959685144535
5:42,Monday,51.50593961242122,-0.09650702064723272
3:20,Monday,51.49399462901649,-0.11677220584418248
0:10,Monday,51.49037362946107,-0.08273436652001245
19:14,Monday,51.490834729601836,-0.08637339858781942
20:41,Monday,51.49226557273438,-0.11412866295861804
16:49,Monday,51.49551117139706,-0.08489593552694773
12:47,Monday,51.50693595089087,-0.08617451161137583
2:24,Monday,51.49502827696291,-0.10803205817835503
13:50,Monday,51.506105775694614,-0.10809959399732554
4:14,Monday,51.49433961536372,-0.0979903694059013
0:41,Monday,51.49551334998093,-0.09535332105648124
6:57,Monday,51.488743577113716,-0.11846572404625923
20:15,Monday,51.48856343438866,-0.10790477689731356
21:32,Monday,51.488416145924006,-0.10427670897980695
3:30,Monday,51.50107234405058,-0.09409635846611543
18:52,Monday,51.505614478256916,-0.11378352599552588
17:16,Monday,51.5015699859358,-0.09081765412525447
10:35,Monday,51.49340631456622,-0.10959921964383412
16:58,Monday,51.50478485310261,-0.10191044700157828
5:15,Monday,51.505083543527924,-0.10711674382005794
11:35,Monday,51.49445863560071,-0.1196215189285904
21:42,Monday,51.49437260431578,-0.0960794046607483
8:36,Monday,51.50424775425054,-0.08700384771321715
11:26,Monday,51.49279071946009,-0.09685480429175335
22:1,Monday,51.49428778296467,-0.09897516207711095
19:37,Monday,51.50674668985808,-0.08744955119997591
22:54,Monday,51.504322855446965,-0.090631854730234
5:50,Monday,51.49521314962267,-0.08873532819172925
21:38,Monday,51.50083998896897,-0.0828262464842259
12:37,Monday,51.500492434252926,-0.11562226700395302
12:22,Monday,51.494387842340636,-0.11101714564519202
22:58,Monday,51.489902802621195,-0.10993932485660547
3:33,Monday,51.49519712328553,-0.0893717337082469
16:8,Monday,51.50703789399049,-0.11591400676482859
17:41,Monday,51.491802068557504,-0.08790104792514217
15:17,Monday,51.49126508510908,-0.08185005566252943
4:49,Monday,51.49104992735659,-0.08475226916087553
1:17,Monday,51.502171348570315,-0.11946892538507731
20:52,Monday,51.49307324508261,-0.08794907480474473
18:59,Monday,51.49737707590787,-0.08205913309739243
2:40,Monday,51.49994844410714,-0.11937705322062167
3:25,Monday,51.49668781467113,-0.10146815890013758
21:40,Monday,51.48982824285349,-0.08776761556755341
2:31,Monday,51.49154814099609,-0.11952471783158983
12:43,Monday,51.489691553218385,-0.09451864403047369
17:36,Monday,51.49922257927239,-0.11508954170860664
19:4,Monday,51.501679442928655,-0.0953980818874388
19:17,Monday,51.50389003449232,-0.08658993593156536
1:36,Monday,51.48852059936159,-0.090367299813464
17:40,Monday,51.49100442584756,-0.11870049980053848
9:54,Monday,51.49002166702657,-0.11857599509304247
21:33,Monday,51.50094698202544,-0.0823162475260625
19:7,Monday,51.504531065045825,-0.11563491446691414
20:40,Monday,51.49452259322721,-0.09597051142147646
15:17,Monday,51.49207380566428,-0.09027953397610311
8:57,Monday,51.50575503237766,-0.08550401069135495
3:30,Monday,51.499574473581085,-0.09293095662080905
7:58,Monday,51.496648818123525,-0.09357874705010125
14:37,Monday,51.50407686493008,-0.08257854463629788
11:17,Monday,51.50665065751996,-0.09936001454856712
7:53,Monday,51.49270792050956,-0.09013524995987954
13:10,Monday,51.48946129907865,-0.08294255248197163
17:41,Monday,51.48916899680736,-0.08344897121795092
23:29,Monday,51.49973362875041,-0.11703597714528693
13:2,Monday,51.49178011448526,-0.1045230339602031
1:14,Monday,51.48913977138252,-0.11823948222995928
14:49,Monday,51.4967817653264,-0.10024712468201091
8:46,Monday,51.49817285881194,-0.10098907470517429
7:50,Monday,51.497320846500735,-0.11861886440495216
12:12,Monday,51.506763578965064,-0.09912026385181161
15:2,Monday,51.50019010790889,-0.10102680123409724
9:28,Monday,51.5012752851823,-0.08821321219894618
20:48,Monday,51.49368910920711,-0.1038399892776222
22:53,Monday,51.491131828475176,-0.10029155977291081
17:31,Monday,51.495879242625335,-0.1172267892679891
2:37,Monday,51.48961048172143,-0.11833410883226246
11:50,Monday,51.505477116232264,-0.11394846933718764
6:33,Monday,51.49823292459325,-0.08174797049304523
1:14,Monday,51.497571555006,-0.10512339885750023
3:24,Monday,51.49643763344162,-0.10222829726264962
17:12,Monday,51.506863855358915,-0.11169575702679814
17:10,Monday,51.49182496966808,-0.08354203636427979
14:14,Monday,51.506744001729004,-0.09471199687394845
16:53,Monday,51.497928171654216,-0.09924203929659071
0:34,Monday,51.501293570380554,-0.09001929382964696
23:31,Monday,51.49235089302348,-0.08560276616393085
15:25,Monday,51.48847396631798,-0.11694420200628229
22:28,Monday,51.48976758884927,-0.10238101714111258
8:36,Monday,51.50174988790068,-0.10002633001688553
15:51,Monday,51.488645927357446,-0.09596895775763507
19:4,Monday,51.50357441644371,-0.09746512575925094
22:54,Monday,51.50392305009153,-0.08163772029764309
19:50,Monday,51.507036231996636,-0.083901609658253
20:24,Monday,51.49321973856237,-0.08792516972064252
13:47,Monday,51.494153709911245,-0.09638635949434131
21:31,Monday,51.50527658380985,-0.08564976150950104
6:50,Monday,51.48974423250205,-0.11278335587605724
10:43,Monday,51.50403890799795,-0.11161055582056822
18:59,Monday,51.49689972834829,-0.09417963330905858
20:51,Monday,51.50557165366835,-0.09296014658212208
22:42,Monday,51.492353780698366,-0.09429632977080318
0:16,Monday,51.50410298801235,-0.08294854435938695
1:2,Monday,51.50429839771651,-0.09487387720818485
23:4,Monday,51.489736442214785,-0.11268885315920753
2:59,Monday,51.498680299355605,-0.11558505023757724
22:18,Monday,51.49938989973248,-0.11882264675889163
11:35,Monday,51.49560066572674,-0.09830774398248594
9:13,Monday,51.502143456294284,-0.09931477595043371
5:14,Monday,51.50585627503264,-0.1150698669315437
4:3,Monday,51.50220412601222,-0.0907182754467543
3:17,Monday,51.498912401296415,-0.11298354188769491
0:47,Monday,51.49360475995586,-0.1126145504427789
14:56,Monday,51.50367188514399,-0.08636629406992732
21:20,Monday,51.503493602084816,-0.11842823915539553
14:43,Monday,51.506018110436074,-0.1180688057611991
23:43,Monday,51.49356193033571,-0.10890795791604574
11:12,Monday,51.48924036488263,-0.09728782661382529
4:22,Monday,51.48824975882442,-0.08292076617088917
23:24,Monday,51.497825562619596,-0.11589050148399871
0:24,Monday,51.49034133955715,-0.10821802302007016
9:46,Monday,51.50634112006704,-0.08252951037976303
3:1,Monday,51.49304845162876,-0.08893997901257793
15:17,Monday,51.50080916225333,-0.09024263762387648
8:54,Monday,51.49133730535952,-0.09855721295887838
15:13,Monday,51.48897280394099,-0.11875276499005104
23:20,Monday,51.49906474298101,-0.10976611762854893
9:37,Monday,51.490353221869775,-0.11881664830970619
11:4,Monday,51.50188153060304,-0.09747894518872481
7:28,Monday,51.498135654108644,-0.0966740441280578
17:33,Monday,51.49156736592049,-0.10180038112695687
14:26,Monday,51.50591284728091,-0.08447943854201884
20:2,Monday,51.49928885370457,-0.08860171215683116
18:8,Monday,51.49490185051148,-0.11238000427345261
3:4,Monday,51.506674816300645,-0.0895886331464563
13:39,Monday,51.49739027450385,-0.08151325332074832
1:37,Monday,51.49113673262748,-0.08417590542878167
11:30,Monday,51.490438940601585,-0.09623646281679579
2:25,Monday,51.489016862946585,-0.10614988435792379
17:52,Monday,51.49401451572513,-0.08251183060985905
15:5,Monday,51.50112898897374,-0.0987465250078996
22:57,Monday,51.504527277462316,-0.1024869627314783
5:5,Monday,51.505921394433635,-0.0982968618172977
9:28,Monday,51.49263746256809,-0.11790659704352292
7:12,Monday,51.499625959841595,-0.08495521788297014
19:51,Monday,51.496632603466225,-0.10561852520456501
3:17,Monday,51.49881912620774,-0.08087625563175005
4:48,Monday,51.50624645985539,-0.08901604539321015
13:12,Monday,51.49826391415831,-0.09518198696457703
20:57,Monday,51.50266197678992,-0.09020534599808558
2:37,Monday,51.49646519008601,-0.11731999787214215
8:30,Monday,51.49351402198744,-0.09276794854137925
23:19,Monday,51.50262021603297,-0.09490443222764355
20:1,Monday,51.49494095654411,-0.09674373812316882
14:9,Monday,51.498090453887635,-0.11729034863478952
10:0,Monday,51.5034848467526,-0.11771341759396864
19:26,Monday,51.490236862534324,-0.08197061763893472
8:23,Monday,51.490522895679824,-0.08235204007786079
18:19,Monday,51.49674328077997,-0.0875722395316931
20:15,Monday,51.49955111204896,-0.11566348037374308
6:39,Monday,51.49289782579354,-0.10951535729279543
14:57,Monday,51.48934132428532,-0.10352795954807074
22:43,Monday,51.493302068574025,-0.11059896228149851
15:7,Monday,51.506070854552895,-0.09238208275120197
2:14,Monday,51.506682088728446,-0.10175988155270706
14:41,Monday,51.495879783973045,-0.11096744467834962
15:57,Monday,51.50175998801399,-0.10407885899922464
13:53,Monday,51.5033460745625,-0.1178712076353967
4:58,Monday,51.49678341803829,-0.08898236532816896
11:4,Monday,51.49175356792872,-0.10260970080914945
4:51,Monday,51.50516335698871,-0.09562651662041834
1:4,Monday,51.50706373817901,-0.10787184946432304
14:11,Monday,51.50673856123884,-0.08419537447541166
12:55,Monday,51.497391379837865,-0.11463558690719802
9:25,Monday,51.506418938065956,-0.08893096686193991
23:6,Monday,51.50467749296961,-0.08641274752593882
3:42,Monday,51.50186795314035,-0.09397186011462696
16:27,Monday,51.50549259234539,-0.0917189841408689
4:0,Monday,51.48869100401807,-0.09772569018174279
1:18,Monday,51.48880796821095,-0.09545273370246693
20:51,Monday,51.50256026156566,-0.09646920118010412
23:52,Monday,51.5015288939165,-0.09615881376637245
7:53,Monday,51.497871948252254,-0.10793265866031396
1:56,Monday,51.489491494307735,-0.09205122865606294
15:20,Monday,51.49163913939537,-0.10469015171327593
2:11,Monday,51.500164878001854,-0.08661679361040948
9:12,Monday,51.5000861027848,-0.0999414578967767
12:36,Monday,51.49600297674715,-0.09933854744733163
14:54,Monday,51.504304245094524,-0.09393624119550867
12:45,Monday,51.49214503501485,-0.10495256586678173
8:15,Monday,51.50552309689942,-0.11512842396627694
3:44,Monday,51.48988391625174,-0.11701749988539176
1:39,Monday,51.493524978050516,-0.09513955575340992
3:5,Monday,51.4885324464004,-0.09623284840880877
8:52,Monday,51.4967848911185,-0.10333556502945093
19:17,Monday,51.49065958712807,-0.09844930667320766
20:21,Monday,51.50538782480291,-0.09432066421032861
20:48,Monday,51.49266513116111,-0.10890314404227218
18:19,Monday,51.50691850936708,-0.10441446193414537
10:18,Monday,51.506393361096386,-0.11316333764985588
11:52,Monday,51.50454400099632,-0.08768841619484186
20:34,Monday,51.504686201104505,-0.08128814437938803
16:14,Monday,51.4906480720039,-0.10207023210842026
16:51,Monday,51.48848292415712,-0.09061838873567937
18:45,Monday,51.50552691293951,-0.11151996998937852
5:31,Monday,51.49211183912954,-0.09172707303135141
4:39,Monday,51.49851535669336,-0.09030254751860407
21:30,Monday,51.49322469897949,-0.08712784335812346
12:52,Monday,51.49933777897904,-0.11577650258453256
16:50,Monday,51.49574904521835,-0.09615308809061682
8:44,Monday,51.49909702053937,-0.1126317169697359
0:2,Monday,51.50035995162961,-0.09890287287674498
2:21,Monday,51.50676006718247,-0.10953717840335424
11:45,Monday,51.498352806351576,-0.11777211470750952
18:55,Monday,51.50145394469673,-0.1009409430076921
17:34,Monday,51.50701191557402,-0.09510067464554002
17:7,Monday,51.49249924355982,-0.10022642786321759
23:36,Monday,51.490651832910395,-0.11159669128257098
11:36,Monday,51.50580714849323,-0.08172063565291862
15:4,Monday,51.49687192701013,-0.11338412864931893
8:30,Monday,51.50642983159159,-0.0930917629365525
2:3,Monday,51.494286770748886,-0.1167519684587723
9:49,Monday,51.49830266141545,-0.10072695291963918
20:54,Monday,51.494830321800094,-0.09944345699645196
14:53,Monday,51.494902567992256,-0.10496827115437896
5:41,Monday,51.488328247911184,-0.1149947706400468
23:11,Monday,51.48845611317759,-0.10874047391762962
19:35,Monday,51.502438033485994,-0.10726752519461205
8:44,Monday,51.49574534460227,-0.1130405739010248
10:3,Monday,51.504484352371854,-0.10218497492643112
12:1,Monday,51.50150347588886,-0.08286133958851444
9:0,Monday,51.493100499372574,-0.09892605992672868
15:29,Monday,51.49760811167719,-0.09532101156813952
23:47,Monday,51.50293348912891,-0.0849132535828767
11:58,Monday,51.5058844011904,-0.1162233350434766
1:25,Monday,51.50403969566339,-0.08465865221569782
5:44,Monday,51.49877267482332,-0.11428464399698413
14:4,Monday,51.49327219762401,-0.09827619287223854
13:57,Monday,51.501392303281115,-0.0987739291483676
21:1,Monday,51.50230956856451,-0.10707362906277261
22:21,Monday,51.50613548893647,-0.08466875814296565
7:4,Monday,51.49623973721491,-0.09592083376895379
8:32,Monday,51.49592975623612,-0.10519106196285975
4:15,Monday,51.50131832935298,-0.1174248225415073
19:38,Monday,51.48925498661799,-0.10598582341337874
16:39,Monday,51.50369353364432,-0.09587889982147271
23:35,Monday,51.50566589772693,-0.11919310264016184
5:51,Monday,51.49856122163666,-0.10464230329056408
20:4,Monday,51.50197356370967,-0.08490651471898353
22:0,Monday,51.50677441184944,-0.11448573776741654
7:11,Monday,51.50209532837164,-0.09217823009442114
19:50,Monday,51.503173646859295,-0.10445142761743369
0:29,Monday,51.49274949506043,-0.0813269023744846
9:39,Monday,51.48843176058019,-0.11258606093191978
19:25,Monday,51.50372615045881,-0.09814584006482402
0:51,Monday,51.49929304022226,-0.10223138895485988
23:32,Monday,51.48836098936272,-0.08955589936733735
11:1,Monday,51.50385030915145,-0.08604253849787566
19:32,Monday,51.49619734173436,-0.10303890800605545
23:1,Monday,51.495412674985836,-0.08769931586104213
3:21,Monday,51.49202260861446,-0.11960724996342789
12:30,Monday,51.503616591262485,-0.11960003048021493
22:6,Monday,51.497109238561116,-0.09066102961062211
22:36,Monday,51.49242893362142,-0.08874997083121786
6:27,Monday,51.4974404575024,-0.11711840097536877
17:5,Monday,51.50678228621715,-0.10305223374738359
10:48,Monday,51.50631495369333,-0.08178486599232311
4:11,Monday,51.496048998490025,-0.10867374975705223
10:31,Monday,51.489796049594695,-0.11612805083307762
21:6,Monday,51.500837474518924,-0.11767381762506225
10:51,Monday,51.49498247633645,-0.10532943173325478
22:35,Monday,51.503520390518716,-0.08719452777626627
14:18,Monday,51.4964419055701,-0.09177778776529075
0:13,Monday,51.50268615623032,-0.1130189395720375
23:7,Monday,51.50398280127686,-0.10034059485361796
20:26,Monday,51.50049063154623,-0.10652510364778488
22:40,Monday,51.503850929218046,-0.10742527596746765
4:19,Monday,51.49321474016669,-0.1059036740024088
4:55,Monday,51.50230735343712,-0.0811580741790529
6:48,Monday,51.497104304460954,-0.10591545434965277
12:53,Monday,51.498916587462276,-0.11074830289632684
3:33,Monday,51.49011474178812,-0.10010252566772726
7:45,Monday,51.503905674323164,-0.11507241402410896
3:59,Monday,51.4932006445323,-0.08325867004130175
6:59,Monday,51.49306684252708,-0.1077852916969981
8:8,Monday,51.494988092070784,-0.08452654594307568
8:1,Monday,51.48901265558013,-0.11237375832506456
4:7,Monday,51.50631349678369,-0.0907816610935603
4:6,Monday,51.490159959129244,-0.11098300158489315
12:31,Monday,51.48924627023718,-0.1078743618956584
19:17,Monday,51.50240299760829,-0.0831871733575311
2:15,Monday,51.49023729902295,-0.09709027239842215
18:26,Monday,51.50165332162454,-0.11169714032483588
1:19,Monday,51.50092239821714,-0.11153681829402295
1:0,Monday,51.492302007507824,-0.10700593112142465
9:30,Monday,51.50178098579797,-0.09079453718177055
18:48,Monday,51.49492082293768,-0.10245934169088244
21:36,Monday,51.4904064774967,-0.09928211828252585
4:5,Monday,51.494130452085884,-0.10051321009646524
2:30,Monday,51.49178609709713,-0.10322849928514116
22:37,Monday,51.49316922040711,-0.11093694438328411
5:27,Monday,51.49146494659728,-0.10808320242869819
16:30,Monday,51.50356345993282,-0.08932183580432058
5:47,Monday,51.493765684824226,-0.08263505601108703
14:35,Monday,51.49238655921914,-0.11747220716369862
23:37,Monday,51.49996609765296,-0.10638011997733414
13:18,Monday,51.505342402312095,-0.11144543542801624
0:50,Monday,51.49645423565917,-0.11820622183846763
14:56,Monday,51.49738219439669,-0.0870091907885146
16:48,Monday,51.503089747485966,-0.11198892790208528
9:42,Monday,51.49954065321206,-0.11965356181067305
