22:39,Tuesday,51.49117855095853,-0.10787060117862991
22:16,Tuesday,51.49084823692339,-0.11610273184048919
21:52,Tuesday,51.49512300514567,-0.09286797412770331
18:34,Tuesday,51.50292428123969,-0.09755061871676679
9:39,Tuesday,51.50595958003177,-0.11338127025602987
21:35,Tuesday,51.495236471666125,-0.09719821169891367
10:32,Tuesday,51.50633324024753,-0.11789125957395727
4:46,Tuesday,51.49364525495488,-0.10986658687968558
13:44,Tuesday,51.49869938953474,-0.11634156927736403
8:54,Tuesday,51.49829774418674,-0.0993950375286092
19:19,Tuesday,51.492469503778516,-0.10909929802942335
9:19,Tuesday,51.49323518414727,-0.10696478142537207
1:38,Tuesday,51.50033617540976,-0.08924785630307194
10:37,Tuesday,51.496805942247335,-0.09509201620189175
8:49,Tuesday,51.49122350128379,-0.10290807785723122
9:28,Tuesday,51.49126947370743,-0.10907148754283888
19:21,Tuesday,51.49455476885529,-0.08358361689283964
21:59,Tuesday,51.49792750123358,-0.10529475795228105
3:16,Tuesday,51.49529946277854,-0.1008759888355266
22:58,Tuesday,51.50320273195281,-0.09006679133413018
2:12,Tuesday,51.50430779297067,-0.1095929132290803
17:48,Tuesday,51.5024622287304,-0.08221422832755412
19:12,Tuesday,51.49443474974662,-0.09809372760017387
6:29,Tuesday,51.505236471182585,-0.08975833782042258
21:36,Tuesday,51.50475924732698,-0.09493068042161465
1:45,Tuesday,51.49214698670097,-0.11296172146245834
0:50,Tuesday,51.505026013871635,-0.10544749004701967
6:6,Tuesday,51.48890419284026,-0.08696369686283903
9:39,Tuesday,51.49859296380748,-0.10545078222089421
21:46,Tuesday,51.49520706299435,-0.08267117452636662
4:49,Tuesday,51.501629579503835,-0.08223970129059158
6:43,Tuesday,51.49680220624359,-0.11595010172819152
11:46,Tuesday,51.4922097241515,-0.1181344498180652
1:21,Tuesday,51.49376210369839,-0.11881967636637635
13:28,Tuesday,51.49232979332832,-0.0902218016061158
18:33,Tuesday,51.49741842326883,-0.09969662046132337
14:52,Tuesday,51.49422901387298,-0.09773517716550247
12:54,Tuesday,51.49018710746325,-0.09349023644174302
22:34,Tuesday,51.49141205559825,-0.11637903294319707
11:39,Tuesday,51.50033514446323,-0.0911605142468408
9:14,Tuesday,51.495462661616834,-0.0811108729803788
1:29,Tuesday,51.50022052181321,-0.08789083286116575
11:58,Tuesday,51.503553663211996,-0.11159515066253116
7:50,Tuesday,51.488854819762416,-0.10193109382084634
4:15,Tuesday,51.489336819897666,-0.09255570555699702
8:58,Tuesday,51.497881922072715,-0.10640978584972366
5:33,Tuesday,51.49334129303823,-0.10636792852993385
17:46,Tuesday,51.507029514983685,-0.08816815626187821
9:12,Tuesday,51.49014272313327,-0.08886779566024658
17:28,Tuesday,51.49062564359836,-0.10266400292731574
16:16,Tuesday,51.504675599193035,-0.11031523121001369
23:6,Tuesday,51.499951230945356,-0.10898092871060062
22:57,Tuesday,51.50115786704843,-0.09105606637708016
22:10,Tuesday,51.50312306834239,-0.10582510539586991
14:38,Tuesday,51.4963984934144,-0.10356340117422833
17:2,Tuesday,51.504674796941444,-0.10637345806528165
9:28,Tuesday,51.494973029320846,-0.08710448961570269
13:25,Tuesday,51.49977615407243,-0.09511390366303357
9:58,Tuesday,51.50487619931265,-0.1134225453681293
16:43,Tuesday,51.49753930048488,-0.08454348096736636
5:10,Tuesday,51.4955941358463,-0.11005157585082202
10:23,Tuesday,51.49365205679557,-0.10715345841259559
13:23,Tuesday,51.4901503572647,-0.0912330045488438
7:57,Tuesday,51.50226235811203,-0.09757747094838257
12:22,Tuesday,51.49861965920258,-0.08375627941485239
9:0,Tuesday,51.5006564683779,-0.1021860367270502
14:19,Tuesday,51.49385064232388,-0.1077668060523895
3:0,Tuesday,51.49590446727166,-0.1082257795191343
19:17,Tuesday,51.50151374196456,-0.09267342930387318
7:38,Tuesday,51.4990885630518,-0.08241460191471572
20:50,Tuesday,51.503781063194,-0.11437272109842642
3:40,Tuesday,51.48872030473398,-0.11427647001208632
5:16,Tuesday,51.503483567626255,-0.0978165625942776
3:30,Tuesday,51.50382598063023,-0.08952779707610915
20:26,Tuesday,51.50432124686152,-0.08550862876027054
19:24,Tuesday,51.492397550644455,-0.08181483191543551
13:13,Tuesday,51.49612465471336,-0.09093159457901008
0:44,Tuesday,51.48943016418979,-0.08755820987488734
6:57,Tuesday,51.49345243216924,-0.11270011644929984
13:57,Tuesday,51.50702421552518,-0.08848347869392564
6:50,Tuesday,51.50111196370097,-0.09940128999961086
4:42,Tuesday,51.50683253143222,-0.0865471560674945
23:13,Tuesday,51.5041856571249,-0.09034430918830524
11:34,Tuesday,51.49615227421079,-0.08142748945975872
6:49,Tuesday,51.50587634688526,-0.08829976572148121
3:0,Tuesday,51.50468651024925,-0.09932883848753392
5:20,Tuesday,51.49900054361033,-0.09364825271886308
18:21,Tuesday,51.50689350838542,-0.1044158304937999
0:30,Tuesday,51.50467478300586,-0.09886151228445622
12:43,Tuesday,51.48831501209607,-0.08391331883415902
15:1,Tuesday,51.50577752383664,-0.08551909772989026
22:36,Tuesday,51.50119718125153,-0.09899469025534766
10:23,Tuesday,51.49428869030255,-0.09935641296815526
10:13,Tuesday,51.49609515330021,-0.10454842100391118
18:48,Tuesday,51.503236257137715,-0.11032603782164967
11:20,Tuesday,51.50395372180109,-0.09438091369217262
5:35,Tuesday,51.490382194997096,-0.08988399779026518
20:43,Tuesday,51.49160417120665,-0.101277561093861
1:13,Tuesday,51.50665283834201,-0.11768529777339201
13:43,Tuesday,51.49228395426562,-0.11486896380851169
22:47,Tuesday,51.4964538068414,-0.08508231470957472
10:10,Tuesday,51.495594359319355,-0.11811955975916157
23:46,Tuesday,51.49723019436848,-0.0881188243882578
23:1,Tuesday,51.490296909777356,-0.09064220536737473
0:43,Tuesday,51.4885728106328,-0.08486416963974924
4:51,Tuesday,51.49497937291334,-0.11474528709928869
15:36,Tuesday,51.50211925438199,-0.1042550371691394
13:39,Tuesday,51.50705998651546,-0.09281743873660069
5:35,Tuesday,51.49178533651686,-0.11418252852123699
21:14,Tuesday,51.50092198999468,-0.11934461422777805
18:4,Tuesday,51.50545987600183,-0.1109493628925236
20:12,Tuesday,51.502631975502105,-0.08816567092472424
9:30,Tuesday,51.494512603881425,-0.10163330742577995
11:19,Tuesday,51.49338838826503,-0.09309915400823934
6:9,Tuesday,51.50531917720705,-0.09113702443524135
14:52,Tuesday,51.506108275846636,-0.08742513979143454
7:8,Tuesday,51.49508264567248,-0.09328010256675724
18:30,Tuesday,51.49182522089554,-0.10321419465850022
6:23,Tuesday,51.505425188607965,-0.08743465295170236
20:17,Tuesday,51.4929948442428,-0.10165528132479137
0:27,Tuesday,51.49440140148023,-0.11146801870223218
8:26,Tuesday,51.50440289600751,-0.09756935824018875
20:16,Tuesday,51.48880643764523,-0.10172737724296668
17:38,Tuesday,51.49837832241844,-0.08897781546017663
6:38,Tuesday,51.48960398865979,-0.09066997889635169
12:34,Tuesday,51.495342640236956,-0.0846267568966558
1:28,Tuesday,51.48936328423691,-0.11955991935296977
11:8,Tuesday,51.49443849857841,-0.09727176707430756
22:3,Tuesday,51.50699270923929,-0.09135698942717876
18:58,Tuesday,51.50208976825665,-0.09249879191820212
22:7,Tuesday,51.50096167476614,-0.11419481520669401
11:30,Tuesday,51.49510591918157,-0.0996398413583234
10:29,Tuesday,51.50480963485666,-0.11664073611006838
10:37,Tuesday,51.492189529648996,-0.08338954664771633
8:8,Tuesday,51.49584814662236,-0.10325435539972481
23:21,Tuesday,51.499818365259145,-0.09320748476231941
9:56,Tuesday,51.49100691059935,-0.08684629762234876
19:53,Tuesday,51.498462899882455,-0.11568522994805261
22:43,Tuesday,51.498075124548905,-0.11298759364862021
9:19,Tuesday,51.49780673608733,-0.11433649187881889
13:38,Tuesday,51.49271118285418,-0.09716713443266994
23:49,Tuesday,51.506124431156515,-0.09119610007425341
2:34,Tuesday,51.490267084962966,-0.0971838326519532
18:10,Tuesday,51.49080247053553,-0.10524251496421003
6:32,Tuesday,51.50097846929168,-0.11456912527368973
6:7,Tuesday,51.493922477310456,-0.10704709328973355
16:40,Tuesday,51.4906726144896,-0.08992054934751326
20:22,Tuesday,51.50507976351929,-0.09402203219528554
0:1,Tuesday,51.50024417078725,-0.11833639363755767
10:32,Tuesday,51.49670049838068,-0.0810037844009008
7:21,Tuesday,51.50661460005144,-0.10950070575402687
21:53,Tuesday,51.5013218358648,-0.11295283909189893
8:53,Tuesday,51.498167706895735,-0.10591725544160312
16:2,Tuesday,51.501033451569846,-0.1098481164832862
14:11,Tuesday,51.499016464733245,-0.09367831238716358
7:55,Tuesday,51.49033450237072,-0.09941556652181001
4:54,Tuesday,51.48920359145679,-0.081672942857996
6:40,Tuesday,51.50655229196553,-0.10316249613892434
22:46,Tuesday,51.49766065521856,-0.09347268302412337
0:8,Tuesday,51.49611937740815,-0.10616059958835504
11:53,Tuesday,51.488995150128915,-0.08929132057680049
11:33,Tuesday,51.49460173002864,-0.08400711514484788
0:59,Tuesday,51.49579619044753,-0.09381142856550861
22:10,Tuesday,51.50270203494738,-0.10497057937279015
3:6,Tuesday,51.49414975516892,-0.11728794303330566
8:29,Tuesday,51.494193939356116,-0.10538834662741306
23:16,Tuesday,51.50705156048121,-0.0930132112028913
2:57,Tuesday,51.5022685506216,-0.10089430917645748
16:55,Tuesday,51.50703801591774,-0.09270087852214481
5:14,Tuesday,51.49167693604379,-0.08537107527422935
7:9,Tuesday,51.498139189566785,-0.09107868628373426
23:42,Tuesday,51.49219364410153,-0.11090203510531206
19:54,Tuesday,51.49251262569228,-0.09728826999989396
0:26,Tuesday,51.48908838905455,-0.09273030956346195
8:5,Tuesday,51.48839088659786,-0.09655468826539305
16:15,Tuesday,51.50412575219372,-0.11220124887279063
9:43,Tuesday,51.49958978489051,-0.0969539167054949
14:9,Tuesday,51.50359982701957,-0.11732369096333069
9:9,Tuesday,51.49581654127401,-0.0943870967535091
17:33,Tuesday,51.50099499063165,-0.10261042925053708
4:24,Tuesday,51.49697680528632,-0.11946349206389796
7:9,Tuesday,51.49249801714746,-0.10362277647405897
18:8,Tuesday,51.49853038821473,-0.11900281859283836
5:22,Tuesday,51.488933864564544,-0.10721964084005879
11:10,Tuesday,51.504361688385295,-0.09354556357494777
4:36,Tuesday,51.495737874916664,-0.09745854649179196
15:48,Tuesday,51.502712382888085,-0.0956417947186363
23:9,Tuesday,51.498818503307284,-0.09140632137878105
13:50,Tuesday,51.50494450116034,-0.10214899671798998
3:50,Tuesday,51.50201065202087,-0.09015560069637096
18:46,Tuesday,51.49384039672988,-0.08878918783415533
7:28,Tuesday,51.492048617173104,-0.09025488391663877
12:23,Tuesday,51.49470315081323,-0.10200995135191641
10:4,Tuesday,51.49962392303323,-0.0934307965041692
8:41,Tuesday,51.49501136089174,-0.10020002884808278
6:26,Tuesday,51.49430053558219,-0.08943780757606482
22:43,Tuesday,51.488417930509236,-0.09549978244603549
18:17,Tuesday,51.49633076202304,-0.11129469679699394
21:26,Tuesday,51.49840083064312,-0.09964280192625224
14:38,Tuesday,51.49687299408621,-0.09937943160174674
13:20,Tuesday,51.506524834576794,-0.08970787443333018
22:36,Tuesday,51.501055597044044,-0.11744398224672829
21:45,Tuesday,51.48980192804078,-0.09304643435324257
20:56,Tuesday,51.49954373918229,-0.09378698293412305
9:6,Tuesday,51.5047319167083,-0.10807349062107952
22:34,Tuesday,51.50220386634497,-0.08929572169823914
23:36,Tuesday,51.50254568322193,-0.10793366615025583
21:50,Tuesday,51.501809569629046,-0.11159957889785449
13:4,Tuesday,51.49941564609825,-0.08462964303686965
5:47,Tuesday,51.489371536315254,-0.09313172101017644
17:32,Tuesday,51.493889135493056,-0.11682876748307129
15:24,Tuesday,51.48911722028318,-0.09432326563684407
9:45,Tuesday,51.499840927192665,-0.11772230081389705
18:24,Tuesday,51.49803316728093,-0.09072092941616369
6:32,Tuesday,51.493173698840145,-0.09503915769325075
10:59,Tuesday,51.50059527391304,-0.1189423622273321
5:19,Tuesday,51.50265626504844,-0.08895091750612807
10:52,Tuesday,51.49012689836577,-0.08161857250023924
23:19,Tuesday,51.49862665322811,-0.09623383165362576
17:48,Tuesday,51.49023557761647,-0.11281870596997656
13:21,Tuesday,51.4902366345853,-0.10454358580173878
5:36,Tuesday,51.493498927490144,-0.09454370923757435
20:51,Tuesday,51.49647056172,-0.09172502792632126
9:30,Tuesday,51.49788003428719,-0.09373815691790854
7:58,Tuesday,51.504039802133754,-0.11865312770020604
13:28,Tuesday,51.49852732624056,-0.10527070157243773
8:32,Tuesday,51.50019828111771,-0.11597990559429315
21:57,Tuesday,51.49094729295004,-0.11300752838565681
19:55,Tuesday,51.502709028702,-0.08186917805342077
13:38,Tuesday,51.5034724694353,-0.10476016135637463
0:22,Tuesday,51.49337061997493,-0.1127109185751198
9:44,Tuesday,51.48977580773585,-0.10241093865995167
13:46,Tuesday,51.501366871555724,-0.0828784171240329
18:24,Tuesday,51.48874163039569,-0.09358164239853178
14:15,Tuesday,51.49308570307071,-0.09805191502674485
1:16,Tuesday,51.50534209088334,-0.10182006050475234
13:55,Tuesday,51.499302125526214,-0.11184844387575157
12:25,Tuesday,51.48906069185263,-0.08208729239500187
5:23,Tuesday,51.494130619379014,-0.09058483211108315
23:16,Tuesday,51.504072682526285,-0.08758436376762341
16:21,Tuesday,51.502668731787644,-0.11831230650731712
18:39,Tuesday,51.498094751469196,-0.11265690114551416
21:9,Tuesday,51.49352515370372,-0.10892191317620396
12:39,Tuesday,51.49279586250318,-0.09934683952703381
22:6,Tuesday,51.48999455103583,-0.11640897967790154
21:53,Tuesday,51.49728246799555,-0.09876848258680163
16:47,Tuesday,51.501276360770554,-0.09685317725761783
3:51,Tuesday,51.49729121756107,-0.08327196411503301
18:57,Tuesday,51.504723472513604,-0.08243026342237478
13:29,Tuesday,51.50445871697259,-0.09908496397726893
10:31,Tuesday,51.502574684752545,-0.08684218843154232
4:49,Tuesday,51.495691407832346,-0.10131672820398233
13:15,Tuesday,51.488778240872605,-0.08135332559850084
14:1,Tuesday,51.49922448621959,-0.08594917590290431
13:13,Tuesday,51.49904938660338,-0.11293927709250513
9:36,Tuesday,51.49835923720674,-0.11431783114774917
5:33,Tuesday,51.50686539977701,-0.08492778622317079
21:18,Tuesday,51.48997067552057,-0.10741707280167401
4:29,Tuesday,51.50470155302083,-0.10288436607068308
0:16,Tuesday,51.50059753952903,-0.1062559722495453
11:24,Tuesday,51.493718398591575,-0.11847912530653347
13:25,Tuesday,51.49222828547654,-0.11347153516025547
23:53,Tuesday,51.49287636772147,-0.10374809854870404
1:58,Tuesday,51.48878506962818,-0.1119662616909911
8:18,Tuesday,51.498775063046054,-0.09488143450037675
14:2,Tuesday,51.506640531807186,-0.09034023148558289
16:20,Tuesday,51.50112903677472,-0.09497345593532362
19:55,Tuesday,51.49291550400729,-0.08968161498416909
12:41,Tuesday,51.500341443131454,-0.10013890742369037
7:26,Tuesday,51.488493052880955,-0.08560444430349562
9:56,Tuesday,51.4987078521049,-0.0967410606324859
8:17,Tuesday,51.49065258990593,-0.11152733160253855
1:20,Tuesday,51.4892386233015,-0.10199619910601099
2:18,Tuesday,51.49620185962972,-0.10395942174794821
6:40,Tuesday,51.492626472067805,-0.09215192253188817
12:51,Tuesday,51.49426598609837,-0.10180102705202894
7:8,Tuesday,51.49044966209533,-0.09906527191464069
2:52,Tuesday,51.50623685734148,-0.11957425646567275
2:40,Tuesday,51.49274866762776,-0.10352273038817501
10:15,Tuesday,51.489010600690285,-0.11820895609409911
2:43,Tuesday,51.48848379585017,-0.08244763326486822
9:17,Tuesday,51.50553078331979,-0.08254122321674914
1:16,Tuesday,51.50078838675691,-0.11706522616527208
3:24,Tuesday,51.503468729655545,-0.0976892624984871
20:35,Tuesday,51.49753374454043,-0.09173302553728227
17:53,Tuesday,51.503930933902,-0.1078350413642884
2:21,Tuesday,51.489537929489565,-0.10916547621125582
12:29,Tuesday,51.50292731156452,-0.08607571282630327
11:19,Tuesday,51.50698803828401,-0.11783068150586927
21:24,Tuesday,51.49188919421375,-0.08513512793935069
6:59,Tuesday,51.50697690461059,-0.09082242737887061
17:50,Tuesday,51.49832030211915,-0.10855435589900694
18:7,Tuesday,51.4884063334743,-0.09947028216557026
22:13,Tuesday,51.493392809402536,-0.1111738233186439
1:53,Tuesday,51.4993344861877,-0.11579548340944534
21:54,Tuesday,51.49695096119628,-0.11067095706927575
3:1,Tuesday,51.49717866970018,-0.09673694161315374
21:32,Tuesday,51.5006175647189,-0.08912925413682232
7:46,Tuesday,51.497225461849716,-0.0835783477756212
13:38,Tuesday,51.49396461935063,-0.11633516345837051
6:15,Tuesday,51.50234687964038,-0.08233369135326007
10:40,Tuesday,51.50167783660113,-0.0942468991035921
15:18,Tuesday,51.489208735374014,-0.11514058187667942
2:7,Tuesday,51.5069490459716,-0.11558328836046766
15:26,Tuesday,51.498605248108206,-0.10458601848876764
0:17,Tuesday,51.50013575992654,-0.10994681095121009
6:48,Tuesday,51.490663427665176,-0.11787475142085146
10:31,Tuesday,51.50180681893566,-0.11815772083029152
12:32,Tuesday,51.49515203423097,-0.10151866575308248
23:59,Tuesday,51.49130475036024,-0.08534906573712953
13:53,Tuesday,51.505796500828026,-0.09699346912001827
6:2,Tuesday,51.48988431649204,-0.095823820184843
5:44,Tuesday,51.506676419589425,-0.11491847966623739
16:47,Tuesday,51.491296914027735,-0.09463141751595198
23:8,Tuesday,51.50416459961983,-0.08563959974086144
21:44,Tuesday,51.49471200515885,-0.10240967356610801
20:6,Tuesday,51.50188038485235,-0.08255349361632985
13:53,Tuesday,51.505304212209126,-0.08669948943694261
12:3,Tuesday,51.504140238906864,-0.1167521929927773
21:32,Tuesday,51.491120857626676,-0.11941622458664013
11:3,Tuesday,51.49438030936938,-0.09658970581405002
9:45,Tuesday,51.48895639989944,-0.0997822009080242
2:51,Tuesday,51.503510809267745,-0.09645058558804966
21:11,Tuesday,51.491246286702406,-0.09106573933476886
16:32,Tuesday,51.49831779379843,-0.11201289727081613
15:23,Tuesday,51.490094130148414,-0.08943562928970608
21:59,Tuesday,51.49515321961061,-0.08272032165698474
5:43,Tuesday,51.49362814659816,-0.09689949287219654
15:50,Tuesday,51.489615159325915,-0.09892885456168016
1:1,Tuesday,51.50207517857564,-0.1185848766978104
6:32,Tuesday,51.50430069270921,-0.11868842623866037
22:34,Tuesday,51.49188432399985,-0.11444012524495739
1:41,Tuesday,51.49102849487319,-0.08835498222552607
22:41,Tuesday,51.50454088625275,-0.09932307176740789
11:57,Tuesday,51.50249094170019,-0.11696449508408872
18:21,Tuesday,51.50271716376682,-0.08324454288040102
12:4,Tuesday,51.4966419233829,-0.09142661172149041
16:55,Tuesday,51.49269543225704,-0.08130103589019483
16:48,Tuesday,51.49140384488666,-0.08953552627354242
6:35,Tuesday,51.493379350536785,-0.11889237285310426
6:11,Tuesday,51.49303614103646,-0.08640885733709462
22:49,Tuesday,51.49078799572193,-0.09263403710156674
23:3,Tuesday,51.49202628989033,-0.10514948982921905
16:59,Tuesday,51.49779382800731,-0.08786333271137436
4:33,Tuesday,51.49166517820662,-0.0973904811578368
22:3,Tuesday,51.4988248777081,-0.09012896924145263
0:0,Tuesday,51.49950569407648,-0.11701876162128988
6:39,Tuesday,51.504264577992615,-0.11638498703203885
19:3,Tuesday,51.49656468061313,-0.08596090959260447
10:27,Tuesday,51.50422083422815,-0.09222629475921018
3:5,Tuesday,51.489308819615815,-0.08211179622675277
0:23,Tuesday,51.497382893256834,-0.09473943320875046
17:11,Tuesday,51.502412124111764,-0.08337423333491487
16:50,Tuesday,51.50102483512224,-0.0986211681424386
23:0,Tuesday,51.50383905137927,-0.10232812766882936
3:24,Tuesday,51.493673016521626,-0.09153478542208827
11:12,Tuesday,51.49333608274898,-0.08327037252610447
0:58,Tuesday,51.5047775355277,-0.10488856983514262
13:5,Tuesday,51.50457991336998,-0.11269149370259085
19:36,Tuesday,51.49157734729164,-0.09102489992276404
21:16,Tuesday,51.50279867017945,-0.08586428013250638
13:33,Tuesday,51.493664760107016,-0.11224889751032392
6:7,Tuesday,51.50084866979602,-0.11693393780962894
19:35,Tuesday,51.491911111728875,-0.08141927024823176
10:8,Tuesday,51.505389398758645,-0.08280919858205966
11:8,Tuesday,51.488313302023904,-0.10337452124455833
12:41,Tuesday,51.50553190168807,-0.10231997348993836
10:0,Tuesday,51.49423087421793,-0.11927009208583893
14:3,Tuesday,51.50514783110277,-0.09737636914212398
10:24,Tuesday,51.49517686289208,-0.09778557423336372
3:51,Tuesday,51.506531860015926,-0.11379474909128864
5:15,Tuesday,51.496674466801736,-0.08341756604892045
14:30,Tuesday,51.50454375255393,-0.09693193455400302
23:16,Tuesday,51.49347535632256,-0.0829015343799913
21:38,Tuesday,51.50238589450743,-0.09514003620465396
1:16,Tuesday,51.495919109299116,-0.10891067194305434
7:14,Tuesday,51.50518457988476,-0.08536320441594972
9:58,Tuesday,51.49014480728208,-0.10491958874217938
19:44,Tuesday,51.50221468928158,-0.11612764612045318
18:45,Tuesday,51.50436410452207,-0.11904058996760244
10:29,Tuesday,51.506017581264345,-0.11453046585042251
18:49,Tuesday,51.50170509349383,-0.09913363004685943
16:21,Tuesday,51.50440321474372,-0.1115996710125641
11:22,Tuesday,51.49145703433215,-0.11658328708157811
19:19,Tuesday,51.496514868618796,-0.1036883184976818
22:42,Tuesday,51.49866744805409,-0.09520460418541521
15:42,Tuesday,51.50067924708917,-0.09192490914128645
11:10,Tuesday,51.50036546028277,-0.1013956883872088
23:3,Tuesday,51.491975581730905,-0.11827064970654622
0:27,Tuesday,51.5047789266256,-0.117622813185268
17:47,Tuesday,51.49045260546191,-0.10836168698935282
1:16,Tuesday,51.49025166896366,-0.1055132266717959
5:1,Tuesday,51.50528327466917,-0.10380053315637702
11:9,Tuesday,51.50557694414394,-0.11040612270887877
9:3,Tuesday,51.49112516985258,-0.1129843426071765
18:4,Tuesday,51.49387635868584,-0.08162716272529846
14:35,Tuesday,51.49132571954935,-0.10572832253255073
12:12,Tuesday,51.49961629802461,-0.08970624382321533
13:45,Tuesday,51.49651489827274,-0.1131176993034593
6:58,Tuesday,51.50286041766512,-0.0849267228519176
8:18,Tuesday,51.497391775031126,-0.09612033789026615
20:14,Tuesday,51.49439674893706,-0.11675507255212837
0:37,Tuesday,51.495825724188364,-0.09915813688255408
20:48,Tuesday,51.50411652840842,-0.08350169830435579
11:10,Tuesday,51.50357395271942,-0.09254954754461253
0:56,Tuesday,51.49959983739282,-0.09299721633764518
20:24,Tuesday,51.50503621643936,-0.09819214853053825
6:58,Tuesday,51.49045827935203,-0.10415178334660811
12:8,Tuesday,51.501293013756076,-0.09933778252121687
11:24,Tuesday,51.50294582221909,-0.11270726879653754
18:6,Tuesday,51.50374710275087,-0.119347631687133
21:9,Tuesday,51.497230415348106,-0.11407575998262312
11:42,Tuesday,51.49955425781937,-0.09372167221137295
1:29,Tuesday,51.50324981738392,-0.08720110427745487
20:41,Tuesday,51.506791819949406,-0.08975073296869017
15:22,Tuesday,51.49906833888954,-0.11684238212662773
17:35,Tuesday,51.49105088227958,-0.0909516237341187
16:12,Tuesday,51.491505371190826,-0.10045126731098356
16:48,Tuesday,51.49519267314172,-0.10989857582474054
17:3,Tuesday,51.49245084619068,-0.08683465017892524
6:31,Tuesday,51.5022439015052,-0.08805474343601605
2:11,Tuesday,51.5071022106743,-0.11593186124670989
7:25,Tuesday,51.500503081674836,-0.10150931309329352
21:17,Tuesday,51.492082253790166,-0.11243992049589482
18:2,Tuesday,51.49278851363055,-0.08181166696160552
7:27,Tuesday,51.50706006954567,-0.09913702688329232
5:46,Tuesday,51.5014799448924,-0.11830517745532149
9:48,Tuesday,51.49570359066182,-0.11216701638166474
15:5,Tuesday,51.495491803409415,-0.10859736284827178
17:49,Tuesday,51.506325487825144,-0.11013283082877419
1:35,Tuesday,51.50359159782839,-0.09085975004019761
17:25,Tuesday,51.49559341100587,-0.11620820840004852
2:37,Tuesday,51.49112929100063,-0.10840515781749954
1:2,Tuesday,51.502462572635565,-0.10689072656177677
1:47,Tuesday,51.49260778262302,-0.09337628507235331
19:51,Tuesday,51.49140717319943,-0.0887860669497345
23:41,Tuesday,51.5063468079275,-0.09783148466697383
3:36,Tuesday,51.49071317626006,-0.08124215728603532
14:34,Tuesday,51.50014280845909,-0.08320625415617136
14:18,Tuesday,51.49112465505249,-0.08645135140809714
19:7,Tuesday,51.502963248486246,-0.08088407395339421
19:59,Tuesday,51.49947708172849,-0.11819435630968433
5:19,Tuesday,51.489272701248694,-0.11524839190128805
3:28,Tuesday,51.50477592639326,-0.09675692912732395
11:11,Tuesday,51.5020731187412,-0.10006243665752794
6:56,Tuesday,51.48917321428209,-0.09881720210047244
10:27,Tuesday,51.50333276267738,-0.08491973024876354
14:7,Tuesday,51.49535395263972,-0.10859376168141115
3:15,Tuesday,51.50630525129454,-0.09035795054776057
14:19,Tuesday,51.506386755730674,-0.09973525840708415
2:46,Tuesday,51.50582506895577,-0.10362611733932625
1:2,Tuesday,51.499464265448914,-0.11083976349225684
1:36,Tuesday,51.49091092663299,-0.08690746932123584
9:25,Tuesday,51.49828162398838,-0.10304100873480922
22:32,Tuesday,51.491219058239516,-0.08378389121037802
6:1,Tuesday,51.501068760839864,-0.09656348398982968
17:18,Tuesday,51.49809320079842,-0.08931344974699129
16:48,Tuesday,51.48988322749423,-0.08729771166074539
15:35,Tuesday,51.50102296724354,-0.08355428003301363
22:7,Tuesday,51.501769901236116,-0.09383260507473919
1:28,Tuesday,51.4912560384367,-0.10542619978692121
10:25,Tuesday,51.50706566125755,-0.08744925883712024
3:42,Tuesday,51.49014653033717,-0.11126803864330805
6:45,Tuesday,51.4944339448988,-0.11747558224609171
2:34,Tuesday,51.49319527979657,-0.11329165722915388
10:34,Tuesday,51.50615133215636,-0.11011521534957215
10:39,Tuesday,51.50133337344608,-0.1146654902460371
19:21,Tuesday,51.48934091315874,-0.10234102346156469
1:3,Tuesday,51.50383075266057,-0.08457643982718693
10:53,Tuesday,51.492007229565885,-0.11191751251903653
8:39,Tuesday,51.50051051568764,-0.10047002333008744
10:1,Tuesday,51.50588633346437,-0.08499024481154871
10:52,Tuesday,51.49443583644218,-0.10364305623910851
14:55,Tuesday,51.5059427748476,-0.10281558360585884
18:22,Tuesday,51.49065286028127,-0.10774257539101416
7:14,Tuesday,51.495955218916926,-0.1044761082045925
0:10,Tuesday,51.506973376591596,-0.08188276828422901
4:0,Tuesday,51.498815504153434,-0.09041537508173723
5:25,Tuesday,51.50458322671468,-0.1157564148610434
12:7,Tuesday,51.493506730624,-0.0908087365867946
15:13,Tuesday,51.500007506947654,-0.1121311331197395
19:25,Tuesday,51.50306585388291,-0.0882645643796297
7:35,Tuesday,51.49221173969291,-0.0967001615817968
15:19,Tuesday,51.49502033175357,-0.11088850306391689
5:55,Tuesday,51.49538665218528,-0.08645551894948511
13:44,Tuesday,51.50181916465133,-0.08097998755758859
19:23,Tuesday,51.4996908401557,-0.11637948350803595
11:19,Tuesday,51.50667025466793,-0.08421696029972806
3:15,Tuesday,51.4911007769286,-0.11254728919280588
21:49,Tuesday,51.497182552245384,-0.0823924195084188
13:20,Tuesday,51.498139704760284,-0.11202899042539839
12:33,Tuesday,51.504894419199346,-0.10413980572684131
20:19,Tuesday,51.495235445947465,-0.11913643508908092
15:7,Tuesday,51.489362032250476,-0.11646146620696632
15:22,Tuesday,51.50377715498494,-0.08576975045696099
2:11,Tuesday,51.49979332018349,-0.10492558566134452
16:40,Tuesday,51.49636064324616,-0.11023086497562232
3:35,Tuesday,51.490803399779374,-0.08357363276703715
12:30,Tuesday,51.496697725329135,-0.11060111797008898
16:16,Tuesday,51.50239675033681,-0.09389789508666388
9:23,Tuesday,51.49004257217551,-0.11233765554174688
11:2,Tuesday,51.50595948410554,-0.11080650937124678
9:17,Tuesday,51.493652703493126,-0.11298583329625378
4:20,Tuesday,51.504716746628155,-0.10628233597678036
15:9,Tuesday,51.50000182270743,-0.09422947540570234
6:56,Tuesday,51.50390304360793,-0.0864506341694726
6:16,Tuesday,51.50491721125889,-0.08559706722086383
2:28,Tuesday,51.49532167753563,-0.08585889238565436
7:16,Tuesday,51.505547083387526,-0.09133623467931314
18:0,Tuesday,51.49464991681116,-0.114845340666437
7:32,Tuesday,51.49518105745307,-0.08306185418513998
21:12,Tuesday,51.489683068420106,-0.11429163227577074
8:9,Tuesday,51.488930411847114,-0.11069741841207507
22:41,Tuesday,51.50162957224312,-0.08544926348194694
15:15,Tuesday,51.49361101297334,-0.09888577689122015
6:52,Tuesday,51.49654080097637,-0.10069574026468939
18:11,Tuesday,51.493647794704295,-0.0841998277384622
6:45,Tuesday,51.4982552462941,-0.11174346824787304
20:28,Tuesday,51.50133335854513,-0.10882150562252921
20:26,Tuesday,51.49602576599877,-0.08756867001361113
15:18,Tuesday,51.498124611602094,-0.08223688891115113
2:30,Tuesday,51.497014409786,-0.10649181291188213
22:16,Tuesday,51.49803576511791,-0.09579543472988677
21:32,Tuesday,51.49354172979446,-0.11020210419206529
16:37,Tuesday,51.49577767638374,-0.10309546242405915
17:58,Tuesday,51.49597191931394,-0.10854737164221964
2:48,Tuesday,51.50487160560292,-0.11811314364460022
18:30,Tuesday,51.49632567549481,-0.09051910683995587
15:20,Tuesday,51.49424944354061,-0.0850187684195349
17:5,Tuesday,51.502728329414566,-0.09842677250071859
14:30,Tuesday,51.49417393120148,-0.09677110920585637
14:1,Tuesday,51.50303988410328,-0.11349134975653712
22:46,Tuesday,51.4907462095064,-0.11253108095214183
16:57,Tuesday,51.490885466696774,-0.11856282383231069
22:58,Tuesday,51.50057840316644,-0.09623608513496372
18:52,Tuesday,51.49272458547877,-0.09573623172726123
11:21,Tuesday,51.49186923910739,-0.1165719291091366
18:38,Tuesday,51.49874302327165,-0.11973721396056684
19:51,Tuesday,51.49816010406893,-0.11181127587562104
4:50,Tuesday,51.496626982932,-0.08971948401947147
14:35,Tuesday,51.500416683483266,-0.11033597017846541
19:20,Tuesday,51.492164186815444,-0.1142820674177037
22:30,Tuesday,51.49048726853828,-0.09963306114133605
20:41,Tuesday,51.505232204117945,-0.09022590345027612
17:58,Tuesday,51.49674690113079,-0.11668558834916395
2:30,Tuesday,51.492627932196065,-0.08300142427414786
12:28,Tuesday,51.49757017041141,-0.08367201138996652
15:46,Tuesday,51.502515333809434,-0.10171467515423344
12:50,Tuesday,51.49084509578608,-0.11196075711229014
18:7,Tuesday,51.50170105847301,-0.11291314335058249
11:22,Tuesday,51.489575954887954,-0.08121962882719466
8:32,Tuesday,51.50242160925195,-0.11909241673159487
11:39,Tuesday,51.49208190345093,-0.11387807219440955
13:26,Tuesday,51.489174261960294,-0.11098938238808853
18:46,Tuesday,51.490965384998134,-0.09002131427444307
17:5,Tuesday,51.49494152074603,-0.09071967127120606
12:51,Tuesday,51.49007572653241,-0.08917454411635295
19:56,Tuesday,51.50165434966581,-0.09141053666732601
23:1,Tuesday,51.500850223439066,-0.09210199843489594
5:55,Tuesday,51.500301155279615,-0.10061487349709014
1:22,Tuesday,51.50183682984409,-0.10652207014948738
19:11,Tuesday,51.4887374260844,-0.1007306566688805
8:34,Tuesday,51.505969075368796,-0.11047344385583636
6:24,Tuesday,51.506742941468964,-0.09091742778804876
20:29,Tuesday,51.50141393724836,-0.08312403830025322
13:47,Tuesday,51.49475489163176,-0.0937621863137924
15:53,Tuesday,51.49377140368925,-0.08567354281234146
22:46,Tuesday,51.500969232137365,-0.0821246496504314
13:26,Tuesday,51.491884601927616,-0.086546208060956
13:3,Tuesday,51.504003043494116,-0.11506926147482649
22:28,Tuesday,51.496667913536534,-0.10184441999741606
12:7,Tuesday,51.493508592631066,-0.09644499110727982
23:11,Tuesday,51.489094951324915,-0.08284232120859758
22:56,Tuesday,51.500189235715816,-0.08264288580396856
12:17,Tuesday,51.49793669091436,-0.10826121384009225
16:55,Tuesday,51.49053427520312,-0.08481897190234282
6:6,Tuesday,51.5064519705086,-0.11047041206182814
10:8,Tuesday,51.50407691089894,-0.10021053744051746
23:53,Tuesday,51.503868749684536,-0.10586042384485499
13:59,Tuesday,51.49712725811613,-0.08180782160018954
16:49,Tuesday,51.494144654665476,-0.08485041453520586
8:37,Tuesday,51.502256725126145,-0.10673137135765423
1:17,Tuesday,51.494169024080946,-0.09129028177057752
16:48,Tuesday,51.492099305490626,-0.10976091450740078
3:13,Tuesday,51.495186612639074,-0.0888578305090801
8:39,Tuesday,51.494778559251905,-0.1019720814251199
10:43,Tuesday,51.48930533704408,-0.08264810192989167
19:46,Tuesday,51.48917310890594,-0.09630461779180129
6:29,Tuesday,51.48897694664038,-0.084855587035718
11:37,Tuesday,51.50430530824935,-0.10421050740076832
21:10,Tuesday,51.49470623939739,-0.10267874087578152
21:28,Tuesday,51.49827908733031,-0.1167060850739591
17:59,Tuesday,51.4989308236038,-0.0871664330610786
3:43,Tuesday,51.4943034081753,-0.08694759126578269
1:24,Tuesday,51.50673571749751,-0.11334514091768956
1:40,Tuesday,51.4895358372927,-0.09011045512058752
18:42,Tuesday,51.49170200197793,-0.08643362119376453
6:29,Tuesday,51.49854427560603,-0.08402444076288765
1:48,Tuesday,51.48905725313469,-0.11457227313856122
12:30,Tuesday,51.49780445599879,-0.08688478711848063
19:53,Tuesday,51.49030071227515,-0.08133908554452957
15:7,Tuesday,51.50074953618262,-0.11511530386424075
10:50,Tuesday,51.495934762876146,-0.0907427091508582
23:11,Tuesday,51.493722637770496,-0.0910620640598577
22:55,Tuesday,51.49228540504467,-0.0884845324084097
1:32,Tuesday,51.498372100531995,-0.1194426233022826
9:0,Tuesday,51.48909925356615,-0.11373537299528624
18:18,Tuesday,51.50175367700376,-0.11933404365743053
9:3,Tuesday,51.49639393794995,-0.08312744379173344
6:4,Tuesday,51.496053565132925,-0.11088194877977184
8:34,Tuesday,51.5031361050996,-0.11055764400451829
6:28,Tuesday,51.48969407497002,-0.10018555020121661
4:21,Tuesday,51.49166607531512,-0.09325354156474744
0:40,Tuesday,51.489131381270006,-0.08886718798235156
7:5,Tuesday,51.49296981288026,-0.09686564073219374
11:27,Tuesday,51.5056561139794,-0.11572393163288691
21:27,Tuesday,51.50475246490986,-0.1119882136387002
10:2,Tuesday,51.48926598659834,-0.09169509158249685
4:44,Tuesday,51.50437952346587,-0.09096974183920614
9:9,Tuesday,51.49469433669781,-0.10603053561643239
0:59,Tuesday,51.49894361757421,-0.0899544100529182
13:33,Tuesday,51.49273072479638,-0.11851564018899853
3:34,Tuesday,51.50502920645334,-0.10230363119839511
0:4,Tuesday,51.490274631195156,-0.11161166258513804
23:4,Tuesday,51.50618985839279,-0.09864978478302966
3:23,Tuesday,51.49634247880868,-0.11435339416765924
9:37,Tuesday,51.50458637998911,-0.1144904916775816
18:26,Tuesday,51.488476719616884,-0.09848114038959409
16:54,Tuesday,51.489121851186475,-0.08412485020789581
23:59,Tuesday,51.501534060355375,-0.08552463603696753
15:41,Tuesday,51.49535958494343,-0.08237665442105749
18:39,Tuesday,51.506602913896806,-0.09025853306991882
18:4,Tuesday,51.505523775243255,-0.11284668402737347
6:50,Tuesday,51.50311154581687,-0.10353502640489223
18:38,Tuesday,51.49523223360339,-0.11583610178336569
21:11,Tuesday,51.49062365939807,-0.11264784236857606
4:39,Tuesday,51.502367381583106,-0.08528115282334606
12:59,Tuesday,51.50348546498996,-0.08353771687311709
0:43,Tuesday,51.49245078004941,-0.08201048594102481
14:19,Tuesday,51.493164783503644,-0.10594063778051489
2:59,Tuesday,51.49655935371302,-0.09705143908044472
3:43,Tuesday,51.50464263891681,-0.09805868903894636
4:4,Tuesday,51.49650407125714,-0.09127857572124495
11:8,Tuesday,51.502082284943484,-0.11330437526122088
7:40,Tuesday,51.49852000990153,-0.08672065837944912
5:2,Tuesday,51.493569284326455,-0.10090962480726423
18:52,Tuesday,51.494419443987525,-0.08428994143693826
6:33,Tuesday,51.49689074486269,-0.09614261927548265
2:17,Tuesday,51.49794388616228,-0.10632210033097059
3:42,Tuesday,51.50229325813005,-0.09895803706055063
23:10,Tuesday,51.49541812988283,-0.08279484513772442
20:47,Tuesday,51.495577587905025,-0.10928587387723175
8:7,Tuesday,51.495023232730496,-0.10697017588423051
22:49,Tuesday,51.497009384686166,-0.11117683126450639
21:38,Tuesday,51.50545168754893,-0.11534462236028345
2:36,Tuesday,51.5062648903405,-0.11088734957287767
17:0,Tuesday,51.49901513274334,-0.10834338044349733
20:25,Tuesday,51.490228905768454,-0.11718130699611831
13:26,Tuesday,51.506116136686266,-0.08534778662138628
12:23,Tuesday,51.50567630712071,-0.10238060394118587
10:51,Tuesday,51.505559784013485,-0.09420212609308277
21:51,Tuesday,51.498591026958636,-0.11218429171548859
18:6,Tuesday,51.49173378181803,-0.10793735251735292
10:43,Tuesday,51.49941318457465,-0.0973119747982008
10:5,Tuesday,51.49604156549945,-0.0970731209102833
7:56,Tuesday,51.499062875400824,-0.09892210226618123
19:58,Tuesday,51.489298518352996,-0.11430005408852816
22:35,Tuesday,51.49932935430208,-0.09465568477211345
17:23,Tuesday,51.49771127640341,-0.11738385019457785
14:14,Tuesday,51.49214402490598,-0.09519105536064973
0:30,Tuesday,51.49854872697046,-0.11872431775622629
11:20,Tuesday,51.49969372683919,-0.10305151193530226
19:35,Tuesday,51.49506798534949,-0.11297189372084736
22:11,Tuesday,51.496838248189135,-0.08965316731700086
23:40,Tuesday,51.496880914123764,-0.10337250549844548
0:34,Tuesday,51.499560104962875,-0.08673820656555317
3:30,Tuesday,51.489967349949815,-0.10929876881191715
5:29,Tuesday,51.496878405432376,-0.11100268112346588
16:39,Tuesday,51.50384010210321,-0.1046785050353625
0:35,Tuesday,51.501720144962746,-0.11128088187336377
2:59,Tuesday,51.501857850243354,-0.08265171435892897
16:58,Tuesday,51.504064954945584,-0.10152208297825924
11:0,Tuesday,51.497804786633985,-0.1058090343856696
13:44,Tuesday,51.500034877076054,-0.10933952811152092
8:0,Tuesday,51.499946745398226,-0.09975899984730072
21:33,Tuesday,51.49961106518277,-0.10538395360872195
1:6,Tuesday,51.495423702881155,-0.09204121895745843
23:50,Tuesday,51.49380465861383,-0.11629365205353227
7:54,Tuesday,51.499659862820565,-0.09593795875795023
4:41,Tuesday,51.49849853761086,-0.11938200181549094
21:48,Tuesday,51.49488021672461,-0.11274857299586527
2:18,Tuesday,51.50075181930412,-0.0813169896144701
22:7,Tuesday,51.49207589163018,-0.10965037041080612
11:34,Tuesday,51.49538515150234,-0.11434351132906112
9:52,Tuesday,51.494212520325554,-0.11982943373567842
17:37,Tuesday,51.49434952770739,-0.09347995529007569
20:0,Tuesday,51.49205396057825,-0.08513611651449934
10:50,Tuesday,51.502854195859264,-0.08090264427201133
14:38,Tuesday,51.48837006796514,-0.1193522625553058
5:2,Tuesday,51.49795564922479,-0.11536179970864904
13:33,Tuesday,51.49299497773711,-0.09242821206431805
13:24,Tuesday,51.48971475314657,-0.1160625118005417
8:3,Tuesday,51.488574245902974,-0.11911685750767645
3:48,Tuesday,51.49894811125552,-0.09816725466687125
18:8,Tuesday,51.4938761200021,-0.11607870182132117
22:23,Tuesday,51.49950095426069,-0.11366972153445029
16:32,Tuesday,51.50128482918547,-0.11155229171136762
4:35,Tuesday,51.50164258924003,-0.11568959769485189
22:56,Tuesday,51.489516808716964,-0.09024148228935573
2:51,Tuesday,51.50420759016456,-0.0872181603230043
1:15,Tuesday,51.48888978066718,-0.0927252455327532
17:5,Tuesday,51.489768070450125,-0.10027677255946056
23:48,Tuesday,51.48876163127637,-0.10000843825851273
18:20,Tuesday,51.490562973588005,-0.09174250690824712
19:36,Tuesday,51.49428410403314,-0.11401839949535741
7:18,Tuesday,51.488701442219146,-0.11657005639408041
8:51,Tuesday,51.506252504964124,-0.10185023853735192
6:38,Tuesday,51.496408216539194,-0.10856673373404074
18:33,Tuesday,51.504237705413765,-0.1020319415094666
9:18,Tuesday,51.498924119719426,-0.09578196253762433
10:44,Tuesday,51.5030628977184,-0.09965101130846625
11:36,Tuesday,51.5048835664792,-0.09153479791954501
22:30,Tuesday,51.49477809149914,-0.10320974167531219
18:55,Tuesday,51.49408796040654,-0.09543329503429962
21:16,Tuesday,51.49961502633758,-0.09037528976705822
23:32,Tuesday,51.50022459726286,-0.10351409068123972
16:32,Tuesday,51.490029114915885,-0.11213186840359535
7:19,Tuesday,51.49637587635692,-0.10295506163749696
6:5,Tuesday,51.496417513365124,-0.08191856006527251
9:1,Tuesday,51.49828275157709,-0.10256253397021178
10:53,Tuesday,51.502123959745475,-0.09726176080015111
7:45,Tuesday,51.49352407075043,-0.11370584707181246
3:1,Tuesday,51.50464985891001,-0.09920259874625353
6:12,Tuesday,51.498061620679046,-0.09739006054495647
3:10,Tuesday,51.49142822837426,-0.08769071306597837
7:21,Tuesday,51.49460134535271,-0.11107332531903107
18:58,Tuesday,51.49713619981945,-0.11175860142899009
3:2,Tuesday,51.4899496901002,-0.10457894661600134
23:28,Tuesday,51.4983365493847,-0.09961274902021311
1:7,Tuesday,51.492379231620994,-0.08359485710942946
3:39,Tuesday,51.493661199027954,-0.10768370155639718
22:56,Tuesday,51.49456420856439,-0.11176973334370328
2:27,Tuesday,51.49134928533105,-0.09008576526909402
12:53,Tuesday,51.50698245972716,-0.10228314953664563
6:50,Tuesday,51.492104349279955,-0.09233806174268194
22:20,Tuesday,51.49610291312142,-0.0920101423591207
20:23,Tuesday,51.50069462594495,-0.08902919937513087
15:14,Tuesday,51.49456814042229,-0.08312965492576674
19:46,Tuesday,51.49958659836228,-0.11683362154178631
22:58,Tuesday,51.497706943201216,-0.10659824458714215
2:58,Tuesday,51.50601532685211,-0.10748824746929593
9:38,Tuesday,51.48837861452337,-0.09625659317633654
2:35,Tuesday,51.498363258327025,-0.1098363578441119
11:45,Tuesday,51.49819927983836,-0.09573515219725863
1:55,Tuesday,51.49094403054587,-0.08178291211302154
20:42,Tuesday,51.489479865467516,-0.10765551154500981
3:35,Tuesday,51.49365460795637,-0.08516769487630396
8:2,Tuesday,51.50007653975798,-0.11748491866823735
0:42,Tuesday,51.49789531834082,-0.1028545131458749
17:9,Tuesday,51.502689027209335,-0.08293839187873028
6:20,Tuesday,51.4915616123146,-0.09957452957648569
13:51,Tuesday,51.48964181712887,-0.09051589475915967
20:6,Tuesday,51.49084243207607,-0.08370068854214285
12:31,Tuesday,51.49428358377492,-0.09502695282459256
10:35,Tuesday,51.49292078813876,-0.09797495599826848
23:36,Tuesday,51.49112224696388,-0.09355798755953247
20:19,Tuesday,51.48833890691869,-0.11690357911209888
3:36,Tuesday,51.49820213302723,-0.08581994173726434
13:10,Tuesday,51.48997816385224,-0.10941259184039127
5:1,Tuesday,51.492830369669925,-0.0977118312904101
22:44,Tuesday,51.504439317554244,-0.09610003960637731
12:42,Tuesday,51.49620736602019,-0.08399182227343333
6:20,Tuesday,51.50177581607742,-0.0885647907886323
8:53,Tuesday,51.49345695841807,-0.09131501868659526
13:31,Tuesday,51.49164794956293,-0.09249854758124518
15:33,Tuesday,51.50557574640267,-0.09743949765550833
18:58,Tuesday,51.49439664406985,-0.08624968482252357
6:26,Tuesday,51.49951403193781,-0.08431067919188795
11:21,Tuesday,51.50263189731367,-0.09982408764806186
21:21,Tuesday,51.49380381786581,-0.08564150787560032
7:31,Tuesday,51.49823194595281,-0.10660199574854777
12:35,Tuesday,51.498368187081766,-0.10118942528461473
6:5,Tuesday,51.49576775676763,-0.11816152336894871
19:0,Tuesday,51.499004958622166,-0.11847104607980488
20:43,Tuesday,51.497740311399234,-0.09925752718086084
18:8,Tuesday,51.50626746422861,-0.09180804153474019
23:57,Tuesday,51.492045238058964,-0.11411976741903276
1:43,Tuesday,51.494102107788635,-0.0874202135892309
12:12,Tuesday,51.50468518566987,-0.10478609816442214
10:53,Tuesday,51.49875568444975,-0.09030999088145461
16:28,Tuesday,51.5010920994548,-0.09729991274572009
11:12,Tuesday,51.50193084881296,-0.11574577398882975
13:16,Tuesday,51.49841495616282,-0.10009809875277298
3:16,Tuesday,51.49468434572837,-0.1019403954356693
21:52,Tuesday,51.49269289279695,-0.11452282580878022
23:38,Tuesday,51.49375690619757,-0.11305590950717632
18:53,Tuesday,51.50157385074408,-0.09572123378162783
15:0,Tuesday,51.48945331025664,-0.1057652476583889
12:29,Tuesday,51.49185870834776,-0.09303854252135682
7:49,Tuesday,51.49845712174647,-0.10740280959746394
10:44,Tuesday,51.493121736560035,-0.10901080195031626
1:40,Tuesday,51.50019366414513,-0.11257076374473052
5:7,Tuesday,51.490782953178154,-0.11886016924246097
6:52,Tuesday,51.504716931573675,-0.08160834407019857
21:34,Tuesday,51.50246139936705,-0.1142910110398831
3:54,Tuesday,51.497666848837014,-0.09042077408445309
18:32,Tuesday,51.488631426524584,-0.08262336344444547
19:9,Tuesday,51.49344020143397,-0.10813838019968776
8:19,Tuesday,51.491207202121,-0.11971945806904614
14:18,Tuesday,51.506388721214954,-0.11822188258892287
7:39,Tuesday,51.48916983489415,-0.09037189903797399
13:3,Tuesday,51.491825883308024,-0.0843311003936856
12:17,Tuesday,51.49301267798538,-0.11537681155549992
7:13,Tuesday,51.49695299633262,-0.08775285304366248
16:18,Tuesday,51.50557076418442,-0.09620793879239004
7:5,Tuesday,51.49566157475333,-0.09553137140892613
3:59,Tuesday,51.50324377421648,-0.10626157870222029
8:2,Tuesday,51.50667190965172,-0.08892817575209958
20:46,Tuesday,51.49673590552508,-0.0996421723659768
6:20,Tuesday,51.4917514249799,-0.10407283826486816
3:7,Tuesday,51.49069427013203,-0.10940327628840697
21:40,Tuesday,51.506267398503766,-0.087893972120484
0:41,Tuesday,51.4993185496744,-0.08401306372079315
18:6,Tuesday,51.499014319944045,-0.09679837233761504
11:37,Tuesday,51.50512710676346,-0.11025411502002279
23:17,Tuesday,51.49639583524431,-0.10971152458852491
4:44,Tuesday,51.48943592063552,-0.10324211792135271
14:35,Tuesday,51.49298920110683,-0.10761212909994215
5:52,Tuesday,51.49467472935043,-0.0941562093342183
1:39,Tuesday,51.49167019328436,-0.0892519729941838
8:36,Tuesday,51.50075226856492,-0.11662773509737734
16:2,Tuesday,51.48995492682909,-0.10588803489607573
12:36,Tuesday,51.49395179736185,-0.11108452735991162
13:19,Tuesday,51.50316011700874,-0.11767772612112189
5:8,Tuesday,51.49371370030446,-0.0841882947466984
3:28,Tuesday,51.49501508091342,-0.10248454623245797
2:33,Tuesday,51.4998134116638,-0.08589905073497323
22:12,Tuesday,51.50092333024104,-0.10860628938525392
6:24,Tuesday,51.48953778954521,-0.08193757556178924
22:39,Tuesday,51.506959304169065,-0.10781179522371598
23:55,Tuesday,51.497732813589096,-0.11742336196246914
17:0,Tuesday,51.50356772214944,-0.09242194066338394
6:28,Tuesday,51.507096724123734,-0.08395341185325642
2:14,Tuesday,51.493125030385436,-0.09773789578536204
22:16,Tuesday,51.501593530308654,-0.08579218071380323
4:54,Tuesday,51.497852945088205,-0.08786427712806281
4:47,Tuesday,51.501685916096015,-0.11323536002019521
7:10,Tuesday,51.490737834424955,-0.09355427349948962
2:40,Tuesday,51.50235530271419,-0.11398280450830695
23:55,Tuesday,51.48967989465338,-0.11730099149992573
10:46,Tuesday,51.491207385928504,-0.11746300592774855
13:13,Tuesday,51.50573837987583,-0.11851124408910563
7:46,Tuesday,51.499663405400064,-0.1108045725293641
8:46,Tuesday,51.50046172782181,-0.10191339113870745
21:12,Tuesday,51.48965112304309,-0.1168838838887445
22:58,Tuesday,51.506075794522204,-0.09928647575545546
3:31,Tuesday,51.50353939133954,-0.09191814411560875
21:59,Tuesday,51.501981156611954,-0.09309810311798304
13:55,Tuesday,51.50351601262509,-0.11137949586160349
20:0,Tuesday,51.50004314397791,-0.11908691727528779
18:36,Tuesday,51.496459440505575,-0.10107548023258764
11:31,Tuesday,51.48927943334672,-0.08166964483926378
15:14,Tuesday,51.50271718199027,-0.08855316996036533
9:10,Tuesday,51.49917675554374,-0.10406886183315443
2:0,Tuesday,51.49417210043034,-0.11886520750097075
4:3,Tuesday,51.48942633482642,-0.09030730735384382
22:40,Tuesday,51.502913305860424,-0.09576875753639683
19:7,Tuesday,51.49413922054593,-0.08674200252233402
23:18,Tuesday,51.505744929090454,-0.09135617138019986
1:20,Tuesday,51.50320753951277,-0.08892252553200095
1:15,Tuesday,51.50486370259685,-0.08934534986527388
19:22,Tuesday,51.49503106135092,-0.10968252852994287
11:47,Tuesday,51.491427523246486,-0.11217750450043315
12:51,Tuesday,51.49290343362981,-0.11142299098461009
6:15,Tuesday,51.50359028998461,-0.10248784861602081
9:21,Tuesday,51.49703877341396,-0.11572473892304111
15:56,Tuesday,51.4984010384252,-0.11064551178311526
3:27,Tuesday,51.49420045594224,-0.1149978566143622
17:53,Tuesday,51.4962020606535,-0.10930546131831828
1:39,Tuesday,51.492817378445835,-0.08346844635882528
13:11,Tuesday,51.498499310045894,-0.09107167029430088
19:33,Tuesday,51.488984543058976,-0.11313509907481178
8:9,Tuesday,51.4946848841321,-0.10867107900180661
5:59,Tuesday,51.50079538677762,-0.11494077233096481
11:16,Tuesday,51.49207439260904,-0.11833183773657704
14:13,Tuesday,51.49646117984749,-0.08189965976227015
18:26,Tuesday,51.49972736076253,-0.11685465786452486
18:34,Tuesday,51.488873435086454,-0.10624561777336902
6:56,Tuesday,51.491826444138674,-0.08193269185410132
6:8,Tuesday,51.49215279675528,-0.10377843523032955
15:47,Tuesday,51.504761004284056,-0.0908866247939639
4:33,Tuesday,51.50236210964559,-0.10005951295941225
9:23,Tuesday,51.50611742475001,-0.11417215510905362
0:39,Tuesday,51.48879454711264,-0.10473430063945904
4:34,Tuesday,51.49161854491803,-0.1121614005929548
9:56,Tuesday,51.49945562662384,-0.11561466296832365
8:4,Tuesday,51.48863158522138,-0.11979779271947812
8:5,Tuesday,51.49972488533615,-0.11807136694913498
3:23,Tuesday,51.506677664937456,-0.09932292309262183
9:15,Tuesday,51.50546809544385,-0.11715132202512415
4:52,Tuesday,51.5038394106531,-0.1139375340164361
6:13,Tuesday,51.49461682530569,-0.08559541320558871
10:33,Tuesday,51.503688697266114,-0.11355240279504106
12:51,Tuesday,51.50511649492464,-0.09306864561317728
10:33,Tuesday,51.4918846170009,-0.11165640826358277
1:17,Tuesday,51.496434735193404,-0.10892345287327061
7:44,Tuesday,51.50593650483656,-0.08431238089826729
23:47,Tuesday,51.497839672453566,-0.10184848976354102
18:32,Tuesday,51.49517862206924,-0.11923935153058135
1:42,Tuesday,51.506896920776065,-0.09463669303032321
22:7,Tuesday,51.491608784741594,-0.08921867155117791
0:30,Tuesday,51.49609462449382,-0.10921381253968641
16:23,Tuesday,51.50296246727867,-0.10129665478087109
10:19,Tuesday,51.498712074421846,-0.0824325627184089
17:29,Tuesday,51.4913894875753,-0.10353775016798716
0:33,Tuesday,51.49987570946826,-0.11258109991264037
23:10,Tuesday,51.50205115639068,-0.08079754624569126
22:18,Tuesday,51.49689205513585,-0.09676702037731402
23:30,Tuesday,51.50674874539214,-0.098146292029916
21:42,Tuesday,51.50387135800492,-0.09459756129066656
8:56,Tuesday,51.48972992765396,-0.08148043554636247
19:46,Tuesday,51.500862050151504,-0.10304152185637697
11:24,Tuesday,51.50370992214737,-0.0824891049748675
4:33,Tuesday,51.489176942314025,-0.0848103317658615
6:26,Tuesday,51.50327107926987,-0.11590597459302127
21:58,Tuesday,51.49517582880779,-0.11668614107668068
18:15,Tuesday,51.493105522899704,-0.09979433714430883
23:1,Tuesday,51.497327579798906,-0.10082457559394832
3:7,Tuesday,51.50302164405749,-0.099843118560345
1:18,Tuesday,51.4993346331436,-0.0905837675533569
15:14,Tuesday,51.50581299535892,-0.0943765829058207
8:4,Tuesday,51.498051202327126,-0.09657140919373006
8:47,Tuesday,51.49029909483479,-0.106640174845389
23:2,Tuesday,51.49900387816352,-0.10053493811718298
19:7,Tuesday,51.50126747362025,-0.10891971481246772
13:57,Tuesday,51.496307798563045,-0.11149615853846331
14:1,Tuesday,51.494197078550634,-0.11206136983514209
12:47,Tuesday,51.49644073206355,-0.0994839937723049
6:19,Tuesday,51.49494147381677,-0.08719193183715038
5:43,Tuesday,51.4892026384378,-0.080828071307214
22:18,Tuesday,51.494361111021924,-0.09704396163267268
6:48,Tuesday,51.49821499863773,-0.11672708886967824
22:39,Tuesday,51.48959415177493,-0.10715833129035032
7:35,Tuesday,51.495464316654555,-0.09156537105676217
23:44,Tuesday,51.499761550371154,-0.082891918597888
14:19,Tuesday,51.50027224055577,-0.08701393927087658
13:27,Tuesday,51.50024501511897,-0.10358885179191102
16:55,Tuesday,51.49034062526288,-0.10020070209533455
20:36,Tuesday,51.49556235738664,-0.08638352629926913
4:23,Tuesday,51.492659176910124,-0.11390044335050899
20:7,Tuesday,51.50611487448458,-0.09786308748524776
8:16,Tuesday,51.49693568232302,-0.09973101851918402
23:40,Tuesday,51.50067697800419,-0.09008521698878383
2:51,Tuesday,51.4919436988847,-0.09464420652466723
16:34,Tuesday,51.50629398515828,-0.08135385079624313
5:18,Tuesday,51.49777967698324,-0.09029674598185995
7:0,Tuesday,51.504795409688825,-0.11796726168915622
6:27,Tuesday,51.49207310519521,-0.10097513675955974
12:57,Tuesday,51.50630676855485,-0.114889316271285
12:46,Tuesday,51.490598927978986,-0.1151859931467917
10:5,Tuesday,51.49027488682328,-0.08414340981265678
2:30,Tuesday,51.50174152431897,-0.10711227426254832
2:56,Tuesday,51.489769785951935,-0.10538706208764789
8:31,Tuesday,51.48902798773291,-0.10943423827681222
1:12,Tuesday,51.489777459376185,-0.09659022041862136
5:15,Tuesday,51.489993302759785,-0.08443868781589495
11:38,Tuesday,51.50366324201268,-0.10992322901810475
13:24,Tuesday,51.506334979906455,-0.1154909485390421
16:36,Tuesday,51.496680493040124,-0.08410055207223952
13:31,Tuesday,51.503976376637326,-0.08179272337421367
19:11,Tuesday,51.49435517235357,-0.09129705545546035
6:52,Tuesday,51.48967293355001,-0.11220203255000105
7:46,Tuesday,51.5040111750119,-0.09317212625137963
0:23,Tuesday,51.48998133714633,-0.09883180165127965
3:40,Tuesday,51.49957419723453,-0.0837577925024207
7:10,Tuesday,51.5038960491602,-0.08677807150778356
11:21,Tuesday,51.49517683289597,-0.09325195877097657
2:32,Tuesday,51.49672980435602,-0.09349674281519903
8:42,Tuesday,51.495700190886694,-0.10601449931652814
8:39,Tuesday,51.49352122857666,-0.10623719880252723
15:19,Tuesday,51.49689104447712,-0.11481270733418063
23:49,Tuesday,51.501574855555795,-0.11572663975183206
13:6,Tuesday,51.5018621702426,-0.0936702545118798
3:50,Tuesday,51.496733504561206,-0.10476578225591678
10:13,Tuesday,51.50382795618385,-0.09584966179899351
1:23,Tuesday,51.49856874341744,-0.08193525499886478
6:6,Tuesday,51.496239559813624,-0.08726758573367639
23:7,Tuesday,51.49628304133984,-0.10842153144999003
0:7,Tuesday,51.4985469552231,-0.10257760040932047
1:19,Tuesday,51.499060476703065,-0.08142274721149567
23:13,Tuesday,51.504066021299394,-0.08707443116504043
15:31,Tuesday,51.50057978079323,-0.1076075845637854
22:49,Tuesday,51.50220661511351,-0.1000165927104411
15:41,Tuesday,51.49483929762544,-0.08145436726629204
1:22,Tuesday,51.49508282476915,-0.08223215192801482
10:57,Tuesday,51.504585310931716,-0.11147885135781513
23:18,Tuesday,51.506711194977186,-0.08171996095899328
1:3,Tuesday,51.50009305697957,-0.10297669516321278
2:58,Tuesday,51.493994926595356,-0.10990666856877188
9:3,Tuesday,51.50395014636283,-0.11312142963958764
